0,-1,690788,237298,1340796,70769,6829,669905,0
0,3,759829,266274,1448626,78547,8490,724040,0
0,-1,689162,236840,1296137,70522,7719,647535,2
0,-1,642889,221102,1248171,66647,7805,623281,0
0,-1,638278,218323,1150428,65597,7105,574702,0
0,-1,688394,233016,1403150,71839,8236,700873,0
0,-1,636587,218359,1340779,65697,7316,669938,0
0,-1,644461,218867,1402090,65870,7738,700655,0
0,-1,639399,218953,1241870,65838,6982,620450,0
0,-1,640617,219238,1276044,65924,8000,637380,0
0,-1,656345,223263,1230894,68986,7658,615067,0
0,-1,657767,223743,1234407,69049,7432,616720,0
0,3,710672,249719,1571619,74140,10555,785407,0
0,-1,647273,222302,1401852,66916,8684,700166,0
0,-1,640151,219366,1313285,65916,8021,656089,0
0,-1,662648,224433,1322481,69352,9150,660733,0
0,-1,641035,219561,1285321,65769,8524,642126,0
0,-1,640600,220626,1279337,66377,7692,639005,0
0,-1,639970,218981,1346867,65718,7617,672567,0
0,-1,638783,218533,1307934,65443,7480,653550,0
0,-1,632345,218044,1312552,64948,7639,655889,0
0,-1,643709,219214,1316977,66247,8379,658012,0
0,-1,640823,219997,1221926,66699,6713,610283,0
0,3,715519,248421,1437029,74105,8933,717722,0
0,-1,641807,219612,1352922,66223,8340,675859,0
0,-1,640592,217422,1331234,65501,8586,665091,0
0,-1,664774,224237,1342088,69704,9179,671117,0
0,-1,642448,220236,1246902,66518,7447,623039,0
0,-1,642667,218996,1259789,65916,7915,629419,0
0,-1,644512,219705,1360948,66341,9077,679741,0
0,-1,640261,219409,1256652,66239,7649,627842,0
1,-1,694059,238093,1375184,71022,7527,687121,2
1,-1,659721,223602,1262694,69000,8315,630742,0
1,-1,647520,221454,1251190,66912,7988,624713,0
1,-1,639906,219428,1323072,65907,7128,661018,0
1,-1,646848,221083,1350281,66909,8485,674440,0
1,-1,644437,219935,1381959,66445,8294,690193,0
1,-1,642760,220696,1358209,66522,7243,678453,0
1,-1,640544,219670,1622428,66092,9066,810278,0
1,-1,638211,220257,1367848,66243,7955,683429,0
1,-1,639769,220483,1248185,66183,7074,623544,0
1,3,732146,254355,1441374,77462,9962,720257,0
1,-1,642123,220899,1235079,66254,7899,617011,0
1,-1,640555,219267,1228386,65747,7121,613838,0
1,-1,641338,219167,1374731,65853,8182,686501,0
1,-1,642560,219872,1284516,65845,8073,641894,0
1,-1,636301,218231,1201859,65496,7065,600483,0
1,-1,661148,222927,1308099,68730,8703,653528,0
1,-1,641843,218627,1269005,65501,7749,633943,0
1,-1,643919,221679,1216180,66564,7670,606199,0
1,-1,644615,220199,1277580,66771,8113,637894,0
1,-1,638449,219275,1335293,66312,7130,667161,0
1,3,737579,254256,1604865,78298,10878,801961,0
1,-1,642263,220385,1324042,66778,7754,660482,0
1,-1,646033,219975,1386164,66409,7959,692187,0
1,-1,640981,219123,1353098,66127,7869,676346,0
1,-1,671776,231120,1293604,70125,7503,646062,0
1,-1,644324,220185,1301831,66490,8253,650120,0
1,-1,645292,219710,1365890,66354,8837,682364,0
1,-1,646973,221353,1270908,67243,7296,633922,0
2,-1,635799,219173,1284393,65886,8145,641662,2
2,-1,638653,219410,1206596,65869,6548,602110,0
2,-1,659660,222905,1339726,68914,8495,669385,0
2,-1,639149,219408,1233347,65904,7031,616207,0
2,-1,663766,223806,1302882,69306,8999,650922,0
2,-1,641868,218793,1380654,65836,7910,689894,0
2,-1,639504,219816,1358935,66123,7301,679170,0
2,-1,637649,218959,1245103,65821,7306,622032,0
2,-1,636581,220121,1281048,66180,6940,640148,0
2,-1,639876,219096,1147138,65688,6780,573141,0
2,3,714605,248804,1358642,73896,8783,678894,0
2,-1,653090,222428,1356871,67037,8265,677665,0
2,-1,639967,219488,1330800,65952,7589,664886,0
2,-1,639091,219277,1303093,65862,7727,650754,0
2,-1,640827,219214,1188985,65683,7622,594039,0
2,-1,642157,218931,1253958,65632,7884,626547,0
2,-1,641681,219107,1320029,65766,8070,659376,0
2,-1,662782,223641,1436520,68919,8370,717476,0
2,-1,657892,223855,1362599,68706,8607,680824,0
2,-1,662294,223756,1411741,69501,9081,705301,0
2,-1,665299,223470,1411309,69455,8511,705200,0
2,3,719058,250902,1508289,75273,9125,752777,0
2,-1,659886,223486,1389010,69282,9319,694044,0
2,-1,642326,219017,1291969,66047,7599,645397,0
2,-1,643595,220229,1360403,66794,8737,679154,0
2,-1,643203,221063,1408578,66849,7680,703782,0
2,-1,646364,221333,1174301,67048,7888,586355,0
2,-1,649732,221990,1353005,67346,9188,675482,0
2,-1,663543,224343,1356093,69733,8812,677610,0
3,-1,637607,218761,1267113,65750,7725,633039,2
3,-1,635934,218628,1207590,65521,7323,603375,0
3,-1,640792,219015,1318724,65844,6543,658918,0
3,-1,636892,219170,1284693,65737,7517,641634,0
3,-1,641441,219023,1288402,65906,7763,643746,0
3,-1,641841,219268,1378522,66041,7832,688396,0
3,-1,643890,221363,1360574,66878,7557,679474,0
3,-1,640324,220066,1295731,66121,7146,647311,0
3,-1,638035,219790,1166053,66127,7048,582533,0
3,-1,642128,219280,1189181,65778,7529,594071,0
3,3,716160,249674,1458264,74216,9486,728667,0
3,-1,644952,220258,1499087,66016,8044,749040,0
3,-1,643267,221012,1349729,66640,8062,673719,0
3,-1,641572,218798,1238740,65808,7598,618836,0
3,-1,640497,219069,1354111,65525,8552,676578,0
3,-1,640353,218949,1416283,65645,8404,707731,0
3,-1,640810,218931,1261131,65664,7241,630035,0
3,-1,640196,219156,1344765,65668,7263,671945,0
3,-1,636532,219111,1490472,65351,8391,744084,0
3,-1,644260,220541,1273177,66881,7789,635724,0
3,-1,643633,219446,1299822,66325,7727,649483,0
3,3,709623,248563,1534208,74143,9255,766321,0
3,-1,637058,218770,1286683,65993,7424,642807,0
3,-1,643512,218932,1284798,65975,7216,641883,0
3,-1,645650,219373,1587536,66380,9367,793115,0
3,-1,639116,219930,1330835,66486,8270,664918,0
3,-1,645263,220331,1210410,66520,7882,604658,0
3,-1,642749,219584,1420203,66278,7973,709708,0
3,-1,641140,219645,1359684,66220,8130,679269,0
4,-1,634189,218698,1285807,65661,6924,642398,2
4,-1,640037,220484,1310599,66403,7190,654629,0
4,-1,639122,218973,1537744,65834,8569,768061,0
4,-1,636464,218702,1316116,65657,7196,657605,0
4,-1,640724,219318,1215514,66066,7481,607227,0
4,-1,644815,220504,1499280,66544,8447,748917,0
4,-1,639716,219984,1315327,66108,7405,657226,0
4,-1,641862,220733,1308026,66669,7426,653211,0
4,-1,636332,219128,1217640,65852,7639,608377,0
4,-1,646827,221216,1287832,66586,8397,643232,0
4,3,716292,249570,1379075,74253,9331,689052,0
4,-1,644456,220321,1266157,66090,7475,632654,0
4,-1,641322,219995,1206130,66109,7408,602455,0
4,-1,641642,218883,1378769,65714,8218,688725,0
4,-1,662271,224398,1370522,69145,8700,684686,0
4,-1,646824,221356,1343453,66769,8091,670876,0
4,-1,639390,218806,1484435,65581,8387,741732,0
4,-1,638873,219157,1206990,65670,7139,602945,0
4,-1,636697,220367,1332726,65988,8106,665551,0
4,-1,639798,218963,1310124,66106,7836,654619,0
4,-1,639354,218516,1209120,65984,7339,604042,0
4,3,710054,248944,1446760,74264,9302,722915,0
4,-1,637639,218781,1257078,65971,7873,627949,0
4,-1,645287,219879,1271844,66291,7605,635468,0
4,-1,644750,219282,1347668,66337,8027,673303,0
4,-1,646382,220379,1252560,66595,7550,625796,0
4,-1,644894,220298,1206490,66449,7309,602802,0
4,-1,643602,219825,1431139,66367,8886,714740,0
4,-1,644892,221576,1228755,66993,8291,613321,0
5,-1,639549,218821,1232295,65640,7056,615744,0
5,-1,639333,219378,1264592,65885,7401,631803,2
5,-1,644578,220706,1353490,66547,7474,676120,0
5,-1,658838,224264,1318284,69225,8514,658697,0
5,-1,642973,220109,1237047,66496,7950,617765,0
5,-1,645610,221156,1304906,66990,8018,651661,0
5,-1,638056,219787,1236220,66109,6621,617624,0
5,-1,658152,223715,1286096,69172,7660,642514,0
5,-1,638114,220224,1240391,66184,7901,620123,0
5,-1,646284,221277,1334073,66686,9225,665593,0
5,3,716629,249860,1487821,74193,9314,743430,0
5,-1,647458,221856,1369852,66801,8411,683957,0
5,-1,638487,219262,1287747,65825,7947,643453,0
5,-1,645764,220850,1418188,66668,8775,708047,0
5,-1,638819,219213,1428830,65542,7583,713863,0
5,-1,660771,223467,1293879,68937,8469,646381,0
5,-1,644478,221173,1518622,66722,9662,757839,0
5,-1,665172,223148,1360118,68705,8524,679605,0
5,-1,635106,218982,1375988,65349,7904,687339,0
5,-1,638646,218893,1245012,66139,7898,621959,0
5,-1,640673,218581,1238847,66037,7445,619034,0
5,3,707317,247992,1429186,73887,8729,714141,0
5,-1,639223,219059,1368588,66031,7878,683526,0
5,-1,640692,218794,1326074,65989,7762,662095,0
5,-1,641651,218741,1286511,66176,7829,642842,0
5,-1,642139,219497,1288847,66300,7178,644007,0
5,-1,642987,219831,1283455,66308,8161,641186,0
5,-1,646870,220483,1282641,66803,8220,640391,0
5,-1,640913,219838,1318573,66313,8469,658786,0
6,-1,638107,219137,1248733,65811,6995,623290,0
6,-1,635940,218840,1309886,65773,7175,654309,2
6,-1,637870,218210,1191636,65462,6972,595321,0
6,-1,635352,219112,1271190,65793,7579,635103,0
6,-1,640123,219073,1283119,65973,8240,640937,0
6,-1,660584,223718,1260275,69270,8304,629677,0
6,-1,640563,220897,1363207,66592,7863,680780,0
6,-1,639469,220143,1310487,66204,7355,654827,0
6,-1,636566,219729,1317898,66074,7746,658432,0
6,-1,639725,219064,1195667,65733,7506,597416,0
6,3,713644,249159,1369892,74017,8431,684459,0
6,-1,646736,220626,1216761,66133,6672,607928,0
6,-1,646257,221709,1415935,66854,8101,707113,0
6,-1,644082,220342,1376230,66385,8098,687381,0
6,-1,643558,220880,1315513,66334,7669,657053,0
6,-1,643667,220957,1299208,66500,7189,648933,0
6,-1,661032,223168,1276404,68898,9065,637792,0
6,-1,643470,218800,1337665,65578,8605,668193,0
6,-1,635126,219044,1256391,65328,7544,627444,0
6,-1,642392,220782,1270592,67061,8364,634340,0
6,3,708126,247735,1543597,73773,9719,771099,0
6,-1,641505,219075,1250590,66175,7881,624576,0
6,-1,640414,219537,1282199,66344,7823,640686,0
6,-1,639624,218949,1243633,65982,7028,621149,0
6,-1,640978,219050,1317379,66152,8160,658225,0
6,-1,646833,221460,1266650,67175,6820,632435,0
6,-1,648644,222572,1218397,67513,7576,608226,0
6,-1,644107,219633,1320419,66263,8381,659660,0
6,-1,641172,219219,1323529,66182,8819,661362,0
7,-1,655446,222782,1339341,68722,8289,669210,0
7,-1,634896,218899,1312858,65855,6655,655660,2
7,-1,638333,218745,1260117,65742,7256,629571,0
7,-1,634886,218541,1310686,65525,7519,654903,0
7,-1,638787,218929,1289786,65830,7430,644447,0
7,-1,643305,218958,1320446,65882,7691,659776,0
7,-1,635000,219073,1287582,65859,7777,643336,0
7,-1,645090,220557,1441564,66500,8486,720025,0
7,-1,637259,220194,1306789,66179,7914,652897,0
7,-1,640332,220209,1247417,66364,7676,623108,0
7,3,711160,249642,1453520,74009,9408,726314,0
7,-1,644337,220121,1331905,66035,6834,665119,0
7,-1,639289,219568,1226508,65872,7283,612913,0
7,-1,637458,218696,1210632,65625,7835,604898,0
7,-1,639461,219151,1290709,65535,8279,644758,0
7,-1,640983,219652,1276223,65870,8500,637663,0
7,-1,641478,219354,1246468,65769,8087,622648,0
7,-1,647775,220749,1239788,66379,8096,619171,0
7,-1,633498,218832,1335980,65297,8176,667515,0
7,-1,641450,219079,1392903,66228,9009,695886,0
7,3,717027,250944,1531367,75316,10429,764718,0
7,-1,640743,219115,1274794,66495,7893,636555,0
7,-1,637744,217714,1378920,65680,8399,689000,0
7,-1,640100,219425,1302413,66165,7977,650702,0
7,-1,639926,218976,1448308,66141,8775,723332,0
7,-1,642552,220150,1365094,66560,7264,682054,0
7,-1,642910,220146,1176059,66472,7569,587502,0
7,-1,644489,220000,1368197,66417,8248,683046,0
7,-1,641196,220028,1354889,66465,7946,676986,0
8,-1,637168,219188,1177579,65798,7100,588283,0
8,-1,636206,218328,1356059,65591,7380,677543,2
8,-1,638304,218741,1247268,65691,6830,623220,0
8,-1,646758,220919,1369058,66613,8170,683708,0
8,-1,644688,221046,1401040,66876,8012,699691,0
8,-1,643788,219112,1290554,65943,7267,644915,0
8,-1,638055,219820,1290135,66110,8415,644503,0
8,-1,639525,219334,1309135,65943,7853,654104,0
8,-1,635515,219485,1234987,65922,6858,617033,0
8,-1,640105,219242,1205415,65824,7551,602154,0
8,3,713990,249472,1409822,74007,8943,704468,0
8,-1,648182,221907,1504397,66779,7453,751504,0
8,-1,642744,220867,1228820,66584,7948,613661,0
8,-1,638939,218876,1188448,65647,7475,593646,0
8,-1,638274,219370,1249866,65666,7459,623809,0
8,-1,637497,218598,1435046,65512,7915,717053,0
8,-1,645432,221011,1166072,66530,7119,582163,0
8,-1,643324,218514,1397658,65357,8052,698373,0
8,-1,637422,220854,1318677,66138,8503,657841,0
8,-1,637395,218042,1267609,65808,8242,633283,0
8,3,706887,248155,1481138,74106,9447,740085,0
8,-1,638654,218789,1142866,66075,6720,570957,0
8,-1,639570,219062,1368093,66219,8368,683403,0
8,-1,640117,218314,1391476,65770,8300,695281,0
8,-1,641934,219689,1471815,66260,8460,735462,0
8,-1,641551,220223,1308347,66577,7055,653683,0
8,-1,671726,229877,1666088,69363,9907,832473,0
8,-1,670154,225417,1437377,70502,10166,718188,0
8,-1,645013,221959,1264910,67222,8126,631797,0
9,-1,640120,220472,1532797,66367,8808,765616,0
9,-1,642542,221356,1308051,66871,7275,653222,2
9,-1,640681,218693,1302856,65655,7263,650614,0
9,-1,638000,218324,1310422,65642,7305,654665,0
9,-1,659674,223517,1307694,69224,8370,653418,0
9,-1,645630,220166,1256154,66333,7605,627660,0
9,-1,657268,223349,1295201,69012,7840,647099,0
9,-1,638173,219009,1460310,65862,9008,729103,0
9,-1,638551,221068,1424006,66665,8007,711261,0
9,-1,640919,219770,1169848,66005,7133,584459,0
9,3,714172,249714,1483613,74239,9293,741274,0
9,-1,645213,220641,1315040,66208,7031,656988,0
9,-1,667463,229396,1242707,68895,7665,620881,0
9,-1,641707,219702,1292161,65963,8655,645560,0
9,-1,637629,219519,1326737,65654,7794,662939,0
9,-1,666002,228196,1367114,68374,8420,683068,0
9,-1,638183,218689,1229812,65569,7302,614335,0
9,-1,643548,219186,1269929,65690,7257,634395,0
9,-1,634434,219213,1281190,65397,7987,640067,0
9,-1,637946,218805,1361579,66151,9110,680205,0
9,3,705755,248016,1443078,74081,9742,721036,0
9,-1,642796,219191,1245399,66271,8346,622192,0
9,-1,639488,219128,1326618,66169,7818,662699,0
9,-1,641347,219169,1364536,66103,8336,681826,0
9,-1,641639,218853,1301704,65948,7436,650381,0
9,-1,640605,219647,1295938,66356,8220,647527,0
9,-1,640387,219475,1282820,66128,7728,641555,0
9,-1,641571,219557,1356824,66289,8325,677940,0
9,-1,642413,220720,1302425,66666,8328,650668,0
10,-1,635492,219206,1320899,65776,8476,659957,0
10,-1,639515,218850,1380991,65810,8451,689981,0
10,-1,637600,218678,1233108,65775,8017,616025,2
10,-1,645967,221169,1332015,66775,7987,664905,0
10,-1,638537,218856,1394833,65852,7689,696991,0
10,-1,646698,220582,1351720,66620,8482,675215,0
10,-1,638771,219902,1203067,66103,7519,601039,0
10,-1,645024,221996,1312917,67175,7848,655632,0
10,-1,643171,219397,1334400,65902,8023,666696,0
10,3,713013,249995,1389701,74430,8964,694319,0
10,-1,637645,218598,1171699,65523,7144,585436,0
10,-1,645753,221150,1310936,66237,7362,655022,0
10,-1,658019,223937,1509451,69182,8439,754257,0
10,-1,639976,219820,1304981,65985,7756,651477,0
10,-1,668540,224798,1342019,69189,9222,670265,0
10,-1,643683,220576,1280050,66474,8024,639090,0
10,-1,639678,218978,1240116,65627,7606,619428,0
10,-1,642306,219028,1326048,65571,8289,662609,0
10,-1,639499,220769,1521543,66054,8100,759608,0
10,-1,639482,219085,1263868,66282,7984,631404,0
10,3,714986,250158,1358389,75075,8959,678437,0
10,-1,644052,220085,1174771,66722,7337,586675,0
10,-1,638884,218605,1291426,65982,8310,645249,0
10,-1,639906,218529,1210677,65869,7884,604807,0
10,-1,640701,219131,1178349,66090,6714,588430,0
10,-1,646538,221946,1249877,67415,8003,624160,0
10,-1,641469,219873,1332393,66395,8848,665991,0
10,-1,645518,221238,1263078,67018,7523,631205,0
10,-1,640410,220311,1246896,66465,7742,623058,0
11,-1,638644,218584,1349108,65671,8364,673733,0
11,-1,636982,218328,1217787,65608,7238,608507,0
11,-1,636950,220174,1252063,66321,6859,625522,2
11,-1,639442,218917,1330716,65669,7500,664628,0
11,-1,638265,218754,1343547,65822,7513,671381,0
11,-1,640864,218723,1374349,65799,7596,686630,0
11,-1,670668,230605,1364180,69532,8250,681267,0
11,-1,660386,223994,1316322,69219,8046,657644,0
11,-1,642705,219747,1509469,66067,8994,754499,0
11,3,716091,250965,1466654,74937,9349,732562,0
11,-1,645464,221287,1305363,66681,8628,651859,0
11,-1,646234,220570,1308182,66110,7417,653571,0
11,-1,644600,221099,1335519,66640,8775,666857,0
11,-1,639690,219306,1482370,65787,8424,740651,0
11,-1,643003,218968,1301154,65487,8187,649881,0
11,-1,661042,223683,1322037,69021,8689,660379,0
11,-1,660102,223401,1411159,68871,8028,705046,0
11,-1,663875,223829,1440803,68961,9519,719727,0
11,-1,633450,218644,1269142,65124,7209,633936,0
11,3,712256,248674,1430177,74282,8604,714613,0
11,-1,656510,223608,1358615,68617,9378,678778,0
11,-1,641163,218989,1208278,66122,7227,603489,0
11,-1,639336,219435,1281444,66301,7667,640141,0
11,-1,642442,220259,1217659,66732,6994,607467,0
11,-1,639665,219029,1401322,65969,7174,699597,0
11,-1,663937,224382,1346905,69676,8410,673099,0
11,-1,641726,220218,1392177,66390,9106,695577,0
11,-1,642555,220379,1405880,66550,8368,702632,0
11,-1,645338,219973,1381394,66375,7830,690174,0
12,-1,636402,218302,1314804,65578,7756,657456,0
12,-1,637615,218730,1187508,65769,6559,593251,0
12,-1,644943,221330,1394379,66676,8315,696495,0
12,-1,641506,219351,1280718,65919,7886,639739,2
12,-1,661084,224130,1466738,69427,8413,732920,0
12,-1,661982,223741,1296650,69309,8614,647834,0
12,-1,639720,221228,1346062,66847,7933,671811,0
12,-1,640395,219598,1428912,65996,7950,714078,0
12,-1,643498,219655,1359002,65996,8709,678742,0
12,3,734208,254225,1523987,77619,9530,761458,0
12,-1,661128,224098,1338082,69192,9177,668214,0
12,-1,648457,222201,1330262,66951,7697,664694,0
12,-1,639793,219450,1331651,65825,8082,665407,0
12,-1,642928,221074,1410885,66756,8636,704358,0
12,-1,644198,219900,1232401,65816,7550,615597,0
12,-1,639934,219438,1289937,65861,8904,644292,0
12,-1,638126,218912,1472400,65697,8288,735464,0
12,-1,641601,218438,1261126,65394,8026,630262,0
12,-1,633972,218168,1296102,64993,7273,647527,0
12,3,713758,250271,1335134,75087,8710,666843,0
12,-1,635189,219236,1288634,65433,8164,644083,0
12,-1,640276,219175,1153711,66246,7214,576678,0
12,-1,662373,224093,1452996,69606,9353,726023,0
12,-1,659910,223660,1416778,69294,8917,707838,0
12,-1,644446,220248,1324728,66639,8090,661982,0
12,-1,641937,219747,1181217,66447,7322,590165,0
12,-1,640395,220062,1288360,66433,8884,643682,0
12,-1,642683,219035,1326901,66168,7753,662944,0
12,-1,671240,224891,1448884,69843,9632,723872,0
13,-1,640558,220273,1314455,66410,8491,656132,0
13,-1,636666,218418,1284691,65624,6917,641952,0
13,-1,639826,219203,1325793,65776,7683,662273,0
13,-1,640475,220964,1433166,66713,7767,715776,2
13,-1,639812,219777,1303897,66134,7837,651371,0
13,-1,638664,218571,1361527,65771,7784,680391,0
13,-1,638196,220094,1344984,66222,7130,671970,0
13,-1,638641,219283,1215964,65909,7079,607564,0
13,-1,647438,221292,1512397,66771,9577,755373,0
13,3,731116,253653,1491742,77349,9669,745360,0
13,-1,640690,219566,1359056,65910,8572,679034,0
13,-1,663405,224843,1480478,69318,8375,739765,0
13,-1,640993,220670,1375331,66248,8200,687234,0
13,-1,661520,224610,1299418,69350,8498,649201,0
13,-1,639623,218531,1347766,65281,8173,673456,0
13,-1,639040,219141,1172781,65722,7112,585894,0
13,-1,647605,220726,1242586,66446,7841,620568,0
13,-1,639212,217849,1314344,65264,7959,656534,0
13,-1,640685,221490,1220812,66394,7466,609620,0
13,3,709907,247635,1369395,73933,8635,684231,0
13,-1,632739,218293,1287819,65077,8450,642867,0
13,-1,639350,219268,1257990,66165,7521,628598,0
13,-1,637465,218431,1263029,65935,7972,630961,0
13,-1,642172,219244,1278522,66139,7563,638687,0
13,-1,640825,219383,1367831,66166,8282,683584,0
13,-1,642423,220121,1304833,66503,7618,651930,0
13,-1,648272,221763,1495005,67189,8771,745718,0
13,-1,643425,219359,1357470,66140,8159,678312,0
13,-1,650945,220886,1251190,66757,7979,625195,0
14,-1,637419,218601,1410137,65631,8234,704118,0
14,-1,638519,218916,1188620,65839,6995,593875,0
14,-1,641178,219038,1301989,65727,7670,650574,0
14,-1,641805,220595,1233688,66222,7307,616438,2
14,-1,636232,218850,1258964,65928,7327,629024,0
14,-1,646909,220446,1338203,66527,8333,668296,0
14,-1,638287,220357,1313191,66439,7385,655829,0
14,-1,658574,223537,1331877,69173,7929,665452,0
14,-1,643793,220193,1524765,66267,9524,761907,0
14,3,707961,249118,1415702,74014,8303,707283,0
14,-1,640374,219761,1239817,65934,7442,619068,0
14,-1,648262,221875,1419878,66761,8562,709088,0
14,-1,637660,219411,1298633,65828,8114,648431,0
14,-1,637269,219173,1320659,65727,8770,659781,0
14,-1,663986,224499,1329158,69093,8594,664220,0
14,-1,637098,218786,1338780,65627,7408,668856,0
14,-1,640373,218686,1187175,65613,7061,593057,0
14,-1,640560,218788,1227005,65557,7626,612716,0
14,3,730105,253185,1572055,77546,10119,785527,0
14,-1,654461,223588,1456240,68605,8923,727589,0
14,-1,639165,220050,1528373,65720,8451,763633,0
14,-1,644968,220818,1167397,67098,7381,582841,0
14,-1,640122,219892,1210079,66655,7692,604261,0
14,-1,641115,219143,1444365,66157,8379,721566,0
14,-1,639275,219210,1289154,66084,8441,643488,0
14,-1,644319,220741,1307924,66784,7797,653517,0
14,-1,645596,220008,1205052,66380,7402,602071,0
14,-1,642682,219914,1262538,66407,7284,630561,0
14,-1,650534,220791,1353167,66640,8799,675826,0
15,-1,637187,218858,1331287,65762,7755,665958,0
15,-1,645186,220881,1324388,66635,7475,661536,0
15,-1,639519,218706,1348355,65689,7448,673700,0
15,-1,640598,219720,1299808,66025,8523,649422,2
15,-1,640816,218924,1256812,65927,7929,627902,0
15,-1,640365,218757,1349698,65821,8354,674486,0
15,-1,635347,219441,1277400,66008,6613,638201,0
15,-1,637069,219651,1323210,66039,7257,661223,0
15,-1,641123,219300,1287996,65872,7462,643538,0
15,3,711584,249131,1430709,74032,8796,714849,0
15,-1,638977,219594,1163439,65935,7339,581127,0
15,-1,647273,221849,1349443,66956,8089,673818,0
15,-1,640757,220401,1414148,66166,8242,706744,0
15,-1,637714,219124,1343852,65750,8636,672105,0
15,-1,644943,220050,1314122,65862,8636,656433,0
15,-1,638108,219030,1337508,65664,7829,668265,0
15,-1,641125,218807,1416664,65594,9584,707867,0
15,-1,640061,218752,1391466,65489,8512,695249,0
15,3,732076,252748,1402978,77432,11078,700944,0
15,-1,633225,219313,1251779,65455,7993,625247,0
15,-1,638185,218700,1325008,65201,7529,662046,0
15,-1,660874,223475,1369537,69454,8789,684259,0
15,-1,635950,218388,1203266,65968,7185,601139,0
15,-1,644746,220546,1322054,66749,7918,660427,0
15,-1,640193,219363,1297396,66105,8534,647923,0
15,-1,643079,220720,1425734,66751,8056,712421,0
15,-1,647238,220965,1456810,66739,8843,727853,0
15,-1,641129,219312,1379453,66165,8383,689342,0
15,-1,650148,221021,1374660,66746,8080,687071,0
16,-1,637244,218783,1274535,65691,7321,636788,0
16,-1,638172,218495,1336835,65628,7563,667824,0
16,-1,635954,218792,1374286,65808,8230,686567,0
16,-1,640191,219552,1215314,65974,6860,607213,2
16,-1,640686,219222,1230246,65955,7347,614738,0
16,-1,640903,219177,1202039,65957,7678,600548,0
16,-1,636198,219132,1336120,65914,8194,667516,0
16,-1,639724,220303,1311938,66485,7138,655135,0
16,-1,643998,220584,1285344,66387,7756,642117,0
16,3,711601,248896,1429364,73882,8357,714013,0
16,-1,638197,219099,1267574,65680,7900,633385,0
16,-1,663724,224690,1317888,69484,8341,658544,0
16,-1,646172,221775,1390405,66790,9269,694224,0
16,-1,646119,220602,1324884,66440,8414,661580,0
16,-1,646321,221034,1310162,66309,8103,654436,0
16,-1,639079,218764,1387652,65546,8183,693242,0
16,-1,648283,221830,1249565,66933,8089,623921,0
16,-1,639684,218350,1210212,65375,6673,604600,0
16,3,708680,248332,1434374,74149,9113,716686,0
16,-1,638462,220737,1343042,66067,7687,670682,0
16,-1,640647,219714,1205976,65582,7104,602467,0
16,-1,639418,219120,1361844,66226,7748,680480,0
16,-1,640607,220469,1219756,66958,7232,609018,0
16,-1,641238,219590,1320260,66274,7876,659606,0
16,-1,663300,223563,1367885,69340,8747,683438,0
16,-1,644539,221458,1267195,67350,7866,632829,0
16,-1,646890,221465,1295071,67117,7837,646402,0
16,-1,643569,219759,1307558,66352,7490,653125,0
16,-1,649809,220746,1339517,66629,8062,669286,0
17,-1,641366,220981,1340296,66721,8333,669153,0
17,-1,639779,219179,1491221,65907,8540,745121,0
17,-1,648852,222076,1340190,67134,7824,669093,0
17,-1,646416,221559,1317594,67021,8308,657955,2
17,-1,660648,224291,1364276,69437,8773,681727,0
17,-1,644600,220932,1251602,66849,8479,624752,0
17,-1,637462,220012,1277228,66122,7478,638202,0
17,-1,636699,219403,1199136,66030,6718,599014,0
17,-1,647704,221121,1313362,66818,7835,655693,0
17,3,710557,248874,1521000,73795,8191,760091,0
17,-1,639008,219642,1390614,65873,9411,694857,0
17,-1,646950,221523,1241763,66871,8461,619945,0
17,-1,641488,220499,1331271,66137,8432,665140,0
17,-1,639796,218681,1209150,65669,7582,604064,0
17,-1,644747,220231,1281007,65939,7802,639918,0
17,-1,641862,220161,1317322,66255,7574,657980,0
17,-1,641583,219373,1647925,65803,9414,823229,0
17,-1,641961,219767,1346510,65866,7455,672792,0
17,3,712008,250168,1368305,75024,10686,683075,0
17,-1,632940,218393,1409243,65097,7284,703384,0
17,-1,636561,218828,1356099,65312,7265,677570,0
17,-1,639296,219414,1288982,66328,7561,644023,0
17,-1,639959,218382,1242835,65886,8010,620935,0
17,-1,638973,218705,1287431,65924,7742,643326,0
17,-1,643949,218787,1224911,66007,7420,611872,0
17,-1,661871,224828,1394618,69962,8478,696811,0
17,-1,665320,224947,1399717,69829,9210,699336,0
17,-1,643600,220289,1288444,66646,6702,643332,0
17,-1,652996,222584,1257027,67571,7547,627578,0
18,-1,657452,223501,1329738,69060,8735,664360,0
18,-1,638058,218746,1185233,65771,7323,592155,0
18,-1,642368,219699,1268274,66173,7709,633448,0
18,-1,637995,219902,1231695,66249,7756,615279,2
18,-1,639253,219118,1410639,65993,7599,704841,0
18,-1,660852,223321,1205138,69084,8437,602022,0
18,-1,655496,223491,1295328,69072,8925,647197,0
18,-1,635628,218993,1327816,65855,7434,663383,0
18,3,708979,249797,1333305,74541,9158,665844,0
18,-1,644802,220271,1267447,66214,7001,633342,0
18,-1,642419,220759,1280874,66482,8418,639319,0
18,-1,640638,219683,1214697,66059,7459,606867,0
18,-1,661167,224277,1297765,69207,8516,648439,0
18,-1,637643,218353,1371485,65432,7597,685358,0
18,-1,641993,219483,1344555,65619,7821,671846,0
18,-1,637490,218532,1396345,65489,8437,697629,0
18,-1,642278,218764,1322835,65577,8635,660904,0
18,-1,642337,218931,1218625,65601,7345,608906,0
18,3,713158,249635,1385555,73979,8918,692066,0
18,-1,634042,219079,1305641,65390,7207,652255,0
18,-1,636106,218508,1260637,65151,7436,629857,0
18,-1,639126,219637,1204648,66523,6838,601673,0
18,-1,641613,219649,1296677,66396,8159,647786,0
18,-1,639063,218978,1276448,65973,7589,637692,0
18,-1,643781,219065,1281703,66079,7591,640300,0
18,-1,642337,219999,1339248,66540,7972,669187,0
18,-1,645095,220430,1316417,66544,7620,657705,0
18,-1,691529,233718,1338325,72415,9589,668783,0
18,-1,668825,225463,1523087,69925,10121,761059,0
19,-1,636724,218862,1246293,65788,7966,622764,0
19,-1,661650,223843,1348730,69228,8686,673982,0
19,-1,639376,219165,1317941,65885,6738,658421,0
19,-1,637733,218950,1348554,65929,7059,673043,0
19,-1,640669,219810,1284430,66167,7459,641614,2
19,-1,641506,219435,1249838,66080,8098,624335,0
19,-1,632743,219161,1281868,65861,7858,640471,0
19,-1,660796,223414,1267387,69036,8521,633175,0
19,3,710434,248698,1309165,73934,8353,654090,0
19,-1,641053,219563,1201233,66017,6704,600024,0
19,-1,635581,218962,1208439,65704,7812,603772,0
19,-1,643078,219932,1303090,66151,7775,651129,0
19,-1,640685,220591,1320935,66213,8104,659979,0
19,-1,663532,224325,1367444,69252,7935,683166,0
19,-1,640327,219174,1287128,65607,7547,643048,0
19,-1,639203,219629,1307711,65890,7749,653274,0
19,-1,639582,218788,1290465,65575,7540,644739,0
19,-1,642534,218983,1358801,65544,8521,678919,0
19,3,703223,247656,1544846,73087,9953,772472,0
19,-1,632692,218700,1255765,65176,7295,627414,0
19,-1,636817,218696,1252917,65281,7315,625929,0
19,-1,641850,219559,1319938,66305,8189,659471,0
19,-1,639888,219523,1231351,66473,7786,614953,0
19,-1,638574,218366,1307328,65771,7770,653254,0
19,-1,646920,220281,1205098,66709,7894,601713,0
19,-1,642525,219653,1304142,66418,7911,651375,0
19,-1,641053,219639,1305777,66356,7690,652300,0
19,-1,642483,219901,1240387,66380,7824,619695,0
19,-1,649747,220577,1285284,66512,8912,642159,0
20,-1,638822,218880,1334461,65728,8469,666819,0
20,-1,635018,218170,1343135,65466,7478,671111,0
20,-1,643715,221525,1599459,66990,8996,798793,0
20,-1,664199,228499,1358650,68722,7734,678648,0
20,-1,638102,219313,1291314,66063,7717,645193,2
20,-1,639766,218823,1234892,65843,8264,617035,0
20,-1,641299,219856,1325504,66126,7551,662150,0
20,-1,637353,219016,1221330,65866,6984,610194,0
20,3,708796,248716,1376096,73944,9051,687542,0
20,-1,643913,220990,1286286,66693,7301,642455,0
20,-1,640866,220335,1194339,66243,7451,596642,0
20,-1,662986,224444,1285538,69454,7960,642336,0
20,-1,641753,221490,1485356,66681,8346,741793,0
20,-1,640691,219429,1337836,65861,7551,668397,0
20,-1,664639,224821,1292584,69249,8632,645772,0
20,-1,635523,218545,1243850,65499,7764,621589,0
20,-1,645470,220923,1286472,66605,7860,642342,0
20,-1,663495,224010,1364056,69022,7901,681457,0
20,3,711877,250939,1457956,74523,10606,727990,0
20,-1,631511,218540,1115909,65070,6441,557445,0
20,-1,644747,222098,1261766,66677,7538,630029,0
20,-1,659520,223108,1390400,69317,9164,694691,0
20,-1,636665,218803,1188862,66071,7632,593906,0
20,-1,642852,220555,1262245,66810,6968,630161,0
20,-1,642942,219206,1171617,66124,7006,585274,0
20,-1,641376,219569,1332609,66430,8429,665806,0
20,-1,641141,219740,1267805,66464,7783,633484,0
20,-1,642041,220059,1233975,66470,7892,616570,0
20,-1,651619,221784,1205890,67125,7878,602102,0
21,-1,638454,219097,1248870,65851,8130,623737,0
21,-1,638174,218374,1184022,65598,7467,591523,0
21,-1,657231,223582,1271979,69187,7545,635513,0
21,-1,638157,219156,1297719,65991,8652,648329,0
21,-1,643625,221052,1348123,66894,8614,673307,2
21,-1,641522,219829,1169813,66209,7833,584415,0
21,-1,660109,223749,1296915,69174,7779,647868,0
21,-1,659182,224238,1458394,69371,8113,728666,0
21,3,708364,248575,1310630,73948,8487,654851,0
21,-1,641662,219431,1215689,66019,6639,607309,0
21,-1,638009,219377,1187206,65923,7146,593135,0
21,-1,642837,220539,1380403,66371,8303,689652,0
21,-1,648764,219954,1199511,66007,7267,599298,0
21,-1,639751,219009,1224661,65707,7086,611947,0
21,-1,640209,219305,1288421,65628,7378,643497,0
21,-1,636501,218897,1242089,65620,8095,620531,0
21,-1,640195,219135,1387102,65745,7963,693101,0
21,-1,642649,219471,1350876,65787,7382,674927,0
21,3,708193,250094,1356010,74191,9452,677273,0
21,-1,644699,219253,1251672,65680,5867,625341,0
21,-1,657729,223588,1378595,68636,8218,688779,0
21,-1,641983,219867,1385706,66469,7484,692228,0
21,-1,635510,218411,1129795,65954,7417,564527,0
21,-1,659312,223552,1406298,69343,8878,702726,0
21,-1,662111,222991,1539098,69115,8947,768992,0
21,-1,642553,220434,1604463,66733,8852,801706,0
21,-1,646787,220881,1400750,66809,8706,699832,0
21,-1,643128,220596,1212230,66819,7717,605271,0
21,-1,645500,220006,1452784,66327,8307,725770,0
22,-1,641738,220756,1321083,66572,8334,659833,0
22,-1,637949,217814,1224544,65353,7660,611850,0
22,-1,640041,219320,1315680,65936,7743,657446,0
22,-1,643848,221276,1362630,66950,7989,680413,0
22,-1,640477,219746,1254845,66219,7304,626882,2
22,-1,644437,221001,1299121,66787,8247,648880,0
22,-1,639117,219525,1480381,66030,7566,739817,0
22,-1,638858,220131,1609898,66214,9686,804456,0
22,3,706873,248992,1409068,74037,9336,704020,0
22,-1,639998,219063,1333274,65842,6677,666142,0
22,-1,658317,224056,1219376,69251,8454,609110,0
22,-1,642238,220380,1319970,66329,7554,659464,0
22,-1,647624,219496,1348499,65720,8159,673764,0
22,-1,641645,219986,1213483,66069,7573,606275,0
22,-1,636410,217843,1138873,65162,7198,568989,0
22,-1,635434,218919,1336241,65691,8350,667390,0
22,-1,643526,220540,1415716,66376,7906,706621,0
22,3,708138,249051,1524002,73629,9370,761433,0
22,-1,647053,221268,1248075,66652,7231,623018,0
22,-1,653154,221846,1255512,66849,6286,626930,0
22,-1,637127,219492,1323155,65508,7606,661211,0
22,-1,637836,219187,1191256,66184,7339,595147,0
22,-1,638992,220095,1198147,66549,7362,598643,0
22,-1,638797,219213,1273804,66082,7747,636404,0
22,-1,642564,219828,1306427,66287,7200,652568,0
22,-1,647713,222047,1248187,67518,7977,623386,0
22,-1,647275,221687,1471135,67349,8899,734962,0
22,-1,641204,219699,1247667,66331,8687,623306,0
22,-1,651542,221241,1242700,66934,8141,620689,0
23,-1,637437,218740,1216244,65694,7510,607574,0
23,-1,645187,220962,1434706,66754,9474,716404,0
23,-1,642280,220610,1305532,66555,7866,652082,0
23,-1,658403,223491,1290377,69208,8183,644625,0
23,-1,646422,221000,1356634,66863,6872,677253,2
23,-1,639639,219299,1325143,65987,7996,662165,0
23,-1,637318,218988,1358436,65813,7629,678697,0
23,-1,640037,219753,1296078,66059,8023,647708,0
23,3,708177,248918,1378079,74079,8617,688734,0
23,-1,640035,219309,1227707,65935,6775,613523,0
23,-1,637124,219703,1192668,65972,7678,595872,0
23,-1,641664,220174,1322796,66252,7244,660917,0
23,-1,669570,224863,1253069,69365,8258,625998,0
23,-1,642659,219543,1311213,65897,7817,655152,0
23,-1,641306,220010,1219306,65884,7896,609106,0
23,-1,638902,220320,1364777,66324,8395,681279,0
23,-1,637484,218526,1279906,65444,7702,639540,0
23,3,703390,248202,1592259,73235,10325,796022,0
23,-1,641325,219859,1383618,65989,8292,691262,0
23,-1,667547,223832,1425246,69025,7685,712142,0
23,-1,637261,219087,1257862,65377,7132,628464,0
23,-1,636757,218005,1315586,65825,7599,657195,0
23,-1,639049,219174,1317150,66190,8318,658088,0
23,-1,647054,220100,1348748,66533,8039,673553,0
23,-1,643563,219073,1339888,66078,7857,669423,0
23,-1,662998,224529,1405734,69873,9339,702362,0
23,-1,642537,220154,1254556,66587,7567,626471,0
23,-1,641223,219466,1212680,66221,6876,605933,0
23,-1,648348,220314,1333772,66480,8101,665870,0
24,-1,641995,221149,1307802,66812,8633,652675,0
24,-1,659730,223025,1241230,68932,8882,619894,0
24,-1,642472,221174,1387747,66761,7187,692930,0
24,-1,638951,219387,1277732,66036,7311,638670,0
24,-1,665040,223954,1383437,69346,8222,691498,0
24,-1,641851,219521,1300195,66131,8058,649583,2
24,-1,640052,220097,1191114,66172,6791,595107,0
24,-1,638438,219193,1221723,65878,6939,610390,0
24,3,733375,253364,1457630,77308,9878,728375,0
24,-1,659554,223815,1287583,69249,7605,643157,0
24,-1,639313,219829,1185992,66128,7117,592429,0
24,-1,640552,219926,1181845,66182,6906,590448,0
24,-1,649824,221034,1314228,66348,8445,656508,0
24,-1,639877,219007,1181626,65743,7261,590302,0
24,-1,645363,219886,1205736,65856,8460,602302,0
24,-1,645670,219242,1439267,65738,8988,719070,0
24,-1,637695,218697,1286621,65561,7702,643018,0
24,3,702688,248185,1350119,73194,8700,674698,0
24,-1,645748,221160,1244359,66596,7284,621352,0
24,-1,645128,219129,1282887,65674,6655,640876,0
24,-1,638922,220267,1218651,65971,7205,608517,0
24,-1,644802,221003,1257258,67105,6958,627792,0
24,-1,640682,220577,1348479,66980,8369,673545,0
24,-1,643401,219236,1241193,66180,8031,619908,0
24,-1,645078,220017,1324328,66402,7409,661685,0
24,-1,641416,219849,1314442,66507,8315,656768,0
24,-1,642754,220154,1402358,66462,8833,700636,0
24,-1,642142,220276,1333391,66514,7645,666104,0
24,-1,645255,219483,1255551,66233,7445,627316,0
24,3,704606,247246,1458743,73793,9343,729030,0
25,-1,655215,223126,1268825,68958,8846,633910,0
25,-1,637558,218237,1188668,65563,8111,593708,0
25,-1,636897,218194,1193417,65586,6790,596220,0
25,-1,636759,218930,1354788,65878,7945,676951,0
25,-1,641952,219153,1469577,66013,7654,734273,0
25,-1,634087,219203,1251340,66030,7335,625150,2
25,-1,644625,221798,1335609,66992,7484,666842,0
25,-1,637826,219279,1239428,65977,7245,618990,0
25,3,711208,248444,1297698,73935,9164,648308,0
25,-1,639380,219012,1335617,65895,7519,667204,0
25,-1,643091,219745,1180311,66076,7142,589582,0
25,-1,638284,219456,1366407,65885,7737,682759,0
25,-1,645612,219536,1240456,65835,7539,619773,0
25,-1,639357,219041,1304925,65705,7582,651956,0
25,-1,641237,219584,1403455,65775,8041,700896,0
25,-1,667675,224360,1269413,69236,9301,634387,0
25,-1,646877,220837,1288966,66569,8019,643569,0
25,3,705546,248798,1660292,73488,9243,829731,0
25,-1,639742,219023,1350588,65664,7325,674773,0
25,-1,642568,218266,1213177,65294,6089,606161,0
25,-1,634146,218291,1395434,65046,7898,697285,0
25,-1,660401,223421,1352837,69453,8019,675904,0
25,-1,639749,220455,1265794,66795,8053,632235,0
25,-1,642294,219229,1322869,66074,8539,660975,0
25,-1,644357,220186,1335686,66477,7453,667039,0
25,-1,661078,224497,1332100,69873,9182,665510,0
25,-1,646103,221291,1253709,67118,7631,626175,0
25,-1,643767,221083,1213049,67080,7167,605780,0
25,-1,648153,220429,1386631,66589,8533,692792,0
25,3,708520,248113,1378358,74275,9303,688481,0
26,-1,632911,218085,1393892,65444,8819,696213,0
26,-1,642015,219504,1159579,65963,7369,579327,0
26,-1,638516,218681,1277559,65806,7455,638285,0
26,-1,639639,219812,1277962,66217,8409,638421,0
26,-1,640810,219083,1297782,65914,7534,648460,0
26,-1,638584,221591,1418815,67117,8271,708549,2
26,-1,637713,219800,1336274,66127,7264,667540,0
26,-1,638891,220964,1366921,66706,7923,682536,0
26,3,713068,249885,1676399,74387,10506,837595,0
26,-1,641245,218973,1347749,65818,7372,673406,0
26,-1,662636,223758,1228723,69177,8234,613931,0
26,-1,644467,220259,1423574,66222,7738,711252,0
26,-1,649899,221067,1390206,66660,8313,694376,0
26,-1,646194,221633,1290842,66849,7427,644692,0
26,-1,643111,220560,1251598,66077,7899,625477,0
26,-1,642070,218414,1359350,65462,8368,679286,0
26,-1,642694,220607,1285315,66464,7005,641744,0
26,3,712587,247578,1536884,73440,8899,767886,0
26,-1,645191,219425,1346046,65865,8119,672504,0
26,-1,645512,219391,1321259,65731,7099,660170,0
26,-1,634479,219060,1395929,65378,9011,696830,0
26,-1,640674,219633,1271520,66417,7501,634983,0
26,-1,643545,218792,1294638,66156,7937,646828,0
26,-1,645846,221073,1236736,66981,7632,617272,0
26,-1,662700,223437,1403124,69323,9320,700915,0
26,-1,640177,220171,1286885,66663,7310,642889,0
26,-1,643268,220484,1355828,66680,7789,677307,0
26,-1,659799,223983,1421920,69514,9171,710216,0
26,-1,666713,224481,1354872,69632,9177,676842,0
26,3,706262,247421,1363940,74010,8460,681498,0
27,-1,635366,219299,1488362,65953,8866,742614,0
27,-1,643253,220452,1299661,66482,7662,649035,0
27,-1,637031,218498,1225621,65665,6959,612389,0
27,-1,636251,218979,1173915,65899,7917,586488,0
27,-1,643495,219494,1236042,66035,7068,617667,0
27,-1,635805,220022,1308593,66195,7989,653307,2
27,-1,635716,219507,1353989,66027,7189,676591,0
27,-1,670979,231416,1409517,69949,7671,703807,0
27,3,710761,249265,1448778,74144,8577,723891,0
27,-1,639179,219340,1260997,65881,7572,630525,0
27,-1,641969,219908,1238506,66136,7452,618573,0
27,-1,645626,221140,1248152,66452,7387,623557,0
27,-1,644701,219515,1216259,65969,8353,607701,0
27,-1,660104,223863,1264636,69100,8007,631780,0
27,-1,642556,220178,1304041,65946,8058,651538,0
27,-1,645931,220143,1336838,66255,8336,667234,0
27,-1,643333,220070,1315160,66051,7648,657011,0
27,3,714971,249060,1498413,73803,8741,748589,0
27,-1,646818,220413,1297132,66342,7842,647716,0
27,-1,649811,220810,1258330,66409,6950,628385,0
27,-1,660188,223944,1352858,68714,8072,675891,0
27,-1,640303,219484,1272862,66295,7057,636026,0
27,-1,643925,219192,1240577,66222,7485,619861,0
27,-1,661127,223083,1448747,69115,9043,723875,0
27,-1,640975,219265,1363481,66104,8027,681229,0
27,-1,640022,219818,1297612,66444,7087,648311,0
27,-1,643998,220297,1301072,66579,7726,650118,0
27,-1,642124,219348,1269054,66199,7736,633935,0
27,-1,645534,219968,1261503,66414,7878,630080,0
27,3,712438,248010,1398902,74269,9046,698971,0
28,-1,637067,218861,1317653,65827,8132,658234,0
28,-1,660626,223486,1398172,69085,8097,698592,0
28,-1,658353,223087,1325168,68933,8762,661991,0
28,-1,636786,219061,1165391,65966,7596,582154,0
28,-1,646272,220788,1370328,66701,7427,684588,0
28,-1,639181,219970,1334805,66190,7231,666732,2
28,-1,636259,219628,1357352,66029,7041,677765,0
28,-1,638101,219831,1411769,66076,7873,705291,0
28,3,733319,253445,1490096,77346,9650,744499,0
28,-1,643663,220700,1320259,66618,7728,659341,0
28,-1,642916,220647,1261956,66559,8485,630189,0
28,-1,643603,219908,1441929,66087,8272,720530,0
28,-1,668499,224524,1302721,69382,8614,650800,0
28,-1,641157,219860,1453270,66036,7434,726120,0
28,-1,662223,224291,1266338,69032,8598,632801,0
28,-1,643478,219450,1349872,65851,8584,674525,0
28,3,717019,250923,1367189,74756,8755,682276,0
28,-1,638128,218238,1304910,65417,7595,651966,0
28,-1,642892,219501,1448195,65883,8976,723590,0
28,-1,645221,219247,1323812,65718,6763,661373,0
28,-1,635959,219061,1291324,65347,7504,645158,0
28,-1,639629,219830,1301494,66542,7987,650152,0
28,-1,642238,219042,1297795,66186,7907,648386,0
28,-1,639650,218455,1231216,65843,7164,615040,0
28,-1,643677,220540,1277728,66757,7855,638025,0
28,-1,641049,220355,1317231,66716,8289,658126,0
28,-1,646882,221723,1248124,67225,7210,623364,0
28,-1,642733,220047,1318731,66376,7552,658980,0
28,-1,643772,219765,1329195,66293,8500,664166,0
28,3,716762,248850,1361179,74520,8597,680170,0
29,-1,673770,230056,1439547,70526,8890,719240,0
29,-1,637944,218696,1466477,65750,8149,732759,0
29,-1,637278,218645,1260635,65782,6520,629796,0
29,-1,661297,223562,1267685,69169,8209,633312,0
29,-1,640876,219052,1250412,65987,7613,624658,0
29,-1,645720,221628,1436371,67029,7959,717308,0
29,-1,635609,219328,1261177,65978,6830,630057,2
29,3,707086,249187,1485858,74112,9682,742458,0
29,-1,640359,220952,1501748,66664,8467,750086,0
29,-1,640719,219371,1240374,65998,6588,619213,0
29,-1,642817,220095,1226779,66208,7392,612824,0
29,-1,644516,220369,1339980,66253,7726,669598,0
29,-1,648415,220828,1367236,66267,8613,683201,0
29,-1,639058,219416,1189220,65865,6865,594139,0
29,-1,645578,220958,1372998,66379,8478,685682,0
29,-1,642114,219149,1444068,65687,8856,721650,0
29,3,712220,248068,1455040,73487,9957,726836,0
29,-1,662522,224775,1336987,69380,8188,667951,0
29,-1,643401,219640,1429237,65837,9002,714082,0
29,-1,667384,223544,1479095,68892,8183,739047,0
29,-1,635858,218950,1283784,65342,7799,641414,0
29,-1,638956,218862,1401378,66145,8252,700170,0
29,-1,642795,219450,1305670,66292,8014,652367,0
29,-1,642575,219858,1313284,66315,8260,656082,0
29,-1,645760,220045,1320225,66387,7603,659454,0
29,-1,640304,220634,1268700,66985,7649,633683,0
29,-1,641309,219542,1286578,66335,7454,642392,0
29,-1,644147,221024,1256707,66918,7688,627618,0
29,-1,667269,228137,1259497,68787,7497,629296,0
29,3,713428,247917,1406524,74156,8363,702831,0
30,-1,672696,231306,1436503,68947,8720,717670,0
30,-1,636563,218148,1323285,65548,7561,661135,0
30,-1,635484,218002,1362712,65515,7570,680804,0
30,-1,643324,218993,1314078,65840,8072,656542,0
30,-1,641520,219613,1268428,66141,6810,633694,0
30,-1,637696,219632,1266919,66013,6574,632941,0
30,3,707247,248464,1481568,73928,9027,740295,0
30,-1,636018,219457,1174898,66032,7300,586845,2
30,-1,634423,218994,1347077,65830,6950,673258,0
30,-1,639404,218993,1333880,65829,7133,666470,0
30,-1,639332,218777,1208167,65719,7277,603569,0
30,-1,648018,222189,1466031,67165,8167,731999,0
30,-1,648941,221439,1338988,66747,8073,668873,0
30,-1,638287,219465,1317418,65823,7188,658266,0
30,-1,639588,219521,1215569,65815,7349,607343,0
30,-1,646229,220695,1464998,66513,9037,731651,0
30,3,714915,250271,1376795,74522,8686,688013,0
30,-1,639822,218795,1222690,65588,7776,610860,0
30,-1,688583,232880,1310478,71731,8735,654640,0
30,-1,648503,221008,1222649,66464,6775,610500,0
30,-1,654445,223245,1384446,68537,8543,691680,0
30,-1,641381,220979,1225699,67078,7479,612019,0
30,-1,664500,223821,1392775,69536,8909,695800,0
30,-1,645251,220953,1292116,66873,8100,645181,0
30,-1,643115,219360,1355934,66101,8114,677478,0
30,-1,637882,219838,1213454,66491,7044,606294,0
30,-1,642002,219935,1360881,66440,7827,680014,0
30,-1,641040,219148,1292041,66071,7732,645567,0
30,3,713368,248811,1421626,74770,9170,709960,0
30,-1,646194,220057,1299769,66407,8338,649292,0
31,-1,684066,235336,1379651,70063,8250,689408,0
31,-1,638015,219095,1334721,65893,7740,666887,0
31,-1,637066,218926,1638632,65885,9207,818835,0
31,-1,644375,220044,1245054,66254,7852,622050,0
31,-1,638094,218365,1201240,65723,6609,600184,0
31,-1,637613,219369,1360173,65929,7540,679713,0
31,3,712549,250592,1525518,74819,9294,761644,0
31,-1,639437,220209,1380882,66204,7774,689859,2
31,-1,640474,219977,1167086,66145,7030,582919,0
31,-1,642125,220852,1308666,66679,7400,653447,0
31,-1,661195,224125,1278980,69330,8740,639015,0
31,-1,641070,219904,1359613,66117,7240,679342,0
31,-1,648740,220844,1359015,66301,8496,679089,0
31,-1,646345,221384,1385810,66779,8336,692252,0
31,-1,637856,219020,1401907,65654,8359,699900,0
31,-1,640871,218599,1254536,65525,7697,626412,0
31,3,710254,248420,1466264,73714,9365,732670,0
31,-1,642983,220617,1301843,66408,7528,650236,0
31,-1,639283,218873,1204114,65674,7376,601415,0
31,-1,643930,219518,1324969,65723,6713,661930,0
31,-1,635333,218664,1230622,65266,7951,614849,0
31,-1,655617,223214,1432593,69303,8711,715543,0
31,-1,642884,218912,1333511,66164,7954,666350,0
31,-1,638827,218741,1335370,65924,8214,667270,0
31,-1,662501,223541,1393042,69323,8531,696069,0
31,-1,670996,224792,1440171,70003,9267,718180,0
31,-1,645356,221799,1271357,67455,7187,634662,0
31,-1,645453,221530,1267450,67157,7097,632905,0
31,3,734416,253728,1559376,77659,10348,779285,0
31,-1,644987,219914,1341906,66362,7840,670543,0
32,-1,694429,238932,1421886,71357,8788,710169,0
32,-1,640680,220297,1366484,66555,7751,682473,0
32,-1,634644,218403,1184223,65742,6612,591557,0
32,-1,641894,219084,1328952,65883,7935,663408,0
32,-1,645522,221502,1309939,67075,7626,654155,0
32,-1,636145,219177,1215597,65872,6444,607415,0
32,3,707233,248946,1688834,74099,10602,843591,0
32,-1,643745,221746,1398638,67018,8104,697718,2
32,-1,658296,224343,1233940,69384,7787,616505,0
32,-1,658937,223929,1435618,69251,7823,717306,0
32,-1,638532,219276,1210482,65977,6993,604597,0
32,-1,645190,220327,1453996,66253,7427,726504,0
32,-1,650445,222113,1415079,67016,8607,706826,0
32,-1,640933,220144,1321629,66260,8212,660064,0
32,-1,662800,223965,1390873,69073,8938,695093,0
32,-1,644901,220401,1306531,66331,8067,652683,0
32,3,729316,253033,1472521,77039,9145,735799,0
32,-1,639390,218849,1357468,65625,7734,678140,0
32,-1,641057,219226,1226248,65791,7526,612659,0
32,-1,643018,218750,1315199,65491,7093,657138,0
32,-1,636657,219452,1227682,65524,7607,613317,0
32,-1,642114,219172,1270919,66190,7251,635082,0
32,-1,643276,219558,1246149,66562,7082,622374,0
32,-1,641496,218761,1223080,65913,7470,611004,0
32,-1,642914,219858,1236277,66330,7447,617593,0
32,-1,647815,219953,1419930,66633,8481,708145,0
32,-1,662360,224628,1399071,69824,7944,699102,0
32,-1,661536,224534,1389904,69662,7889,694246,0
32,3,710192,248078,1521580,73956,9943,760357,0
32,-1,644181,220258,1343148,66502,7561,671128,0
33,-1,688426,237273,1405701,70621,8444,702370,0
33,-1,656804,223318,1361293,69029,7758,680239,0
33,-1,633553,217984,1159532,65573,7106,579193,0
33,-1,642131,219096,1181048,65936,7328,590100,0
33,-1,660239,223819,1315125,69297,7840,657123,0
33,-1,640670,221387,1429876,66828,8148,714091,0
33,3,709612,249825,1387591,74590,9139,692882,0
33,-1,643182,220288,1288411,66308,7951,643571,2
33,-1,637899,220485,1166100,66351,7093,582393,0
33,-1,639184,219341,1293701,65944,7298,646466,0
33,-1,639294,219759,1208479,66081,7619,603755,0
33,-1,648933,222125,1367626,67028,7919,682997,0
33,-1,648566,220596,1339741,66274,7286,669207,0
33,-1,641035,220676,1242711,66653,7496,620710,0
33,-1,643088,219356,1267515,65751,7018,633249,0
33,-1,641623,218443,1330187,65404,8598,664520,0
33,3,713809,249343,1541956,74069,9499,770214,0
33,-1,638382,219301,1328175,65790,7983,663663,0
33,-1,645108,220224,1231465,66294,7579,614915,0
33,-1,647525,219659,1449244,65831,7749,724070,0
33,-1,633604,218568,1308273,65164,8011,653520,0
33,-1,639752,218961,1420142,66195,7784,709537,0
33,-1,641125,218984,1326930,66212,7556,662957,0
33,-1,642736,219594,1329781,66191,7704,664404,0
33,-1,641449,219224,1277334,66341,6876,637711,0
33,-1,650909,220775,1232884,67098,8158,615731,0
33,-1,639895,219934,1224934,66434,6507,612051,0
33,-1,639983,219633,1354062,66271,7524,676559,0
33,3,721580,250308,1442321,74897,9707,720452,0
33,-1,646069,220936,1259227,66939,7592,628761,0
34,-1,694357,239144,1499297,71589,8518,749059,0
34,-1,638404,217932,1474666,65463,7658,736777,0
34,-1,638931,219196,1620193,65969,10082,809453,0
34,-1,647313,221139,1339306,66676,7700,668661,0
34,-1,641215,218822,1248355,65834,7190,623791,0
34,-1,640051,220165,1261038,66207,6964,630081,0
34,3,712655,249155,1406484,74166,9171,702749,0
34,-1,641568,221485,1230193,66839,7838,614140,0
34,-1,634984,219696,1275279,66104,7610,636795,2
34,-1,641785,220527,1325997,66543,7363,662344,0
34,-1,640865,219664,1159698,66099,7165,579368,0
34,-1,641249,220262,1333571,66107,6500,666352,0
34,-1,645843,220030,1345581,66275,8019,672078,0
34,-1,657793,223806,1223900,69188,8112,611577,0
34,-1,640227,218591,1377087,65540,8362,688048,0
34,-1,636642,217438,1334379,65178,8497,666716,0
34,3,710626,248260,1521231,73677,9793,760139,0
34,-1,636713,218875,1238008,65568,7295,618288,0
34,-1,643097,219792,1330776,65916,6954,664773,0
34,-1,642991,218356,1324844,65386,7501,661932,0
34,-1,634072,218709,1345254,65200,7856,672192,0
34,-1,658551,223171,1282066,69350,8445,640529,0
34,-1,642870,219217,1205188,66283,6905,602102,0
34,-1,639334,219044,1260467,66104,6904,629681,0
34,-1,639978,219223,1290800,66085,7167,644771,0
34,-1,648615,219941,1336889,66587,8384,667911,0
34,-1,639994,219986,1368934,66461,7465,683924,0
34,3,713804,250398,1416876,75044,9442,707643,0
34,-1,641949,220427,1217978,66677,7319,608216,0
34,-1,642377,219734,1284689,66301,7553,641786,0
35,-1,690057,237777,1337025,70882,7572,667829,0
35,-1,643953,221236,1363531,66840,7542,681032,0
35,-1,635824,218810,1188889,65822,6331,593904,0
35,-1,640062,218660,1349909,65655,7808,674582,0
35,-1,641025,219046,1318579,65963,7927,658785,0
35,3,708496,248464,1485046,73872,8733,742059,0
35,-1,633785,218207,1257418,65619,6824,628226,0
35,-1,638357,220279,1178306,66297,7215,588580,0
35,-1,642487,221439,1329886,66941,7815,663681,2
35,-1,637540,219386,1238505,65931,7439,618600,0
35,-1,639593,220290,1196271,66259,6957,597874,0
35,-1,664786,225360,1293721,69673,8037,646436,0
35,-1,644913,219708,1353303,65929,7500,676233,0
35,-1,641668,219981,1224468,66105,7666,611753,0
35,-1,647564,221480,1409586,66687,8262,704038,0
35,-1,645874,220948,1336115,66595,8351,667179,0
35,3,710267,248038,1396390,73583,8429,697666,0
35,-1,643083,220007,1265317,66229,7290,631677,0
35,-1,638664,218668,1319146,65535,7648,659066,0
35,-1,643437,219545,1310944,65682,6925,655033,0
35,-1,632093,218418,1204929,65152,7658,601715,0
35,-1,643855,220110,1184813,66680,7747,591457,0
35,-1,640056,218466,1403768,65973,7653,701361,0
35,-1,636968,218422,1193971,65842,7193,596577,0
35,-1,646318,220690,1300293,66888,7880,649284,0
35,-1,649163,219938,1291612,66649,8298,645395,0
35,-1,645586,220765,1366949,66774,7643,682978,0
35,3,713643,248945,1416100,74173,9018,707561,0
35,-1,639503,219664,1254393,66234,7462,626712,0
35,-1,640879,219517,1314939,66203,8027,657046,0
36,-1,689407,237595,1419655,70816,7794,709394,0
36,-1,657371,222959,1351570,68938,8308,675357,0
36,-1,634615,218622,1330999,65616,7205,665120,0
36,-1,662801,223921,1301537,69199,8415,650323,0
36,-1,640837,219422,1339199,66076,7910,669122,0
36,3,710541,250258,1548043,74667,9461,773204,0
36,-1,637032,219230,1238335,65887,7751,618901,0
36,-1,636207,219762,1433259,66154,8027,716059,0
36,-1,640124,219718,1284069,66134,7653,641501,2
36,-1,641873,219328,1275067,65961,7499,637030,0
36,-1,636360,219324,1203434,65906,7155,601244,0
36,-1,643323,220887,1339139,66454,7447,669070,0
36,-1,666243,224598,1395155,69356,8545,697067,0
36,-1,640015,219793,1217132,66090,7259,608099,0
36,-1,639936,219023,1427806,65643,8473,713317,0
36,-1,663497,224460,1479760,69254,9289,739312,0
36,3,710461,248084,1284091,73618,8847,641507,0
36,-1,644644,219623,1227108,65924,7343,612874,0
36,-1,638053,218880,1234316,65577,6772,616626,0
36,-1,649019,221020,1209527,66534,7121,603991,0
36,-1,637555,220734,1238705,66105,7403,618686,0
36,-1,638001,218341,1215929,65999,7972,607519,0
36,-1,642474,218683,1293903,66093,8196,646401,0
36,-1,640889,219288,1353730,66124,8021,676300,0
36,-1,639213,218870,1308526,66044,7967,653686,0
36,-1,650456,220346,1281580,66766,8103,640299,0
36,-1,645400,221267,1265730,67119,7292,632027,0
36,3,713258,249783,1529810,74666,9668,764385,0
36,-1,642643,220534,1341922,66573,7730,670467,0
36,-1,646484,221028,1322393,67057,8112,659749,0
36,-1,647136,220853,1342195,66670,7798,670432,0
37,-1,693133,238777,1458910,71417,8938,728757,0
37,-1,634774,218134,1287692,65525,7159,643415,0
37,-1,639652,220175,1401014,66319,7492,699773,0
37,-1,641759,219892,1265719,66036,7410,632333,0
37,-1,641755,219405,1222053,66078,7444,610528,0
37,3,709385,248679,1372988,73919,8516,685878,0
37,-1,655633,223955,1292287,69253,7980,645478,0
37,-1,635603,219632,1232705,66037,7393,615908,0
37,-1,666076,228807,1253305,68765,7136,626128,2
37,-1,642976,219513,1238196,66004,7274,618566,0
37,-1,646061,221407,1281274,66912,8273,640062,0
37,-1,639858,219701,1335344,65877,6863,666625,0
37,-1,645261,220376,1431456,66150,7831,715191,0
37,-1,638062,219125,1354615,65826,7292,676923,0
37,-1,639613,219511,1291804,65811,7530,645719,0
37,-1,639793,219198,1452588,65777,8602,725709,0
37,3,710145,248241,1266943,73692,8762,632859,0
37,-1,641628,218757,1463648,65581,9176,731379,0
37,-1,638711,219509,1252766,65872,6831,625469,0
37,-1,664647,223695,1332554,68935,7707,665769,0
37,-1,637130,218176,1350648,65056,7184,674866,0
37,-1,638262,218798,1299996,66080,8192,649509,0
37,-1,645646,219898,1373178,66670,7806,685876,0
37,-1,640760,219672,1335384,66286,8214,667119,0
37,-1,640846,219915,1404022,66572,7642,701200,0
37,-1,652163,221481,1378538,67307,8246,688544,0
37,-1,637486,219290,1251081,66190,7164,625098,0
37,3,713310,249451,1518423,74600,10148,758579,0
37,-1,660733,223620,1402625,69298,8128,700868,0
37,-1,644106,219038,1213192,66039,7385,606013,0
37,-1,643958,220114,1400750,66410,8203,699782,0
38,-1,689920,237913,1395196,70903,9116,696736,0
38,-1,636650,219287,1228950,65941,6472,613919,0
38,-1,635615,218893,1328159,65812,7046,663670,0
38,-1,643850,219252,1260396,65859,7130,629770,0
38,-1,639311,218563,1376918,65728,7641,688097,0
38,3,707808,250288,1474014,74804,9282,736325,0
38,-1,634768,219606,1357280,65944,7073,678274,0
38,-1,638904,221407,1303831,66901,7825,651136,0
38,-1,646679,221388,1340472,66900,7452,669473,0
38,-1,640364,220378,1255966,66322,7110,627426,2
38,-1,661940,223981,1271996,69272,7811,635475,0
38,-1,644501,220359,1241564,66096,7166,620204,0
38,-1,644817,220482,1374110,66215,7587,686523,0
38,-1,657539,223722,1279414,69150,8169,639194,0
38,-1,646149,221085,1259975,66537,8538,628992,0
38,-1,644487,219482,1338849,65798,8648,668808,0
38,3,712072,248333,1447435,73727,9433,723186,0
38,-1,645305,220810,1304024,66558,7900,651076,0
38,-1,640532,219014,1376916,65660,7598,687882,0
38,-1,644089,219549,1304496,65792,7044,651819,0
38,-1,637682,219259,1481272,65452,8214,740127,0
38,-1,637562,218626,1438701,66023,8154,718919,0
38,-1,645629,220776,1252518,67026,7778,625504,0
38,-1,643117,219724,1217517,66296,7723,608226,0
38,-1,639973,219435,1233914,66157,8422,616393,0
38,-1,645681,219503,1415898,66500,8518,707512,0
38,3,721681,250649,1371587,74830,9497,685228,0
38,-1,644645,221357,1262345,67233,7361,630197,0
38,-1,645721,220998,1191247,66913,6898,594871,0
38,-1,645182,220044,1301396,66477,8212,650087,0
38,-1,642538,219532,1586546,66352,9765,791675,0
39,-1,685920,236656,1334907,70461,8362,667019,0
39,-1,637529,219722,1430307,66260,6998,714484,0
39,-1,634423,218754,1218237,65750,7273,608558,0
39,-1,641709,219416,1189225,65892,6970,594213,0
39,-1,641057,219455,1433444,66094,8257,716188,0
39,3,708690,248650,1469397,73949,8812,734172,0
39,-1,641150,220810,1355988,66634,8497,677097,0
39,-1,655752,223771,1261364,69218,7640,630190,0
39,-1,638428,218611,1376110,65640,7133,687615,0
39,-1,642665,220503,1241765,66390,7907,620346,2
39,-1,639907,219289,1219040,65937,7106,608942,0
39,-1,661054,224273,1215925,69322,8240,607489,0
39,-1,645531,219975,1345570,65997,8694,672401,0
39,-1,641707,219244,1306375,65861,7768,652751,0
39,-1,641668,219667,1273834,65927,6980,636428,0
39,-1,647226,220636,1297233,66407,8128,647834,0
39,3,710909,248409,1509588,73749,9084,754293,0
39,-1,664220,224426,1436708,69225,8713,717578,0
39,-1,638723,217984,1388591,65305,8263,693907,0
39,-1,643726,219958,1204578,66067,6770,601551,0
39,-1,632650,217537,1219099,64924,7154,608999,0
39,-1,645188,222012,1352631,67507,7686,674886,0
39,-1,640551,218784,1282749,66084,7571,640910,0
39,-1,642313,220181,1248396,66617,7535,623534,0
39,-1,644223,219157,1226268,66102,8198,612486,0
39,-1,648538,220937,1204896,66886,7892,602148,0
39,3,719422,250295,1355937,74701,10306,677429,0
39,-1,661729,224495,1387362,69793,8539,693249,0
39,-1,642038,220065,1296958,66409,7868,647878,0
39,-1,643909,219889,1271898,66381,8248,635388,0
39,-1,646211,219743,1422319,66344,9029,710649,0
40,-1,685048,236612,1299975,70476,8067,649335,0
40,-1,663254,227573,1256741,68384,7089,627938,0
40,-1,659433,223462,1316049,69063,7701,657464,0
40,-1,646378,221146,1443763,66761,7286,721116,0
40,-1,646263,221994,1365433,67164,7885,681902,0
40,3,709468,249741,1364811,74516,9413,681194,0
40,-1,639546,219388,1261631,65992,8320,630389,0
40,-1,641069,218906,1317995,65764,8398,658416,0
40,-1,641184,219724,1228355,66140,7192,613711,0
40,-1,641430,219572,1316262,66074,7393,657573,2
40,-1,636158,218316,1165663,65679,7154,582285,0
40,-1,641735,219720,1170318,66038,7001,584695,0
40,-1,649349,222252,1313669,67075,7993,655765,0
40,-1,641014,219035,1351323,65836,7889,675214,0
40,-1,641486,220096,1302326,66046,7616,650688,0
40,3,712098,248259,1583107,73705,10355,791054,0
40,-1,647378,220918,1217694,66296,7516,608366,0
40,-1,641908,219094,1207631,65697,7599,603420,0
40,-1,645778,221156,1664384,66718,9764,831187,0
40,-1,643853,218837,1207338,65540,7324,603143,0
40,-1,643294,221297,1229546,66453,7333,613505,0
40,-1,636993,218943,1337916,66164,8425,668556,0
40,-1,640349,218761,1294694,66026,7889,646779,0
40,-1,639833,219136,1270075,66112,7458,634238,0
40,-1,646397,220269,1258715,66452,8592,628592,0
40,-1,648049,220094,1381855,66577,8730,690115,0
40,3,713249,248563,1574796,74167,9500,786768,0
40,-1,641684,220715,1261779,66746,7190,630607,0
40,-1,639555,219607,1175664,66211,6700,587430,0
40,-1,647962,221409,1214392,67197,7834,605999,0
40,-1,648908,221488,1309610,67124,8315,653907,0
41,-1,720288,242535,1501342,74215,8982,750160,0
41,-1,640522,220652,1326051,66680,7521,662298,0
41,-1,635356,218255,1304046,65578,7925,651607,0
41,-1,661189,223684,1452848,69079,7175,726096,0
41,-1,639104,218983,1342126,65899,7713,670614,0
41,3,711481,250194,1391760,74754,9888,695233,0
41,-1,639513,219315,1254740,66002,7936,626951,0
41,-1,641759,219769,1205110,66135,7154,602130,0
41,-1,641329,219766,1282716,66142,7462,640848,0
41,-1,640537,221349,1302148,66962,7576,650244,2
41,-1,636322,218778,1147920,65694,6788,573552,0
41,-1,640021,219640,1213956,66050,7005,606523,0
41,-1,667047,225799,1337028,69664,8282,667816,0
41,-1,661720,223603,1273412,69049,8836,636376,0
41,-1,644432,221213,1293810,66749,8086,646144,0
41,3,708587,248256,1450233,73644,9643,724917,0
41,-1,641242,218672,1308502,65533,8412,653758,0
41,-1,645488,220634,1291753,66415,7899,645063,0
41,-1,639141,218960,1199614,65639,6795,599445,0
41,-1,644143,219354,1147691,65764,6766,573294,0
41,-1,661983,224510,1400113,69376,8762,699513,0
41,-1,640117,220275,1300044,66789,8177,649317,0
41,-1,643811,220494,1254405,66814,7731,626472,0
41,-1,639141,219262,1291856,66074,7719,645406,0
41,-1,644591,220100,1272022,66588,7896,635220,0
41,-1,651031,222020,1226620,67456,7918,612514,0
41,3,708204,248461,1380993,74126,9624,690113,0
41,-1,640520,220458,1329304,66662,8131,664090,0
41,-1,640934,220083,1241443,66351,8062,620313,0
41,-1,664931,224566,1467971,69723,8853,733462,0
41,-1,647769,221413,1193859,67170,8222,595887,0
42,-1,695132,237314,1287850,70763,8022,643412,0
42,-1,636328,218690,1169281,65630,6888,584223,0
42,-1,638668,219894,1373520,66336,7796,686121,0
42,-1,640656,219508,1363725,65968,6734,681277,0
42,-1,641938,220771,1411401,66702,7946,704981,0
42,3,710178,250036,1525063,74670,9667,761865,0
42,-1,640894,220764,1365415,66715,8482,681901,0
42,-1,639654,219369,1323713,65936,7631,661185,0
42,-1,639797,219358,1278916,66003,7292,638761,0
42,-1,637192,219922,1260468,66140,6923,629662,2
42,-1,645203,222115,1251315,67214,6882,624704,0
42,-1,637212,219194,1423534,65840,7397,711201,0
42,-1,644796,220301,1287839,66050,7453,643467,0
42,-1,640173,218870,1226374,65752,7691,612728,0
42,-1,641049,220051,1289638,66098,7705,644116,0
42,3,709655,247737,1433482,73477,8917,716276,0
42,-1,640335,218915,1373549,65637,8308,686265,0
42,-1,641435,218795,1336786,65556,8014,667971,0
42,-1,640913,219053,1331342,65735,7310,665132,0
42,-1,643274,219436,1215911,65714,7182,607531,0
42,-1,636246,218956,1235830,65297,7259,617514,0
42,-1,640154,219010,1353155,66141,8236,675965,0
42,-1,643373,220120,1241066,66760,7273,619497,0
42,-1,644260,221086,1331112,66976,8769,664768,0
42,-1,643707,219279,1480532,66075,8385,739773,0
42,-1,667328,224685,1382238,69816,9236,690709,0
42,3,716198,249238,1460292,74371,9445,729720,0
42,-1,639049,220075,1389487,66705,7985,694008,0
42,-1,644921,222156,1223808,67419,7936,610958,0
42,-1,645124,219936,1335844,66373,8451,667454,0
42,-1,665249,224895,1284239,69860,9167,641657,0
43,-1,694176,237267,1325055,70667,7551,662107,0
43,-1,635567,218974,1257970,65727,6873,628432,0
43,-1,636527,218436,1321295,65572,7035,660117,0
43,-1,643594,220536,1330281,66446,7948,664537,0
43,3,706498,248596,1419414,73982,9456,709025,0
43,-1,636601,218788,1337961,65836,8024,668500,0
43,-1,657937,223929,1268056,69322,8163,633530,0
43,-1,643102,220011,1440284,66171,7722,719652,0
43,-1,644309,221346,1296804,66811,7317,647650,0
43,-1,637882,219194,1145465,65913,6562,572282,0
43,-1,643139,220991,1233132,66776,7914,615667,2
43,-1,636457,218525,1262849,65598,7259,631048,0
43,-1,643110,220256,1375206,66034,8554,687143,0
43,-1,642833,220292,1372364,66440,8288,685430,0
43,-1,639330,219591,1203811,65894,6924,601343,0
43,3,709823,248597,1629058,73789,9939,814086,0
43,-1,661897,223515,1397263,68923,9830,698047,0
43,-1,662181,223645,1297023,68999,8281,647959,0
43,-1,640774,219301,1310003,65777,7342,654433,0
43,-1,646798,220766,1282510,66468,6952,640476,0
43,-1,636002,218949,1565971,65347,9104,782512,0
43,-1,635193,218267,1192823,65921,7599,596146,0
43,-1,639513,219068,1273795,66210,7595,636428,0
43,-1,638701,219480,1409867,66188,8461,703789,0
43,-1,641970,219549,1240021,66215,7335,619401,0
43,3,712427,249708,1467512,74481,8713,733095,0
43,-1,643042,219274,1291310,66233,8074,645209,0
43,-1,642243,220320,1472978,66617,7920,736027,0
43,-1,643120,220469,1203235,66569,7059,601101,0
43,-1,649688,222076,1220011,67315,7492,608963,0
43,-1,644117,220106,1158023,66520,7663,578470,0
44,-1,693894,237340,1368439,70742,7679,683753,0
44,-1,637104,219778,1302035,65967,7506,650547,0
44,-1,636526,219424,1242637,65922,6861,620867,0
44,-1,646265,221077,1227383,66718,7841,612926,0
44,3,716049,250665,1458059,74977,9452,728282,0
44,-1,645028,218928,1291188,65918,7518,645209,0
44,-1,639135,219483,1288898,66077,7593,643817,0
44,-1,666266,225225,1424075,70185,8458,711353,0
44,-1,641687,220203,1237188,66161,7359,618124,0
44,-1,640095,220286,1245270,66198,7265,622210,0
44,-1,663333,228973,1246070,68708,7691,622498,2
44,-1,638066,219545,1332557,65823,7464,665816,0
44,-1,652678,222535,1285184,67068,8374,641386,0
44,-1,641057,218818,1187091,65687,7446,593053,0
44,-1,638940,219318,1294995,65801,8011,646497,0
44,3,708930,248780,1444462,73845,9470,721572,0
44,-1,639680,218401,1375549,65468,7852,686970,0
44,-1,637544,218244,1224364,65361,6868,611446,0
44,-1,636654,218804,1297965,65591,7682,648773,0
44,-1,643355,220154,1221611,66169,6683,610007,0
44,-1,634947,218923,1346734,65236,7697,672878,0
44,-1,637467,218986,1341562,66202,8583,670340,0
44,-1,640728,219178,1234340,66185,6958,616738,0
44,-1,640830,219434,1306300,66122,7780,652537,0
44,-1,641661,220003,1278050,66364,7905,638522,0
44,3,715975,249958,1581925,74722,9974,790156,0
44,-1,645677,219803,1401622,66455,8525,700318,0
44,-1,645858,220153,1418856,66560,8009,709002,0
44,-1,639235,219096,1190029,66048,6916,594245,0
44,-1,664062,224443,1458815,69642,8946,728584,0
44,-1,668184,228654,1321632,68940,8435,660283,0
45,-1,691853,236612,1457927,70474,8201,728498,0
45,-1,634083,218668,1277820,65606,6457,638460,0
45,-1,639773,220662,1344476,66637,7489,671400,0
45,-1,639302,219436,1255390,65863,6766,627272,0
45,3,713498,249348,1538603,74257,9815,768853,0
45,-1,640896,218639,1374952,65766,7623,687101,0
45,-1,634424,218752,1225624,65789,7625,612409,0
45,-1,637403,218855,1284407,65786,6946,641731,0
45,-1,640565,219984,1206683,66138,7220,602778,0
45,-1,638346,219540,1150181,65945,6689,574673,0
45,-1,641486,220330,1226853,66176,7302,612949,2
45,-1,646797,220324,1242204,66076,7297,620729,0
45,-1,647871,220727,1406557,66207,7764,702715,0
45,-1,640282,218913,1302668,65704,7502,650872,0
45,-1,641669,220814,1298896,66543,7994,648328,0
45,3,705428,248727,1637741,73844,9689,817998,0
45,-1,642560,219291,1218438,65813,8515,608607,0
45,-1,639954,219197,1389946,65778,7832,694431,0
45,-1,644426,220701,1236267,66519,7660,617674,0
45,-1,640571,218977,1342184,65629,7060,670667,0
45,-1,635271,219195,1368540,65318,8241,683775,0
45,-1,635260,218418,1318049,65930,7050,658774,0
45,-1,640103,219038,1291790,66244,7294,645412,0
45,-1,642633,220286,1211477,66643,7636,604910,0
45,-1,645032,220543,1266794,66743,7788,632250,0
45,3,710938,249051,1456292,74449,10146,727368,0
45,-1,647624,219987,1305595,66529,8231,652213,0
45,-1,648783,221597,1292274,67287,7730,645339,0
45,-1,639060,219341,1255498,66129,7748,627150,0
45,-1,641120,219121,1323870,66126,7290,661423,0
45,-1,646703,221787,1308954,67376,7977,653714,0
46,-1,698498,239481,1423493,71745,7624,711033,0
46,-1,641465,218798,1518677,65615,9067,758905,0
46,-1,654651,223085,1309985,68957,7652,654597,0
46,-1,639141,219124,1233317,65776,6672,616197,0
46,3,710882,248400,1578391,73932,9797,788602,0
46,-1,642073,219224,1234592,66012,6764,616815,0
46,-1,639648,220008,1225814,66246,8003,612420,0
46,-1,640351,219438,1239066,65959,7149,619023,0
46,-1,639291,219509,1172471,65956,6973,585658,0
46,-1,642606,221362,1232602,66849,7427,615389,0
46,-1,641434,220157,1241304,66117,6893,620139,2
46,-1,643049,219292,1272766,65809,7784,635940,0
46,-1,651105,221813,1367597,66752,8258,683002,0
46,-1,661570,223629,1353873,69061,7746,676790,0
46,-1,644723,221020,1332996,66676,8561,665629,0
46,3,704917,247857,1582080,73508,8956,790553,0
46,-1,641998,219090,1380064,65613,8698,689567,0
46,-1,641583,219531,1285428,66109,7524,641989,0
46,-1,663335,224313,1464952,69239,8347,731934,0
46,-1,639388,219046,1253713,65573,7019,626393,0
46,-1,658175,223745,1385197,68638,8396,692124,0
46,-1,638253,219305,1381851,66310,7495,690432,0
46,-1,641434,219784,1235087,66635,7456,616888,0
46,-1,638074,219312,1393435,66079,8223,696151,0
46,-1,641500,219042,1223063,66038,7619,611075,0
46,3,736402,253965,1527757,77845,10541,763530,0
46,-1,648214,220425,1294639,66635,8218,646932,0
46,-1,645477,219906,1334936,66453,7843,667062,0
46,-1,641404,220372,1205123,66704,7343,601755,0
46,-1,641443,219881,1255152,66400,7443,627077,0
46,-1,643017,220034,1330854,66464,8098,665058,0
47,-1,716497,242854,1447404,74338,9252,723183,0
47,-1,639405,218595,1229658,65558,7227,614402,0
47,-1,634407,218380,1319673,65562,7591,659337,0
47,-1,642752,219152,1352978,65786,8118,676038,0
47,3,711947,248914,1474732,74153,8893,736842,0
47,-1,641628,219391,1260019,66023,6915,629756,0
47,-1,640809,220869,1300799,66790,7864,649563,0
47,-1,642497,220283,1317994,66269,7598,658497,0
47,-1,642917,221365,1224861,66876,7861,611468,0
47,-1,636717,219461,1246692,65904,7110,622877,0
47,-1,643832,219967,1203568,66016,7177,601301,0
47,-1,639329,220016,1214538,66123,7149,606762,2
47,-1,647119,220740,1283516,66243,7373,641316,0
47,-1,642836,220490,1398775,66233,7695,698936,0
47,-1,659301,223372,1349584,68920,8598,674282,0
47,3,712153,248198,1527171,73671,10410,762736,0
47,-1,644257,221108,1423764,66546,8468,710834,0
47,-1,638038,218546,1290763,65553,7644,643873,0
47,-1,638187,218665,1645932,65564,8353,822343,0
47,-1,666003,223637,1358105,68904,8800,678587,0
47,-1,635166,218759,1290962,65243,7761,644899,0
47,-1,638362,219883,1195026,66686,7270,596360,0
47,-1,637361,218446,1288888,65897,6830,644007,0
47,-1,643421,220758,1332644,66833,8566,664822,0
47,-1,640109,219017,1308146,66047,7508,653336,0
47,3,712470,249757,1455798,74600,9218,727297,0
47,-1,646100,220098,1310616,66534,7939,654753,0
47,-1,646617,221428,1317551,67156,7656,658052,0
47,-1,640302,220005,1311055,66349,8098,655087,0
47,-1,642855,220806,1323958,66896,7568,661286,0
47,-1,644475,220786,1333648,66939,8463,666012,0
48,-1,695901,238183,1369259,71208,7773,683938,0
48,-1,643421,219934,1358898,66221,8358,678792,0
48,-1,637407,219238,1218947,65836,7417,609059,0
48,3,711027,250057,1459730,74692,9366,729133,0
48,-1,642161,219495,1288102,65938,7396,643459,0
48,-1,659826,223246,1391321,69114,7868,695330,0
48,-1,658120,224017,1317440,69350,8356,657963,0
48,-1,639322,219474,1203265,65922,7168,601156,0
48,-1,659641,224224,1231812,69311,7455,615156,0
48,-1,638755,220517,1230098,66511,7412,614270,0
48,-1,663128,224197,1473189,69179,7627,736003,0
48,-1,643137,220702,1266818,66363,6625,633021,2
48,-1,645955,220640,1246580,66144,7618,621405,0
48,-1,638479,218555,1311448,65570,8257,655183,0
48,-1,639849,219338,1296086,65832,7902,647405,0
48,3,712997,248880,1368096,73893,9557,683463,0
48,-1,640636,219488,1309057,65840,7794,654091,0
48,-1,639837,219395,1380360,65740,8429,689679,0
48,-1,642091,220537,1226488,66394,7126,612525,0
48,-1,644453,219147,1305228,65663,7825,651884,0
48,-1,634604,218645,1446122,65171,8674,722481,0
48,-1,635428,217951,1350245,65771,8979,674575,0
48,-1,640958,220109,1391003,66580,7191,695061,0
48,-1,659479,223718,1452466,69372,9750,725536,0
48,-1,639907,218883,1322314,65952,7955,660762,0
48,3,712520,250130,1468524,74793,9084,733622,0
48,-1,647539,221014,1285083,67010,7613,641962,0
48,-1,643265,220141,1312198,66571,6700,655662,0
48,-1,643258,220566,1391495,66492,7624,695239,0
48,-1,643182,219266,1310226,66100,7215,654738,0
48,-1,645747,219946,1299223,66484,8541,649165,0
49,-1,692885,237644,1539620,70833,8185,769194,0
49,-1,640706,219404,1300850,65861,7882,649919,0
49,-1,664770,228875,1403312,68973,8825,700745,0
49,3,710727,248618,1456768,73853,9072,728033,0
49,-1,643388,219727,1216047,65923,7234,607535,0
49,-1,645411,220502,1248770,66637,8131,623721,0
49,-1,636245,219496,1355008,65962,7587,676807,0
49,-1,663404,224545,1412745,69442,8197,705918,0
49,-1,635426,218679,1249419,65623,6858,624148,0
49,-1,642110,219556,1167356,66002,7128,583120,0
49,-1,644910,220386,1250260,66152,7067,624643,0
49,-1,643128,222024,1371322,67069,7725,684914,2
49,-1,647314,220824,1333885,66250,8080,666279,0
49,-1,641478,220212,1249242,66133,7603,624161,0
49,3,711858,248680,1439698,73814,10532,719314,0
49,-1,642917,220701,1402944,66520,8466,700749,0
49,-1,637094,218470,1302896,65483,8783,650723,0
49,-1,639965,219252,1192718,65776,7700,595660,0
49,-1,640313,219902,1246151,66003,7215,622554,0
49,-1,642608,218566,1206493,65428,7098,602803,0
49,-1,637827,219198,1556365,65438,9508,777116,0
49,-1,635982,219193,1326106,66171,7952,662394,0
49,-1,675285,229973,1412202,69757,8168,705182,0
49,-1,638401,218966,1454104,65978,9260,726568,0
49,-1,660764,223735,1502087,69424,9296,750473,0
49,3,711205,248735,1460499,74380,9046,729767,0
49,-1,645971,219769,1328196,66416,7609,663442,0
49,-1,647718,221551,1176804,67280,7193,587681,0
49,-1,637776,219835,1339376,66223,7706,669241,0
49,-1,642403,219236,1453354,66198,8358,726148,0
49,-1,645093,219456,1286861,66277,8660,642943,0
50,-1,715293,242520,1408754,74216,9098,704157,0
50,-1,636339,218172,1269207,65467,6835,634144,0
50,-1,636055,219029,1218828,65804,6790,608959,0
50,3,713797,249865,1334161,74293,8182,666691,0
50,-1,646908,221456,1314590,66759,7326,656512,0
50,-1,639268,218760,1149060,65879,7346,573973,0
50,-1,638536,220421,1454649,66417,8762,726790,0
50,-1,640418,219867,1596575,66145,9061,797711,0
50,-1,641364,219239,1271696,65917,7570,635358,0
50,-1,641816,219766,1220535,66068,7040,609780,0
50,-1,640481,219095,1279248,65790,6950,639197,0
50,-1,644240,220943,1219188,66367,6535,608974,2
50,-1,645313,220501,1326584,66111,8262,662727,0
50,-1,639960,219886,1206946,66094,7046,602757,0
50,3,732811,252855,1491369,76960,10846,744935,0
50,-1,638737,219429,1345153,65784,8360,672008,0
50,-1,644437,218985,1389782,65634,8230,694393,0
50,-1,665678,224240,1254711,69174,8455,626847,0
50,-1,638352,218698,1343763,65558,7965,671417,0
50,-1,645262,219857,1338822,65869,8406,668922,0
50,-1,637306,219307,1360021,65423,8317,679395,0
50,-1,638764,218390,1283168,65968,7648,640894,0
50,-1,640451,218582,1333407,66018,8011,666754,0
50,-1,641354,218280,1272636,65751,7715,635671,0
50,3,713277,248937,1407258,74371,9078,703100,0
50,-1,642716,220222,1258958,66663,7446,628706,0
50,-1,645448,219603,1331019,66249,7960,665117,0
50,-1,644285,220543,1165840,66680,6805,582345,0
50,-1,646413,220044,1401820,66345,8502,700417,0
50,-1,646564,221269,1239010,67134,7958,618652,0
50,-1,666469,224528,1399440,69759,9956,699131,0
51,-1,691044,237123,1261459,70701,7894,630269,0
51,-1,645833,222214,1587207,67063,9619,792166,0
51,-1,633878,218699,1327574,65732,7647,663256,0
51,3,710758,249258,1379650,74026,8534,689229,0
51,-1,641329,219473,1271395,65871,7192,635273,0
51,-1,638771,218907,1199504,65873,7195,599307,0
51,-1,631602,218234,1319064,65607,7529,659048,0
51,-1,637707,219330,1339934,65877,7443,669427,0
51,-1,640491,219969,1397161,66143,7018,698005,0
51,-1,640639,219409,1158563,65939,6718,578836,0
51,-1,661585,223798,1332579,69043,7862,665868,0
51,-1,640373,220211,1225298,66060,7528,612092,2
51,-1,647944,221535,1401177,66691,8604,699832,0
51,-1,660558,222968,1455137,68795,8232,727170,0
51,3,720422,251252,1444044,74815,9758,720981,0
51,-1,638502,219720,1231579,65984,7108,615282,0
51,-1,649515,221575,1309710,66843,8539,653772,0
51,-1,641910,219117,1313867,65726,8573,656801,0
51,-1,645759,218815,1176517,65607,7134,587717,0
51,-1,669333,227997,1333252,68230,7479,666209,0
51,-1,656916,223526,1446645,68558,8006,722871,0
51,-1,644358,219445,1363071,66277,8834,681120,0
51,-1,641761,218870,1363621,66167,7724,681362,0
51,-1,641561,218668,1345301,65908,7971,672173,0
51,3,715523,248626,1415962,74259,9659,707472,0
51,-1,641227,219016,1260667,66067,7752,629620,0
51,-1,665892,224355,1396074,69686,8572,697589,0
51,-1,642542,219856,1301486,66425,7034,650319,0
51,-1,649500,220895,1293084,66809,8352,645857,0
51,-1,664299,224574,1459305,69704,9149,729102,0
51,-1,643578,219715,1346974,66427,8611,672939,0
52,-1,691346,237215,1398895,70652,8373,698930,0
52,-1,660268,223449,1347333,68951,9437,673111,0
52,3,714479,249680,1448698,74093,8003,723926,0
52,-1,634241,218704,1337953,65731,7452,668351,0
52,-1,642682,219730,1217523,65922,8044,608241,0
52,-1,641693,219350,1233456,66059,7982,616217,0
52,-1,637481,219479,1273800,66098,7615,636373,0
52,-1,640101,220455,1326909,66520,7818,662737,0
52,-1,637602,219345,1502695,65894,7382,750793,0
52,-1,644005,221353,1201817,66888,6971,600105,0
52,-1,644016,221052,1325055,66587,7633,661870,0
52,-1,674571,231601,1398804,69763,8065,698477,2
52,-1,645791,221006,1245395,66317,7640,622215,0
52,-1,637168,218807,1306309,65642,7665,652807,0
52,3,718378,251005,1492556,74676,10186,745357,0
52,-1,661522,224184,1327461,69236,9051,663124,0
52,-1,642195,219191,1444656,65658,8197,722038,0
52,-1,639576,218635,1177837,65534,7724,588465,0
52,-1,645705,219371,1381865,65837,8873,690476,0
52,-1,646989,221168,1320857,66634,7171,659610,0
52,-1,631905,218310,1284529,65094,8056,641813,0
52,-1,646553,220331,1365487,66818,9395,681712,0
52,-1,642283,219572,1225724,66381,6979,612285,0
52,-1,662263,223631,1454664,69384,9473,726460,0
52,3,718989,250764,1324995,75228,8896,661728,0
52,-1,662210,223795,1378899,69457,8133,688957,0
52,-1,646368,220674,1270694,66698,7103,635000,0
52,-1,642908,220323,1303181,66610,7672,651053,0
52,-1,646442,219949,1209667,66202,8028,604458,0
52,-1,642849,219521,1386888,66166,7576,692941,0
52,-1,643166,219831,1373068,66403,8016,685913,0
53,-1,693131,238375,1410047,71285,7931,704399,0
53,-1,639088,218640,1230354,65584,8263,614721,0
53,3,708964,248342,1360365,73918,8094,679795,0
53,-1,655013,223206,1345830,68925,8351,672180,0
53,-1,640813,219058,1396774,65690,7410,698180,0
53,-1,644534,221182,1326274,66932,7629,662208,0
53,-1,640405,220891,1331648,66735,8131,665092,0
53,-1,636798,219359,1263501,65989,7662,631230,0
53,-1,639243,219167,1314390,65862,8131,656723,0
53,-1,658283,223651,1224994,69179,7617,611999,0
53,-1,640391,219850,1211783,65962,7492,605437,0
53,-1,647461,220963,1429096,66396,9024,713706,0
53,-1,645124,220669,1408425,66215,7132,703866,2
53,3,707763,248456,1387884,73830,8859,693183,0
53,-1,660078,224279,1320925,69240,7888,660047,0
53,-1,638629,218952,1263879,65695,7495,631214,0
53,-1,640906,218985,1331828,65582,7886,665178,0
53,-1,644729,220888,1319815,66478,7488,658071,0
53,-1,647420,220377,1258913,66276,7656,628664,0
53,-1,644981,220607,1387431,66417,7911,692070,0
53,-1,640045,220429,1277055,66025,7252,637769,0
53,-1,642501,219320,1202069,66299,8324,600608,0
53,-1,640850,219194,1258176,66249,7520,628566,0
53,-1,638531,217959,1263388,65782,7857,631157,0
53,3,718582,250907,1389696,75217,8776,694207,0
53,-1,638288,218606,1238161,65966,6963,618564,0
53,-1,672826,229277,1388106,69247,7429,693569,0
53,-1,642899,220190,1394752,66505,7643,696943,0
53,-1,646848,220445,1369992,66472,8499,684268,0
53,-1,645409,221233,1262934,67016,7633,630522,0
53,-1,640646,219210,1380017,66130,7780,689530,0
54,-1,694377,237603,1419468,70840,8141,708727,0
54,-1,638635,219010,1231317,65722,7469,615079,0
54,3,708350,248514,1351891,73876,7934,675452,0
54,-1,634693,218830,1364537,65718,8161,681743,0
54,-1,642681,220113,1348388,66034,7242,673845,0
54,-1,640288,219375,1329171,66063,7309,664150,0
54,-1,639398,220473,1393976,66419,7728,696491,0
54,-1,640080,219457,1358728,65974,7965,678886,0
54,-1,638656,219323,1326602,65970,7942,662685,0
54,-1,639383,219375,1179676,65934,6800,589403,0
54,-1,642475,219399,1207042,65830,7656,603107,0
54,-1,644172,220287,1305087,66059,7740,651851,0
54,-1,644345,220098,1265272,66047,7561,632150,2
54,3,709699,249461,1465557,74148,9326,732083,0
54,-1,637299,219337,1292707,65843,7816,645702,0
54,-1,637963,219551,1211327,65952,7484,605095,0
54,-1,645936,221496,1282911,66642,7804,640592,0
54,-1,639025,218980,1285716,65628,6954,642427,0
54,-1,644299,219051,1240548,65730,7578,619707,0
54,-1,664305,224589,1450227,69225,8512,724437,0
54,-1,634784,218759,1368783,65297,7537,683884,0
54,-1,646655,220661,1239260,66965,8860,618746,0
54,-1,644877,220742,1184757,66941,7532,591676,0
54,-1,641487,219154,1313995,66142,7815,656391,0
54,3,717191,249804,1489615,74684,9611,744296,0
54,-1,642462,219909,1230493,66565,7268,614548,0
54,-1,647655,220356,1335042,66702,8250,666804,0
54,-1,661686,224769,1396650,69798,9356,697801,0
54,-1,647441,220795,1282045,66564,7890,640471,0
54,-1,643067,220086,1356413,66454,8626,677735,0
54,-1,666777,224377,1386979,69746,8774,693028,0
55,-1,692500,237076,1389776,70621,7761,694446,0
55,-1,635688,218301,1246682,65453,7044,622892,0
55,3,705655,248447,1431356,73967,9066,715176,0
55,-1,631834,218425,1319970,65652,6807,659553,0
55,-1,661031,224178,1288137,69150,8112,643635,0
55,-1,647204,220867,1331534,66745,8415,665079,0
55,-1,640365,221380,1468498,66977,8266,733569,0
55,-1,639236,218912,1321235,65746,9372,660000,0
55,-1,641184,220437,1321686,66240,6759,660319,0
55,-1,637594,219135,1140861,65890,6764,569921,0
55,-1,641014,219835,1236868,65981,7054,618046,0
55,-1,642712,220372,1311489,66118,7645,655156,0
55,-1,644663,220790,1391066,66348,9115,695015,2
55,3,708862,248265,1424706,73800,9689,711687,0
55,-1,639251,219214,1194775,65757,7272,596952,0
55,-1,636878,219069,1365833,65740,8194,682396,0
55,-1,661110,223689,1394393,68947,9318,696602,0
55,-1,637983,218474,1546387,65452,8353,772820,0
55,-1,644305,219321,1324823,65761,8031,661921,0
55,-1,639249,218824,1262915,65511,7059,630740,0
55,-1,633043,218349,1431508,65130,7849,715302,0
55,-1,641766,218980,1362210,66130,8677,680693,0
55,-1,636891,217976,1209170,65760,7201,603880,0
55,-1,642621,219958,1315244,66550,7724,656954,0
55,3,707870,248088,1492910,73937,10170,746412,0
55,-1,639377,219131,1322343,66141,7502,660455,0
55,-1,645356,219568,1273150,66482,8032,636097,0
55,-1,645033,220564,1244112,66699,7648,621604,0
55,-1,644456,219888,1322371,66272,7899,660742,0
55,-1,641718,220002,1289793,66396,7505,644457,0
55,-1,644985,220198,1239969,66573,7881,619473,0
56,-1,713251,241970,1412001,74047,9064,705577,0
56,-1,657257,222901,1433802,68836,8022,716515,0
56,3,711885,248931,1486821,74141,9270,742848,0
56,-1,640710,218006,1139812,65433,6938,569431,0
56,-1,643458,220688,1315870,66425,8032,657447,0
56,-1,641711,219156,1259985,65952,6915,629549,0
56,-1,635684,219864,1332623,66226,8038,665900,0
56,-1,659262,223521,1354012,69158,8090,676422,0
56,-1,638925,219257,1346219,65896,7708,672664,0
56,-1,641533,220609,1239299,66522,7168,618952,0
56,-1,638370,219135,1211023,65763,6577,605050,0
56,-1,643513,220996,1320251,66281,7640,659615,0
56,3,709401,248506,1338414,73760,8609,668826,0
56,-1,645065,219770,1309962,66002,7942,654421,2
56,-1,640242,219511,1399635,65853,7740,699179,0
56,-1,641479,221332,1450750,66777,8999,724430,0
56,-1,668701,228279,1319475,68252,8625,659198,0
56,-1,660072,223779,1255446,69028,7836,627271,0
56,-1,644368,219616,1236443,65925,7759,617657,0
56,-1,645769,219955,1229747,65914,7866,614380,0
56,-1,631750,218313,1249408,65058,7682,624201,0
56,-1,639059,218567,1348891,66058,8513,674295,0
56,-1,640325,218567,1350730,66013,7358,675002,0
56,3,715647,250251,1366540,74960,9257,682401,0
56,-1,639796,218598,1422912,66055,8284,710984,0
56,-1,635754,218197,1287649,65721,7559,643210,0
56,-1,644309,219466,1317203,66333,8395,658251,0
56,-1,645563,220128,1314504,66471,7603,656796,0
56,-1,644904,220042,1334842,66286,7613,666610,0
56,-1,642063,219849,1360457,66336,8948,679737,0
56,-1,642176,219402,1367068,66280,8204,682911,0
57,-1,694347,237416,1358120,70745,7919,678668,0
57,-1,636578,218992,1505783,65805,7874,752344,0
57,3,711766,250509,1372670,74986,8784,685419,0
57,-1,642217,218914,1224197,65822,7592,611564,0
57,-1,639211,219592,1203293,65847,7060,601160,0
57,-1,640884,219376,1193017,66022,7509,595709,0
57,-1,631567,218322,1342067,65624,7843,670571,0
57,-1,640514,219979,1388450,66180,8169,693523,0
57,-1,639444,220616,1336469,66586,7643,667573,0
57,-1,639197,220096,1204328,66212,6503,601711,0
57,-1,638525,219169,1263219,65714,6741,631242,0
57,-1,643898,220288,1288322,66046,7473,643723,0
57,3,707731,247865,1263419,73657,8400,631373,0
57,-1,644202,222551,1320371,67199,8810,659242,2
57,-1,641854,220286,1410458,66328,7514,704567,0
57,-1,645750,220353,1406188,66434,8372,702116,0
57,-1,639313,219112,1367567,65624,8887,683299,0
57,-1,637067,218773,1263665,65560,7118,631376,0
57,-1,651372,222287,1282094,67071,8123,639941,0
57,-1,641665,218676,1197569,65530,7575,598239,0
57,-1,637944,218542,1309774,65138,7678,654472,0
57,-1,641730,220154,1257190,66755,7884,627907,0
57,-1,642327,219281,1359964,66244,7911,679448,0
57,3,712463,249107,1535292,74246,9555,767101,0
57,-1,642998,219047,1250320,66132,7578,624652,0
57,-1,661889,223420,1382983,69341,9190,691021,0
57,-1,650995,221924,1240821,67482,7990,619602,0
57,-1,644067,219984,1298878,66468,7805,648953,0
57,-1,646872,221195,1262423,66903,7581,630475,0
57,-1,641044,219884,1331238,66420,8260,664980,0
57,-1,641847,219803,1350650,66408,8411,674599,0
58,-1,692435,237470,1316146,70779,7783,657498,0
58,3,705408,247726,1459158,73644,8760,729224,0
58,-1,633359,218166,1287961,65522,7165,643589,0
58,-1,661054,222951,1328057,68926,8829,663626,0
58,-1,638056,219385,1250774,65778,7373,624999,0
58,-1,663504,223902,1282372,69344,8925,640886,0
58,-1,635585,219104,1328111,65921,7384,663649,0
58,-1,640853,219752,1202386,66098,6605,600755,0
58,-1,637293,219471,1247334,66030,7575,623080,0
58,-1,639369,219871,1247819,66173,7322,623450,0
58,-1,661849,223803,1280215,68992,7443,639643,0
58,-1,648671,222246,1432464,66966,8582,714273,0
58,3,707889,248656,1489295,73979,9158,744146,0
58,-1,638532,219999,1287152,66118,7503,643242,2
58,-1,641340,220277,1320497,66133,7547,659745,0
58,-1,643154,218850,1474420,65732,9508,736733,0
58,-1,644187,220886,1459445,66426,8340,728888,0
58,-1,635927,218371,1228417,65448,6992,613681,0
58,-1,642803,219298,1262342,65744,8559,630585,0
58,-1,647915,221801,1185687,66785,7291,591922,0
58,-1,638828,219338,1307680,65433,7995,653359,0
58,-1,644137,219682,1480882,66421,9035,739847,0
58,-1,641029,219105,1277253,66190,7482,638149,0
58,3,714468,248434,1376199,74054,8576,687609,0
58,-1,643986,220444,1289535,66807,8480,643854,0
58,-1,640511,219214,1246438,66153,7712,622688,0
58,-1,664918,224268,1347918,69745,8402,673510,0
58,-1,646712,221086,1318593,67053,7630,658748,0
58,-1,649516,220692,1313086,66543,8234,656089,0
58,-1,640103,219345,1342903,66170,8009,670874,0
58,-1,642917,219656,1185160,66392,7867,592080,0
59,-1,694646,238780,1432640,71400,8110,715389,0
59,3,707727,247875,1562568,73685,8869,780684,0
59,-1,638519,218541,1246020,65676,7263,622480,0
59,-1,640460,218671,1322743,65746,8603,660876,0
59,-1,647372,221770,1417081,66870,7449,707671,0
59,-1,642788,220475,1568877,66607,8807,783523,0
59,-1,639801,221151,1363811,66894,7849,680908,0
59,-1,638224,219778,1200730,66131,6995,599842,0
59,-1,638605,218827,1195474,65703,7090,597289,0
59,-1,657703,223548,1213715,69081,7250,606412,0
59,-1,643182,220452,1331715,66177,7533,665356,0
59,-1,645988,221890,1334926,66774,7888,666735,0
59,3,708559,249239,1462288,74150,9320,730567,0
59,-1,637464,219394,1341211,65801,8067,669979,0
59,-1,640627,220341,1258412,66185,7280,628659,2
59,-1,640071,218653,1380534,65726,8198,689725,0
59,-1,661393,223895,1392228,69002,9047,695631,0
59,-1,641017,219055,1321119,65702,8311,660042,0
59,-1,645705,220832,1338182,66494,8102,668158,0
59,-1,663023,223606,1258231,68856,8141,628645,0
59,-1,655846,223067,1500968,68453,8337,749926,0
59,-1,640312,218371,1415755,65879,8421,707479,0
59,-1,639410,218833,1251801,66062,7398,625481,0
59,3,734520,257157,1467570,76742,9927,732950,0
59,-1,639138,218814,1325373,65929,8102,662347,0
59,-1,640379,219666,1275193,66263,7148,637060,0
59,-1,645963,220461,1208809,66797,7517,603611,0
59,-1,642645,219956,1341447,66456,8086,670214,0
59,-1,648698,221546,1336134,67038,8067,667822,0
59,-1,639930,219208,1187752,66129,7511,593270,0
59,-1,642982,220044,1288912,66541,8131,643951,0
60,-1,692610,237745,1352465,70887,6992,675756,0
60,3,706301,247649,1355527,73618,8422,677339,0
60,-1,644693,220843,1351898,66598,7664,675267,0
60,-1,640623,218423,1209462,65622,8151,604322,0
60,-1,641030,219722,1217296,65935,6744,608193,0
60,-1,637885,218980,1354718,65965,7892,676293,0
60,-1,655227,223736,1364440,69263,8129,681865,0
60,-1,635959,219231,1191652,65877,6888,595244,0
60,-1,646820,221196,1394931,66840,8448,696443,0
60,-1,639907,219962,1260526,66173,7701,629812,0
60,-1,640707,219685,1266171,65947,6591,632600,0
60,-1,644827,220119,1309577,65971,8190,654405,0
60,3,710891,248825,1407478,73912,9343,703236,0
60,-1,661797,224965,1297335,69465,8203,648106,0
60,-1,645199,221402,1353767,66820,8043,675895,2
60,-1,645642,220548,1334379,66514,9085,666712,0
60,-1,643378,220256,1302337,65998,8104,650759,0
60,-1,638396,218578,1419782,65515,7549,709473,0
60,-1,643235,219878,1218662,66265,7917,608171,0
60,-1,643080,219571,1297047,65833,7566,647971,0
60,-1,635389,218906,1389279,65333,7455,694061,0
60,-1,641711,219199,1488373,66262,9422,744368,0
60,-1,636828,218570,1387894,65984,8156,693480,0
60,3,713320,250116,1450398,74881,9083,724292,0
60,-1,640245,219562,1325655,66241,8199,662332,0
60,-1,637557,219061,1251426,66055,8386,624705,0
60,-1,645489,219987,1365088,66505,8685,682324,0
60,-1,644562,220277,1366860,66556,8104,682953,0
60,-1,666034,224745,1637239,69694,11046,818000,0
60,-1,640029,219581,1298113,66292,8932,648510,0
60,-1,641700,219567,1230677,66317,8433,614882,0
61,-1,690156,237101,1251045,70673,6813,625242,0
61,3,707985,248553,1567123,73832,9206,782889,0
61,-1,637504,218489,1288822,65547,7570,643953,0
61,-1,639035,218306,1163161,65578,7353,581099,0
61,-1,640723,219865,1176106,66029,7501,587490,0
61,-1,639279,218772,1322833,65864,7799,661244,0
61,-1,633815,219336,1382772,66043,7293,690984,0
61,-1,638224,219693,1468138,66061,7509,733766,0
61,-1,642880,219754,1227375,66144,7035,613137,0
61,-1,636160,219280,1213057,65889,6839,605974,0
61,-1,642786,220896,1354837,66504,7261,676673,0
61,-1,645660,221043,1252214,66376,7251,625620,0
61,3,712502,250122,1508172,74605,9923,753269,0
61,-1,637518,219586,1310330,65994,8292,654697,0
61,-1,637300,219147,1176667,65906,7652,587846,2
61,-1,641704,219249,1251271,65934,8308,625292,0
61,-1,645440,220311,1338238,66092,8184,668411,0
61,-1,635735,218534,1310910,65457,7460,655061,0
61,-1,662364,223904,1309839,69087,8534,654471,0
61,-1,640571,218632,1277131,65462,7057,638154,0
61,-1,662459,228015,1338501,67960,7331,668453,0
61,-1,644187,220715,1233353,67085,7989,615838,0
61,-1,639020,219615,1297995,66312,7891,648600,0
61,3,711042,248551,1487843,74193,9558,743388,0
61,-1,643398,221223,1237652,67087,7839,617806,0
61,-1,642180,220893,1206393,66969,8244,602360,0
61,-1,642436,219056,1150212,66212,7309,574626,0
61,-1,646546,221757,1320933,67417,7931,659682,0
61,-1,643970,220031,1293347,66357,7623,646097,0
61,-1,642728,220999,1258077,67042,8461,628106,0
61,-1,647062,221916,1209987,67374,8383,604016,0
62,-1,689745,237389,1396213,70752,8194,697606,0
62,3,708610,248217,1475291,73720,9203,737095,0
62,-1,639384,219488,1285870,65801,7339,642489,0
62,-1,643666,220268,1205773,66440,7736,602188,0
62,-1,642905,220369,1254314,66385,7615,626420,0
62,-1,644950,221324,1337561,66966,7794,667947,0
62,-1,633757,219747,1183159,66178,6814,591127,0
62,-1,636595,219184,1333589,65909,7604,666307,0
62,-1,640415,219193,1313103,65893,7776,656052,0
62,-1,658223,223722,1326927,69192,7839,662892,0
62,-1,639716,219709,1314862,65941,6630,656918,0
62,-1,645391,221741,1319845,66527,8113,659447,0
62,3,710688,248186,1621298,73662,9759,810065,0
62,-1,638922,220522,1364844,66468,8650,681730,0
62,-1,666337,229130,1417484,68704,7949,708312,2
62,-1,640489,218822,1306639,65683,8379,652789,0
62,-1,665941,224632,1352211,69253,9482,675612,0
62,-1,637098,218756,1231945,65579,6573,615580,0
62,-1,643815,219539,1371153,65886,8549,685056,0
62,-1,642691,219662,1402065,65855,7912,700499,0
62,-1,635025,218558,1350688,65221,8311,674855,0
62,-1,660390,223307,1384562,69397,8965,691688,0
62,-1,659492,223379,1400219,69370,8869,699648,0
62,3,707089,247575,1484659,73768,8250,741857,0
62,-1,645347,220665,1221190,66764,7651,609925,0
62,-1,658472,223646,1393058,69379,9427,695894,0
62,-1,641461,218725,1213646,66087,8297,606282,0
62,-1,664030,224915,1481469,69909,9601,740175,0
62,-1,641096,219540,1323834,66132,8123,661428,0
62,-1,649783,220783,1410618,66682,8413,704437,0
62,-1,646375,220242,1188874,66594,8332,593860,0
63,-1,697430,239413,1325443,71725,8184,661895,0
63,3,754632,265676,1514348,78436,9538,756667,0
63,-1,635697,218179,1189807,65402,6775,594485,0
63,-1,640371,218740,1194609,65791,8002,596829,0
63,-1,639629,220001,1238694,65971,7081,618980,0
63,-1,635320,217963,1310644,65624,7356,654984,0
63,-1,645496,219361,1198848,66060,7290,598968,0
63,-1,635092,218994,1278557,65746,6995,638765,0
63,-1,659868,224276,1212719,69367,8115,605852,0
63,-1,637139,219483,1315416,65967,7032,657292,0
63,-1,637314,219154,1285355,65734,6339,642323,0
63,3,710829,249519,1408643,74196,9354,703191,0
63,-1,641417,219866,1215386,65894,7906,607243,0
63,-1,643644,220318,1356569,66216,7398,677782,0
63,-1,643628,220268,1163988,66155,7286,581540,2
63,-1,642771,220193,1309929,66399,8811,654025,0
63,-1,637623,219719,1619306,66013,9265,809238,2
63,-1,646039,221820,1370687,66900,8632,684594,2
63,-1,640394,220106,1338429,65937,8230,668688,2
63,-1,643862,220357,1287835,66036,8140,643381,0
63,-1,636772,218944,1235603,65694,8797,617198,2
63,-1,634941,218981,1419089,65709,8231,709107,2
63,-1,638556,219209,1419807,65724,8843,709373,2
63,-1,637881,219482,1325414,65849,7421,662196,0
63,-1,644051,221434,1245618,66792,7133,621913,2
63,-1,644569,220503,1215874,66316,7776,607140,0
63,-1,639567,219603,1223964,65874,6912,611467,2
63,-1,640408,219217,1300521,65702,7261,649773,2
63,-1,642893,219384,1381290,65775,8359,690048,2
63,-1,646664,221400,1338178,66561,7548,668376,0
63,-1,641790,219144,1259922,65685,6876,629420,2
63,-1,639195,218834,1353802,65542,6861,676399,2
63,-1,630400,218694,1178919,65188,7250,588928,2
63,-1,635091,219198,1367515,65427,7948,682326,2
63,-1,641483,221097,1367958,66217,7522,683262,0
63,-1,636067,219623,1380839,65581,7585,689902,2
63,-1,633985,219311,1294901,65484,8107,646942,2
63,-1,634065,218836,1341272,65262,7779,670109,2
63,-1,641966,221303,1254758,66381,7457,626329,2
63,-1,636754,218979,1224092,66223,7232,611361,2
63,-1,641564,219726,1291888,66429,8576,645523,0
63,-1,635424,219208,1351028,66284,7333,674849,2
63,-1,637806,219413,1223188,66335,8007,611105,2
63,-1,638876,218683,1208043,66114,7603,603405,2
63,-1,635915,218230,1289635,65824,7481,644371,0
63,-1,638658,219237,1394683,66260,7963,696714,2
63,-1,637314,218628,1145541,66128,7246,572246,2
63,-1,640686,218764,1282601,66145,7124,640765,2
63,-1,644562,220928,1230182,67148,7370,614261,2
63,3,709323,248781,1372834,74254,9451,685551,0
63,-1,634598,218849,1289952,66132,7957,644472,2
63,-1,640508,219255,1325925,66118,8441,662444,0
63,-1,638537,219717,1259605,66289,8208,629236,2
63,-1,638543,219167,1322765,66134,7993,660781,2
63,-1,638215,219539,1329557,66230,8378,664317,2
63,-1,639154,218833,1210552,65957,7537,604668,2
63,-1,641457,218474,1342033,65913,7893,670458,2
63,-1,636154,218963,1280412,66025,8036,639693,0
63,-1,641120,220854,1245331,66993,7583,621830,2
63,-1,647541,221402,1313681,67123,8067,656111,2
63,-1,638087,218992,1587332,66086,8775,793148,2
63,-1,643966,219704,1486632,66501,8743,742700,2
63,-1,646346,220850,1169447,67083,7758,583175,0
63,-1,649137,220712,1322980,66885,8739,661028,2
63,-1,638714,220647,1329580,66830,7093,664389,2
63,-1,641691,220445,1231592,66767,7984,615307,2
63,-1,640921,220411,1408323,66663,8072,703672,2
63,-1,644233,220691,1336364,66730,7789,667682,0
63,-1,644559,220805,1215053,66739,6994,606974,2
63,-1,645043,222210,1230013,67519,7879,614130,2
63,-1,642782,220180,1317804,66580,7730,658310,2
63,-1,644351,221406,1284429,66907,7856,640618,2
63,-1,646044,220695,1224648,66621,7383,611526,2
63,-1,651089,221777,1268386,67178,7858,633369,0
63,-1,644630,220730,1412410,66579,8791,705755,2
63,-1,641760,220462,1270032,66561,7627,634445,2
63,-1,640242,220440,1287489,66590,7988,643204,2
63,-1,645905,221647,1332309,67243,8945,665334,2
63,-1,648513,220796,1243962,66871,8134,621320,0
63,-1,642736,220397,1236524,66568,7581,617762,2
63,-1,642891,219675,1272379,66367,8168,635516,2
63,-1,640587,220403,1203257,66557,8147,600954,2
63,-1,648021,221287,1231907,67147,8253,615206,0
63,-1,641544,220103,1325200,66569,8059,661999,2
63,-1,643512,220259,1399612,66568,8623,699180,2
63,-1,644548,220097,1189033,66460,7119,594020,2
