0,-1,688992,236229,1286925,70458,8101,643357,0
0,-1,689615,236193,1195747,70473,7523,597746,2
0,-1,687652,236834,1314625,70633,8279,657457,0
0,-1,710022,241096,1328533,73755,8519,664310,0
0,-1,688020,235977,1340831,70294,7250,670446,0
0,-1,690328,236642,1279961,70489,7707,640053,0
0,-1,689418,236149,1169930,70350,7400,584771,0
0,-1,693266,236872,1206886,70639,9355,603375,0
0,-1,677410,231617,1201500,68994,8191,600782,0
0,-1,633033,218141,1219428,65629,7247,609758,0
0,-1,636027,218818,1128837,65776,6403,564495,0
0,-1,635197,217627,1161466,65293,7088,580787,0
0,-1,639037,217955,1345567,65493,7490,672778,0
0,-1,637405,218225,1208695,65435,8182,604420,0
0,-1,636755,217684,1261290,65266,8780,630644,0
0,-1,636372,218098,1160480,65465,6932,580285,0
0,-1,637187,217931,1257770,65361,7545,628752,0
0,-1,639833,218592,1283398,65625,7647,641617,0
0,-1,658030,222899,1279990,68775,8715,640074,0
0,-1,637747,218303,1359965,65477,7403,679609,0
0,-1,641655,219377,1295868,66133,8390,647771,0
0,-1,659301,222214,1370629,68675,8782,685367,0
0,-1,638715,217694,1220207,65442,7273,610086,0
0,-1,632852,218146,1276340,65549,7796,638218,0
0,-1,633747,217868,1221202,65519,7012,610639,0
0,-1,637746,219608,1248732,66331,7396,624478,0
0,-1,637072,219080,1271647,66072,7011,635912,0
0,-1,639939,219688,1264402,66385,8445,632289,0
0,-1,637674,219503,1249195,66300,7967,624317,0
0,-1,636174,217882,1247245,65457,7868,623723,0
0,-1,636561,217945,1240689,65476,7717,620290,0
0,-1,633240,217441,1286990,65316,7282,643428,0
0,-1,637318,217592,1166514,65371,7587,583217,0
0,-1,637039,217980,1188819,65472,7623,594324,0
0,-1,639398,220316,1269255,66554,8279,634722,0
0,-1,632010,217444,1209767,65349,7425,604951,0
0,-1,634603,217491,1276685,65346,8104,638472,0
0,-1,638813,218402,1260586,65649,7019,630272,0
0,-1,640420,219761,1261176,66490,8223,630552,0
0,-1,638415,218568,1226883,65513,7586,613366,0
0,-1,642112,218365,1264046,65654,8369,631985,0
0,-1,638208,217966,1199188,65622,7425,599570,0
0,-1,637133,218384,1192848,65649,7117,596390,0
0,-1,639764,218705,1200504,65761,8174,600301,0
0,-1,640959,218355,1216373,65534,8084,608220,0
0,-1,639866,218134,1409673,65442,8988,705269,0
0,-1,639833,219379,1260940,65850,7968,630324,0
0,-1,639455,219172,1267569,65765,8468,633718,0
0,-1,639004,218554,1274812,65567,7587,637447,0
0,-1,634623,217999,1194670,65506,7531,597051,0
0,-1,641034,219915,1299890,66083,7680,649874,0
0,-1,659188,223209,1224143,68935,8522,611955,0
0,-1,639185,218215,1277130,65525,8712,638442,0
0,-1,645169,220265,1362940,66524,10228,681326,0
0,-1,635126,217438,1270679,65254,7959,635118,0
0,-1,640907,218619,1268094,65730,8550,633859,0
0,-1,643200,219552,1267401,66348,8588,633959,0
0,-1,640652,218796,1277493,65843,8675,638727,0
0,-1,641853,219180,1241574,65997,8302,620689,0
0,-1,643615,220866,1402437,66827,8437,701435,0
0,-1,640857,220170,1395822,66518,8567,697824,0
0,-1,643588,219572,1401611,66343,8609,700414,0
0,-1,660974,222572,1205626,68876,8895,602645,0
0,-1,644189,219775,1293772,66400,8048,646868,0
0,-1,644560,218914,1262347,65905,7978,631162,0
0,-1,643385,220306,1448720,66641,8971,724420,0
0,-1,637787,217913,1276629,65545,8028,638146,0
0,-1,640137,218275,1373132,65670,8176,686620,0
0,-1,644743,220630,1277358,66829,8577,638529,0
0,-1,642191,219210,1189142,66011,8158,594659,0
0,-1,641190,218397,1217661,65714,6997,608865,0
0,-1,643811,218442,1208743,65800,7085,604417,0
0,-1,632066,218437,1206121,65692,7035,603115,0
0,-1,653695,222888,1202117,69012,7575,601014,0
0,-1,636643,219013,1206830,65916,7433,603450,0
0,-1,633140,218061,1208662,65671,6931,604389,0
0,-1,637386,218600,1325117,65835,8130,662220,0
0,-1,639467,219808,1290497,66413,9111,644899,0
0,-1,635500,218573,1166243,65773,7411,583179,0
0,-1,636346,218101,1176269,65634,7124,588030,0
0,-1,637503,219100,1214794,65976,7740,607509,0
0,-1,639208,219112,1399609,65993,7978,699255,0
0,-1,636671,218276,1344420,65733,8123,671909,0
0,-1,653841,222553,1256327,68876,9616,628625,0
0,-1,656251,223064,1250334,69055,8795,625183,0
0,-1,654714,222696,1222624,68914,7848,611255,0
0,-1,635325,218247,1188924,65574,6839,594506,0
0,-1,640640,219184,1198335,65930,7745,599277,0
0,-1,638256,219037,1191183,65803,7692,595626,0
0,-1,638996,218864,1267847,65837,7800,633951,0
0,-1,638798,219716,1239658,66294,7027,619965,0
0,-1,638080,218519,1265312,65687,7696,632636,0
0,-1,640849,219018,1256979,65866,6812,628555,0
0,-1,644589,220143,1243243,66432,7814,621739,0
0,-1,633899,218477,1321369,65589,7728,660666,0
0,-1,640150,220380,1186811,66530,7286,593552,0
0,-1,656382,223091,1203939,69000,7537,601783,0
0,-1,637700,218650,1245390,65640,6867,622736,0
0,-1,636282,218995,1257620,65904,7603,628862,0
0,-1,637435,218819,1167785,65799,6655,584009,0
0,-1,633901,218513,1248646,65664,6948,624261,0
0,-1,634992,218094,1130885,65525,6255,565469,0
0,-1,637885,218904,1233155,65797,6760,616673,0
0,-1,643410,219764,1303572,66256,7829,651750,0
0,-1,637837,218977,1202444,65822,6355,601274,0
0,-1,641840,219910,1260277,66315,7357,630128,0
0,-1,635008,218421,1117350,65688,7335,558686,0
0,-1,636648,218034,1159014,65501,7818,579426,0
0,-1,635657,218459,1169372,65604,6408,584737,0
0,-1,636346,218229,1166386,65580,6683,583228,0
0,-1,637019,218074,1223930,65589,6864,612028,0
0,-1,638657,218553,1164459,65733,6939,582193,0
0,-1,636608,219103,1306408,65848,8854,653117,0
0,-1,659365,223819,1376691,69237,8627,688340,0
0,-1,636114,218381,1120731,65694,6773,560417,0
0,-1,637880,218169,1190400,65494,7093,595252,0
0,-1,641108,220113,1238518,66442,6834,619356,0
0,-1,638411,218282,1162617,65618,7419,581444,0
0,-1,641514,218858,1197212,65828,7688,598708,0
0,-1,642437,218766,1225989,65783,7526,613081,0
0,-1,638737,219358,1240871,65993,6847,620475,0
0,-1,637125,218473,1222762,65648,6671,611451,0
0,-1,636706,219310,1236286,65917,6863,618233,0
0,-1,636977,217944,1154363,65564,6294,577219,0
0,-1,642436,220560,1257363,66653,6858,628777,0
0,-1,637034,218998,1163314,65850,7271,581617,0
0,-1,640192,219208,1241160,65848,7677,620648,0
0,-1,661149,223470,1378715,69119,8519,689444,0
0,-1,636946,218717,1217758,65729,6859,608861,0
0,-1,640285,219517,1266912,66241,8144,633500,0
0,-1,636606,218602,1126288,65758,7320,563092,0
0,-1,637745,218688,1224760,65632,7465,612431,0
0,-1,639340,219063,1284561,65848,7330,642213,0
0,-1,640283,218381,1223605,65621,7897,611760,0
0,-1,639555,219519,1325765,66063,7951,662863,0
0,-1,645095,220361,1289546,66492,8381,644561,0
0,-1,637338,218588,1374816,65755,7302,687465,0
0,-1,643483,220775,1311145,66764,8318,655467,0
0,-1,640873,218578,1128530,65623,7440,564302,0
0,-1,641924,219544,1239648,66060,7869,619092,0
0,-1,641939,219034,1148249,65904,7155,574292,0
0,-1,641460,218775,1227174,65739,7479,613636,0
0,-1,654526,223348,1173792,69036,7011,586863,0
0,-1,638020,219229,1165352,65891,6239,582721,0
0,-1,634852,217791,1226201,65253,7056,613207,0
0,-1,638999,219226,1168580,65774,6822,584347,0
0,-1,637040,218744,1210126,65660,7070,605094,0
0,-1,638747,219087,1172486,65762,6642,586345,0
0,-1,636182,218324,1204793,65435,6702,602429,0
0,-1,639223,218876,1130179,65612,7129,565135,0
0,-1,638274,218999,1134643,65728,6795,567369,0
0,-1,660670,223643,1199977,69012,8096,599908,0
0,-1,660540,223666,1181510,69022,8226,590731,0
0,-1,645114,220684,1294117,66474,8248,647120,0
0,-1,644494,220694,1236946,66581,7423,618777,0
0,-1,640270,218614,1244674,65603,6264,622390,0
0,-1,643081,219361,1235359,65904,7102,617725,0
0,-1,638192,218952,1175853,65714,7377,587766,0
0,-1,641025,219460,1275646,65899,8289,637869,0
0,-1,648391,221717,1266862,67042,8064,633539,0
0,-1,644152,219618,1266916,66053,8124,633497,0
0,-1,644929,220342,1271039,66563,7877,635593,0
0,-1,641582,218969,1194680,65855,7015,597408,0
0,-1,642573,219634,1164669,65995,7185,582386,0
0,-1,643576,219951,1251723,65908,6796,625874,0
0,-1,643683,219803,1144456,65933,6242,572281,0
0,-1,646959,220171,1220946,66046,6585,610592,0
0,-1,643969,219634,1221504,65883,7555,610808,0
0,-1,649844,221307,1305914,66610,8036,653054,0
0,-1,647024,219526,1159199,65834,7290,579636,0
0,-1,637344,219596,1307235,65864,7532,653660,0
0,-1,638991,219492,1115425,65786,7457,557767,0
0,-1,658568,223648,1226563,68968,8460,613329,0
0,-1,639496,218898,1147769,65543,7687,573931,0
0,-1,641476,219931,1289261,66023,8442,644653,0
0,-1,641923,219267,1283524,65806,8092,641808,0
0,-1,637640,219007,1286199,65727,7965,643013,0
0,-1,640076,218859,1349014,65775,8425,674396,0
0,-1,642234,219245,1263024,65785,7757,631437,0
0,-1,644187,220371,1267512,66360,8010,633807,0
0,-1,642200,219397,1252958,65866,8202,626517,0
0,-1,643498,219105,1165647,65811,7549,582882,0
0,-1,642247,220285,1281864,66425,7704,640884,0
0,-1,640357,220114,1246804,66439,7282,623360,0
0,-1,637945,218882,1251416,65718,7351,625759,0
0,-1,659451,223346,1201987,68953,7813,601055,0
0,-1,637580,218418,1225133,65564,6840,612605,0
0,-1,641222,218384,1239245,65513,7519,619698,0
0,-1,638788,218212,1195274,65527,8202,597672,0
0,-1,663112,223711,1255302,69150,8878,627149,0
0,-1,660384,223331,1299820,69034,9231,649837,0
0,-1,638071,217940,1183831,65398,7073,591549,0
0,-1,641693,218059,1254133,65495,8435,626927,0
0,-1,655860,223201,1377089,68895,8514,688609,0
0,-1,637218,218564,1168379,65595,8076,584142,0
0,-1,636453,218480,1130888,65590,6946,565473,0
0,-1,639509,218388,1244023,65624,7323,622171,0
0,-1,638141,218604,1223601,65587,6900,611831,0
0,-1,635449,218042,1155221,65384,6499,577652,0
0,-1,638437,218351,1152958,65622,7205,576514,0
0,-1,634728,217918,1287518,65412,7577,643853,0
0,-1,642644,219870,1162926,66296,7523,581545,0
0,-1,637519,218178,1226678,65602,6736,613371,0
0,-1,661839,223730,1220679,69156,7799,610470,0
0,-1,642814,219604,1293572,66105,7876,646841,0
0,-1,666063,223835,1210500,69129,8111,605316,0
0,-1,640047,219419,1212177,65925,6987,606127,0
0,-1,642193,220069,1281259,66270,7111,640770,0
0,-1,640134,218793,1228302,65635,7468,614234,0
0,-1,639162,218714,1216556,65560,7541,608358,0
0,-1,647446,221675,1245848,66685,7062,623043,0
0,-1,647660,220373,1210563,66363,8151,605369,0
0,-1,662544,223685,1238670,68884,9121,619179,0
0,-1,642724,219001,1286036,65577,9662,643058,0
0,-1,641769,218438,1266575,65304,9291,633226,0
0,-1,645490,220181,1230725,66123,8922,615232,0
0,-1,641862,218609,1384325,65356,9566,692055,0
0,-1,640877,218120,1257525,65282,9226,628514,0
0,-1,635664,218338,1364754,65362,7672,682470,0
0,-1,635923,218385,1140548,65386,7877,570236,0
0,-1,636790,218104,1184989,65369,8157,592468,0
0,-1,636492,218319,1225244,65483,7617,612656,0
0,-1,638070,218621,1275578,65524,8064,637846,0
0,-1,639189,218270,1373327,65420,8746,686672,0
0,-1,634987,217843,1132342,65296,7310,566202,0
0,-1,636692,217763,1242155,65248,8242,621130,0
0,-1,634648,217699,1235747,65219,7436,617955,0
0,-1,639097,218314,1253227,65453,8011,626548,0
0,-1,637848,217862,1177294,65299,7659,588603,0
0,-1,640698,218979,1241648,65931,7532,620769,0
0,-1,640852,218445,1261685,65491,8420,630828,0
0,-1,661038,223160,1357272,68855,9326,678553,0
0,-1,637222,218591,1241681,65538,8215,620931,0
0,-1,639089,218324,1166866,65427,7569,583491,0
0,-1,637142,218041,1265190,65433,7611,632582,0
0,-1,636057,217927,1254591,65318,8338,627402,0
0,-1,638601,218223,1123461,65403,7855,561769,0
0,-1,639699,217637,1286645,65231,8650,643161,0
0,-1,660079,222308,1220864,68579,8666,610577,0
0,-1,634841,217565,1389582,65277,7981,694807,0
0,-1,639030,217957,1153812,65335,8046,576717,0
0,-1,638722,217999,1227666,65357,7834,613883,0
0,-1,647015,220582,1236700,66471,8482,618389,0
0,-1,638787,217727,1161811,65247,7958,580870,0
0,-1,640829,217997,1259437,65342,8471,629720,0
0,-1,648468,221104,1224564,66709,8324,612201,0
0,-1,645981,219499,1195107,65859,7979,597601,0
0,-1,633600,217411,1237001,65103,8119,618488,0
0,-1,661886,223610,1362832,68994,8368,681385,0
0,-1,637809,218125,1238058,65429,7850,619077,0
0,-1,638249,217933,1294623,65374,7662,647172,0
0,-1,688310,232605,1265046,71628,8717,632580,0
0,-1,638595,218743,1233504,65569,7459,616673,0
0,-1,659439,222754,1244935,68711,8048,622408,0
0,-1,645834,220607,1199979,66491,7701,599860,0
0,-1,639600,218179,1141107,65382,7568,570508,0
0,-1,646971,220478,1222537,66347,7681,611159,0
0,-1,641209,217662,1318736,65172,8239,659251,0
0,-1,637794,218630,1162286,65584,7423,580908,0
0,-1,643569,220188,1167308,66281,7146,583592,0
0,-1,645870,219379,1218602,66007,8028,609267,0
0,-1,641707,219038,1228237,65729,6950,614049,0
0,-1,661457,223522,1273346,68983,7761,636477,0
0,-1,635228,217370,1236489,65144,7402,618097,0
0,-1,641919,218339,1186083,65461,7314,593091,0
0,-1,642613,218037,1284236,65277,7518,642250,0
0,-1,640651,218163,1263062,65322,7151,631571,0
0,-1,664164,222243,1384230,68471,8486,692188,0
0,-1,642854,218410,1154036,65382,6166,577037,0
0,-1,633166,218368,1251529,65011,7326,625739,0
0,-1,639104,220749,1180176,66057,7281,590077,0
0,-1,636511,220397,1174422,65891,7600,587171,0
0,-1,654888,222639,1327100,68175,8490,663464,0
0,-1,660214,227114,1222369,67512,7572,611214,0
0,-1,635828,218126,1167239,64933,7585,583676,0
0,-1,654583,222833,1275564,68238,8544,637781,0
0,-1,638781,219850,1188627,65695,7215,594221,0
0,-1,654094,222388,1274468,68056,8118,637175,0
0,-1,637558,219231,1128569,65599,7426,564271,0
0,-1,633980,218501,1244026,65131,8062,621890,0
0,-1,631550,216900,1160174,64740,7467,580111,0
0,-1,638556,219328,1374728,65476,7438,687255,0
0,-1,636655,217750,1317069,64920,7967,658728,0
0,-1,634686,218510,1234090,65214,7980,617101,0
0,-1,653147,222561,1230286,68315,9155,615088,0
0,-1,634977,218004,1185922,65007,7060,592964,0
0,-1,635566,218694,1231867,65276,7837,615919,0
0,-1,661560,226934,1293453,67578,7418,646792,0
0,-1,641673,219467,1198383,65744,7664,599306,0
0,-1,636106,217356,1131456,65575,8185,565649,0
0,-1,641937,219489,1182621,66586,8024,591239,0
0,-1,637716,218173,1259596,65961,8668,629714,0
0,-1,641156,218835,1316586,66122,8640,658325,0
0,-1,662099,223085,1254644,69332,9017,627284,0
0,-1,641066,218301,1385311,65979,9417,692686,0
0,-1,654283,222644,1286334,69207,9625,642963,0
0,-1,641323,220660,1266636,67011,8689,633443,0
0,-1,641938,220153,1254405,66764,8388,627069,0
0,-1,640051,220003,1238287,66693,9353,618785,0
0,-1,636455,217811,1247682,65811,8151,623820,0
0,-1,637691,217887,1288358,65797,7301,644248,0
0,-1,640248,218645,1142312,66111,6951,571123,0
0,-1,642387,219901,1211963,66788,7527,605881,0
0,-1,637941,218435,1257831,66023,8234,628954,0
0,-1,641070,218778,1191624,66138,8470,595831,0
0,-1,642157,218726,1278609,66136,8501,639301,0
0,-1,641520,218483,1223825,66069,8359,611591,0
0,-1,638086,218882,1244812,66210,7395,622386,0
0,-1,635786,217998,1488595,65831,9401,743901,0
0,-1,641712,219279,1250853,66449,9216,625385,0
0,-1,638167,217580,1412392,65727,8351,706183,0
0,-1,638982,218010,1479711,65893,8941,739646,0
0,-1,642283,219688,1149216,66613,6761,574681,0
0,-1,640788,218982,1108593,66135,7182,554303,0
0,-1,642370,219758,1174342,66633,7678,587225,0
0,-1,642136,218605,1444678,66091,8959,722254,0
0,-1,659227,222297,1264724,69017,8049,632513,0
0,-1,640231,218454,1157445,66038,7379,578773,0
0,-1,642539,219657,1121148,66689,7481,560554,0
0,-1,645054,219032,1163773,66410,7833,581951,0
0,-1,639041,218934,1138371,66223,6887,569184,0
0,-1,634246,217796,1130988,65767,7611,565582,0
0,-1,635855,218169,1517304,65984,10619,758279,0
0,-1,642526,219910,1161305,66794,7513,580708,0
0,-1,659017,222556,1275537,69161,8324,637850,0
0,-1,640604,219424,1123871,66331,6884,561984,0
0,-1,636538,218247,1214956,65988,7023,607536,0
0,-1,641440,219373,1181583,66476,7893,590868,0
0,-1,643506,220050,1153546,66697,7586,576840,0
0,-1,641815,218489,1147593,66091,7468,573861,0
0,-1,634929,217785,1148719,65825,7082,574389,0
0,-1,636892,218500,1284517,66001,7829,642311,0
0,-1,636485,217379,1131422,65616,6617,565759,0
0,-1,636298,218211,1229396,65942,7250,614748,0
0,-1,638114,218329,1143913,65954,6624,572003,0
0,-1,640493,218868,1327860,66037,8911,663686,0
0,-1,641827,218491,1176755,65981,7480,588417,0
0,-1,642169,219958,1181198,66629,6981,590650,0
0,-1,647746,220802,1242329,67126,7134,621192,0
0,-1,639459,218093,1162173,65885,6866,581169,0
0,-1,641091,218288,1175266,65932,6812,587719,0
0,-1,638777,216542,1276595,65268,7623,638341,0
0,-1,636967,218340,1160536,65881,7412,580337,0
0,-1,640082,219298,1196635,66159,7192,598413,0
0,-1,640755,219454,1394403,66194,7850,697245,0
0,-1,639792,219062,1119580,66248,7039,559832,0
0,-1,644283,220043,1414349,66741,9531,707684,0
0,-1,637615,217575,1216795,65494,6434,608436,0
0,-1,638621,218277,1162082,65690,7128,581088,0
0,-1,640186,218745,1109638,65982,7115,554807,0
0,-1,643522,219075,1160430,66108,7330,580268,0
0,-1,639201,218002,1226278,65792,7205,613147,0
0,-1,639669,218522,1210426,65972,7008,605245,0
0,-1,639985,217921,1170856,65837,6714,585484,0
0,-1,641070,218466,1242923,65858,6869,621548,0
0,-1,639133,218209,1244907,65851,7727,622570,0
0,-1,645675,220270,1190577,66617,7601,595399,0
0,-1,645649,219834,1197488,66555,8231,598584,0
0,-1,661499,222900,1300840,69106,8843,650764,0
0,-1,639367,217764,1274890,65736,8065,637439,0
0,-1,641466,218366,1217607,65960,8728,608605,0
0,-1,640545,217846,1335643,65843,8443,667985,0
0,-1,660997,222362,1352186,69114,10322,675750,0
0,-1,645477,219086,1285809,66366,9771,642407,0
0,-1,635524,218525,1232425,66103,7839,615967,0
0,-1,656509,222942,1385721,69320,8999,692835,0
0,-1,641610,219907,1344051,66602,8109,671961,0
0,-1,636756,218602,1245083,66031,7966,622440,0
0,-1,645566,220701,1246968,66903,7328,623528,0
0,-1,639087,219524,1261471,66370,8683,630559,0
0,-1,640555,219428,1155523,66352,7329,577773,0
0,-1,642125,218932,1292867,66294,8607,646391,0
0,-1,644313,219224,1228360,66375,7969,614121,0
0,-1,642619,219130,1221400,66372,8006,610683,0
0,-1,640215,218808,1344494,66199,8350,672242,0
0,-1,645025,219311,1259618,66390,8036,629607,0
0,-1,636292,218440,1220966,65921,7446,610550,0
0,-1,643715,220166,1268828,66580,8256,634469,0
0,-1,644050,219675,1430654,66417,8797,715074,0
0,-1,638734,218653,1156356,66054,7222,578191,0
0,-1,643534,219274,1356727,66277,8266,678414,0
0,-1,645428,220330,1182233,66815,7671,591068,0
0,-1,645374,219820,1249085,66472,7909,624471,0
0,-1,639175,219098,1221925,66147,8193,611035,0
0,-1,644718,220666,1271943,66923,7842,636046,0
0,-1,643949,219583,1278063,66395,8730,639028,0
0,-1,645561,220605,1220844,66905,7954,610344,0
0,-1,645288,219625,1277616,66412,8190,638674,0
0,-1,643169,219195,1173614,66247,8343,586924,0
0,-1,649876,220793,1200684,66969,8075,600339,0
0,-1,641548,219545,1265023,66343,7720,632481,0
0,-1,640859,219259,1343311,66291,7999,671357,0
0,-1,638906,219174,1139047,66127,7898,569555,0
0,-1,645956,221414,1167702,67153,7236,583584,0
0,-1,642093,218965,1175095,66052,7863,587512,0
0,-1,640413,218912,1149195,65943,7512,574645,0
0,-1,643631,219426,1265819,66156,7314,632850,0
0,-1,641661,218701,1150888,65887,8033,575512,0
0,-1,642832,219038,1253645,66063,7785,626762,0
0,-1,642258,218699,1298269,66004,8309,649084,0
0,-1,638410,218709,1232772,65947,8068,616423,0
0,-1,642834,218837,1262753,65978,7653,631414,0
0,-1,641586,220222,1153541,66713,7253,576660,0
0,-1,642482,219150,1362096,66213,8169,681027,0
0,-1,642397,218231,1207736,65783,7471,603901,0
0,-1,640707,218945,1271795,66110,8194,635909,0
0,-1,641182,218420,1309195,65904,7338,654644,0
0,-1,644373,219959,1189567,66641,7772,594590,0
0,-1,644322,219099,1273888,66161,8058,636966,0
0,-1,646903,220762,1224719,66969,7595,612296,0
0,-1,644321,219081,1281703,66157,7979,640678,0
0,-1,646510,220085,1273571,66594,8217,636854,0
0,-1,640381,220269,1203473,66720,8458,601770,0
0,-1,640832,219715,1249881,66365,7551,624828,0
0,-1,642450,219378,1165416,66188,7848,582634,0
0,-1,638603,218573,1319611,65933,8102,659601,0
0,-1,640052,218873,1403644,66098,7622,701769,0
0,-1,639234,218242,1261691,65760,8393,630790,0
0,-1,643882,220013,1142104,66305,7844,571102,0
0,-1,643692,219857,1186287,66351,7829,593169,0
0,-1,647393,220812,1187664,66897,7597,593965,0
0,-1,650035,221144,1303523,67099,8035,651565,0
0,-1,644435,219063,1279758,66088,7928,639921,0
0,-1,642549,220344,1175675,66834,7500,587806,0
0,-1,645651,221119,1158432,67241,7970,579115,0
0,-1,646551,220556,1179656,66893,7602,589903,0
0,-1,641396,218762,1278036,66127,7528,639133,0
0,-1,639872,218573,1205302,66022,7418,602609,0
0,-1,646589,220282,1243530,66890,7534,621704,0
0,-1,645617,219970,1218757,66652,8116,608894,0
0,-1,648544,221456,1157479,67205,7714,578827,0
0,-1,644143,219093,1223159,66118,7149,611683,0
0,-1,640451,218594,1282400,65905,8510,640908,0
0,-1,647742,220561,1215963,66815,7032,608098,0
0,-1,645117,218707,1275032,65982,8477,637576,0
0,-1,637636,218589,1157728,65928,7577,578913,0
0,-1,643769,219885,1186216,66557,6982,593170,0
0,-1,662917,223457,1294139,69309,7830,647127,0
0,-1,642797,220081,1268221,66603,7218,634124,0
0,-1,645208,220504,1166529,66829,7148,583300,0
0,-1,643094,218690,1127670,65909,6359,563868,0
0,-1,641050,218690,1235404,65981,7258,617747,0
0,-1,663653,223034,1276540,69106,7981,638299,0
0,-1,645747,218890,1405201,66040,9191,702653,0
0,-1,641283,218101,1127335,65845,7121,563727,0
0,-1,641810,217973,1144828,65754,7197,572535,0
0,-1,657808,222867,1272025,69132,8086,636002,0
0,-1,641940,218710,1251305,66363,7338,625718,0
0,-1,641644,217602,1139856,65847,6039,569971,0
0,-1,648229,220789,1157570,67176,7431,578852,0
0,-1,662197,222723,1289831,69343,8232,644897,0
0,-1,645161,219214,1274335,66607,7965,637278,0
0,-1,639747,218006,1229608,66008,7751,614872,0
0,-1,639902,217211,1148448,65723,7350,574279,0
0,-1,638205,217100,1216419,65622,7327,608255,0
0,-1,641569,217523,1216895,65817,7936,608484,0
0,-1,642446,217523,1221599,65823,7384,610842,0
0,-1,633190,217907,1338781,65973,7824,669714,0
0,-1,634252,218076,1145971,66008,6767,573019,0
0,-1,635471,218080,1154310,66048,6972,577199,0
0,-1,635865,217644,1137440,65828,7134,568751,0
0,-1,656258,222601,1436719,69275,9436,718414,0
0,-1,636514,217841,1115051,65963,6863,557583,0
0,-1,638648,217683,1393242,65891,9371,696417,0
0,-1,636227,217732,1112281,65905,6883,556184,0
0,-1,634954,217717,1198735,65870,6760,599407,0
0,-1,641826,219696,1221448,66705,7018,610856,0
0,-1,636529,218048,1187398,66050,6500,593743,0
0,-1,637038,217967,1238869,66006,7257,619467,0
0,-1,633698,218226,1173893,66077,7567,586866,0
0,-1,634501,217760,1095663,65884,7042,547878,0
0,-1,642920,220213,1165860,66801,6943,583035,0
0,-1,636222,218024,1165638,65918,7075,582824,0
0,-1,636812,218378,1228639,66024,7092,614349,0
0,-1,644163,220214,1275862,66855,8161,638041,0
0,-1,637221,217361,1224510,65578,6975,612324,0
1,-1,714339,241394,1323466,73906,8885,661633,0
1,-1,689477,236613,1291477,70523,8114,645745,0
1,-1,690666,235875,1191230,70271,7278,595630,0
1,-1,688777,236013,1222930,70305,7054,611419,0
1,-1,712061,241321,1417265,73793,8641,708449,0
1,-1,694298,238800,1273380,71500,7826,636557,2
1,-1,690898,236463,1192594,70492,8518,596253,0
1,-1,698962,238522,1364134,71306,9289,682045,0
1,-1,631293,217468,1221273,65388,6932,610588,0
1,-1,636880,217972,1335774,65499,7453,668004,0
1,-1,637161,218324,1200542,65509,7540,600262,0
1,-1,639364,218741,1271092,65750,7076,635607,0
1,-1,636896,218018,1152089,65381,7237,576025,0
1,-1,643265,220127,1391573,66440,8717,695245,0
1,-1,633386,217712,1225115,65309,7740,612595,0
1,-1,635847,217644,1242148,65289,6886,621062,0
1,-1,636773,217703,1184818,65277,7149,592426,0
1,-1,641350,218446,1143473,65528,8229,571696,0
1,-1,638423,218294,1237539,65450,7471,618714,0
1,-1,638292,217162,1346742,65182,7881,673459,0
1,-1,637896,217616,1332436,65377,8034,665621,0
1,-1,639432,217333,1126025,65185,7022,563049,0
1,-1,632996,218135,1290332,65527,8130,645241,0
1,-1,634424,218435,1085852,65640,5891,542970,0
1,-1,656230,222134,1261885,68628,7615,630949,0
1,-1,632645,217622,1124199,65368,6356,562130,0
1,-1,634685,217532,1366117,65344,8000,682727,0
1,-1,650742,221271,1246382,68448,7556,623132,0
1,-1,638202,219058,1173739,65891,7558,587024,0
1,-1,638440,219310,1273115,66101,7646,636611,0
1,-1,633544,216853,1186602,65081,7415,593349,0
1,-1,643715,220619,1285112,66720,8532,642468,0
1,-1,634734,217508,1193523,65396,7597,596774,0
1,-1,638402,217756,1128257,65394,6959,564055,0
1,-1,635235,218207,1195855,65590,7393,597811,0
1,-1,639219,219018,1271719,66112,7859,635779,0
1,-1,641810,219905,1394371,66479,8257,697111,0
1,-1,657040,222694,1242154,68898,8375,621110,0
1,-1,638119,218943,1179183,65732,7223,589591,0
1,-1,643839,219570,1197864,66043,8053,598849,0
1,-1,639284,218964,1316434,65937,7231,658325,0
1,-1,636923,218429,1188218,65623,7108,594083,0
1,-1,639038,218597,1308423,65604,6701,654090,0
1,-1,646927,220657,1287815,66461,7648,644014,0
1,-1,642208,218585,1410959,65648,7883,705144,0
1,-1,636678,218587,1291882,65522,8586,645995,0
1,-1,639439,219094,1234000,65710,7614,617067,0
1,-1,639727,219096,1268869,65689,7374,634276,0
1,-1,640508,220232,1269655,66381,8219,634787,0
1,-1,637222,218216,1291056,65496,8097,645527,0
1,-1,641208,219259,1168468,65905,7676,584084,0
1,-1,638125,218158,1315279,65531,9159,657412,0
1,-1,641068,219212,1281573,65853,9359,640523,0
1,-1,639823,218973,1255560,65802,9110,627818,0
1,-1,640445,218607,1321237,65800,8693,660386,0
1,-1,642559,219435,1254182,66050,8232,627025,0
1,-1,643677,220430,1371731,66703,8158,685723,0
1,-1,643234,219397,1376544,66265,8952,688489,0
1,-1,638145,218574,1313674,65809,8249,656547,0
1,-1,638527,218085,1454232,65598,8541,726903,0
1,-1,647188,221150,1273739,66854,8117,636732,0
1,-1,638895,218081,1329966,65678,8270,665012,0
1,-1,640611,218655,1243708,65841,8368,621893,0
1,-1,642882,218532,1215058,65796,7158,607615,0
1,-1,641632,219631,1237065,66159,8197,618572,0
1,-1,645434,219721,1311225,66309,8893,655500,0
1,-1,640072,218386,1403763,65693,8171,701273,0
1,-1,659093,222984,1231801,69032,9275,615968,0
1,-1,642302,219375,1294615,66204,8659,647120,0
1,-1,642322,218609,1154551,65733,7181,577264,0
1,-1,643983,218653,1149228,65826,6679,574661,0
1,-1,633724,219538,1131545,66130,6221,565810,0
1,-1,631726,218201,1209402,65734,7657,604799,0
1,-1,631765,217777,1158286,65479,7199,579195,0
1,-1,634325,218545,1217560,65704,6870,608829,0
1,-1,639216,219753,1341645,66428,7828,670880,0
1,-1,637825,218391,1169160,65785,8113,584651,0
1,-1,637965,219997,1387021,66501,8386,693713,0
1,-1,637223,219470,1287242,66312,8108,643002,0
1,-1,633130,218230,1280379,65746,7469,640240,0
1,-1,636968,218663,1189586,65797,7608,594746,0
1,-1,635171,217933,1235706,65570,7864,617654,0
1,-1,640719,218990,1391213,66149,8745,695183,0
1,-1,633721,217765,1387146,65505,7701,693103,0
1,-1,638950,219371,1471591,65973,7624,735511,0
1,-1,637690,219073,1207835,65854,6887,603987,0
1,-1,640318,219188,1128231,65940,6953,564159,0
1,-1,635083,218402,1141560,65673,7509,571009,0
1,-1,633320,218059,1114223,65539,6917,557029,0
1,-1,641404,219501,1277811,66037,6891,638980,0
1,-1,637463,218629,1186371,65676,7234,593215,0
1,-1,638789,219037,1250047,65891,7141,624999,0
1,-1,638359,218334,1158615,65664,7079,579366,0
1,-1,634336,219025,1150175,65831,7210,575124,0
1,-1,654943,222965,1184844,68941,7512,592427,0
1,-1,636118,218730,1222433,65800,7582,611241,0
1,-1,636218,218407,1246396,65683,6905,623230,0
1,-1,657304,223471,1221330,69100,7507,610575,0
1,-1,640307,220154,1318691,66517,7649,659473,0
1,-1,659049,222611,1190528,68779,8302,595275,0
1,-1,638525,219704,1241001,66296,6741,620578,0
1,-1,635266,218578,1305962,65684,7297,653030,0
1,-1,638801,218781,1209002,65704,7322,604545,0
1,-1,638460,218746,1138885,65761,6832,569484,0
1,-1,641508,220265,1269066,66558,7478,634561,0
1,-1,634853,219119,1157945,65919,7376,579033,0
1,-1,636711,218394,1183050,65685,7640,591527,0
1,-1,644073,220967,1194823,66841,7809,597404,0
1,-1,641023,220431,1284208,66630,7622,642184,0
1,-1,638804,218795,1182730,65819,6852,591407,0
1,-1,638524,218841,1224877,65780,6693,612489,0
1,-1,641293,219408,1401305,65987,8951,700649,0
1,-1,640020,219133,1370448,65946,7899,684926,0
1,-1,639602,218807,1096944,65824,6201,548523,0
1,-1,644605,220766,1229617,66773,7444,614923,0
1,-1,658417,223226,1180495,69048,7297,590232,0
1,-1,641060,218773,1229057,65751,6934,614561,0
1,-1,644864,220214,1345051,66448,7775,672571,0
1,-1,646931,220645,1276482,66692,8334,638331,0
1,-1,633646,218938,1150706,65799,6518,575398,0
1,-1,639086,219545,1157354,66038,7035,578844,0
1,-1,634002,218578,1209609,65632,6195,604896,0
1,-1,642531,220756,1280662,66703,7530,640391,0
1,-1,637270,218814,1161269,65825,6612,580671,0
1,-1,656294,222957,1184835,68967,7891,592425,0
1,-1,635522,218271,1231277,65540,6868,615730,0
1,-1,638837,218749,1441973,65727,8009,720765,0
1,-1,636268,218157,1215837,65567,7625,607946,0
1,-1,638097,219024,1179388,65881,7592,589721,0
1,-1,645528,220193,1203607,66465,8430,601854,0
1,-1,641343,220118,1344206,66408,8172,672092,0
1,-1,636529,218175,1161912,65626,8184,580972,0
1,-1,643714,220351,1274173,66530,8126,637068,0
1,-1,637752,218838,1227000,65843,7555,613544,0
1,-1,637862,218285,1356312,65614,8609,677976,0
1,-1,637170,218759,1265181,65730,7577,632311,0
1,-1,661178,223334,1239858,68996,8199,619741,0
1,-1,641643,219565,1197759,66018,7779,598903,0
1,-1,639414,218983,1305840,65927,8725,652762,0
1,-1,641037,219060,1176354,65896,6790,588141,0
1,-1,642886,219532,1181575,65948,7065,590822,0
1,-1,643986,218978,1180384,65732,7208,590211,0
1,-1,637336,218788,1135224,65776,7106,567650,0
1,-1,644826,221416,1240142,66881,7607,620221,0
1,-1,640533,220300,1241165,66330,6701,620621,0
1,-1,636089,218476,1108370,65504,6460,554226,0
1,-1,636493,218473,1246309,65493,6462,623200,0
1,-1,641610,219128,1429723,65799,8790,714912,0
1,-1,639641,218805,1269325,65601,7570,634768,0
1,-1,637948,219059,1137037,65758,6477,568547,0
1,-1,635400,217979,1145452,65288,6761,572759,0
1,-1,638135,218279,1132066,65437,7542,566133,0
1,-1,641122,218785,1242557,65642,8248,621329,0
1,-1,660152,223593,1180170,69034,7359,590021,0
1,-1,640784,218956,1337500,65737,8311,668831,0
1,-1,640480,218799,1153580,65766,7511,576822,0
1,-1,639072,219589,1167712,65930,7543,583896,0
1,-1,647718,221968,1305929,67110,7891,653077,0
1,-1,641962,219303,1187902,66000,7848,593961,0
1,-1,642986,219260,1235446,65915,7238,617767,0
1,-1,641000,219217,1436911,65912,8952,718486,0
1,-1,642085,219332,1230057,65976,6964,615110,0
1,-1,645859,219467,1266050,65911,7576,633063,0
1,-1,642852,220016,1452921,66019,8524,726501,0
1,-1,644079,219557,1233215,65790,7162,616631,0
1,-1,643168,219209,1235759,65918,7579,617951,0
1,-1,647253,220937,1274849,66485,7772,637306,0
1,-1,644430,219687,1231376,65902,7830,615731,0
1,-1,667720,224339,1210623,69126,8072,605276,0
1,-1,640436,221024,1329789,66506,7862,664914,0
1,-1,638696,219578,1173368,65812,8060,586725,0
1,-1,638284,219686,1147842,65860,7823,573980,0
1,-1,640040,220099,1272182,65977,7981,636135,0
1,-1,638084,219325,1241564,65748,7914,620827,0
1,-1,645069,220946,1312052,66654,8630,656104,0
1,-1,644603,221135,1265966,66732,8138,633035,0
1,-1,646004,221203,1387628,66733,7869,693847,0
1,-1,641607,219178,1394961,65873,7926,697212,0
1,-1,642070,219918,1163108,66004,7459,581594,0
1,-1,641653,218930,1177858,65648,7493,588998,0
1,-1,644446,219769,1253877,65924,7733,626974,0
1,-1,637931,219016,1300911,65753,7547,650493,0
1,-1,657517,223444,1179987,69028,7821,589977,0
1,-1,637900,218976,1131287,65851,6862,565683,0
1,-1,638877,218247,1204492,65466,7172,602292,0
1,-1,638825,218947,1232223,65882,7468,616223,0
1,-1,645032,220407,1342336,66502,8279,671044,0
1,-1,638483,218497,1363438,65562,9086,681778,0
1,-1,637181,217669,1139229,65323,7152,569584,0
1,-1,638181,217991,1198879,65480,7706,599400,0
1,-1,643249,219250,1231109,65943,7707,615138,0
1,-1,646565,220586,1298592,66623,8614,649077,0
1,-1,639801,219453,1384089,65881,7889,692515,0
1,-1,637023,219012,1151831,65750,8176,576204,0
1,-1,636744,218542,1221766,65510,7215,610915,0
1,-1,637745,218327,1226323,65489,6995,613250,0
1,-1,639392,219215,1214864,65799,6974,607467,0
1,-1,641811,219306,1297874,65843,7452,648978,0
1,-1,637862,218255,1212320,65513,7470,606208,0
1,-1,660110,223068,1190466,68904,7753,595281,0
1,-1,638700,218953,1097704,65808,6907,548913,0
1,-1,639719,219076,1247340,66015,7398,623780,0
1,-1,641502,220013,1227034,66377,7479,613610,0
1,-1,638690,218154,1311855,65478,7065,655966,0
1,-1,642087,218515,1224523,65586,7736,612315,0
1,-1,641897,220118,1159306,66328,7184,579708,0
1,-1,639117,218373,1145649,65574,7160,572855,0
1,-1,646281,220126,1263254,66275,7685,631725,0
1,-1,640782,218634,1157417,65584,7297,578789,0
1,-1,643650,218964,1257259,65579,7863,628642,0
1,-1,665260,223914,1198811,68952,8288,599453,0
1,-1,640902,218949,1294211,65567,9310,647077,0
1,-1,645599,221212,1280601,66472,8088,640229,0
1,-1,646819,220028,1316795,66080,8500,658415,0
1,-1,641588,218607,1216885,65420,8943,608043,0
1,-1,647506,220802,1416026,66392,8831,706425,0
1,-1,644520,218891,1357165,65512,10070,679350,0
1,-1,644884,218497,1371771,65393,8247,685286,0
1,-1,637918,218751,1205294,65558,7959,602710,0
1,-1,641665,220361,1184373,66376,8072,592143,0
1,-1,635493,217888,1263448,65298,8045,631705,0
1,-1,633690,217516,1161402,65177,7449,580777,0
1,-1,659165,222740,1222627,68720,8737,611207,0
1,-1,636546,218136,1193283,65462,7466,596650,0
1,-1,634133,217784,1177930,65195,7512,588874,0
1,-1,635410,217998,1156546,65332,7310,578306,0
1,-1,637474,217872,1184978,65380,7679,592301,0
1,-1,639570,218347,1304072,65517,8246,652076,0
1,-1,636655,217861,1166571,65355,7357,583340,0
1,-1,660936,223062,1286551,68810,8580,643325,0
1,-1,641686,218490,1340435,65545,8531,670294,0
1,-1,634803,218414,1262368,65476,8138,631142,0
1,-1,638519,218485,1256733,65534,8051,628415,0
1,-1,637740,218296,1288834,65426,8036,644379,0
1,-1,638250,217704,1171248,65247,7780,585494,0
1,-1,637947,218089,1207833,65419,8118,603877,0
1,-1,639293,218050,1173284,65401,8115,586679,0
1,-1,639928,218425,1306414,65518,8005,653306,0
1,-1,639056,218010,1162901,65384,7514,581441,0
1,-1,637097,218047,1208549,65403,7565,604158,0
1,-1,638363,218223,1384060,65395,8069,691915,0
1,-1,638459,217752,1150904,65247,7468,575417,0
1,-1,639258,218202,1259165,65452,8647,629447,0
1,-1,641389,218290,1266350,65416,8233,633127,0
1,-1,640337,218216,1245301,65391,8371,622745,0
1,-1,640422,217788,1225951,65281,8111,612836,0
1,-1,641487,220465,1225258,66406,8125,612613,0
1,-1,636432,217896,1341035,65288,7617,670540,0
1,-1,636881,217957,1199950,65336,7261,600000,0
1,-1,634980,217570,1176242,65158,7179,588142,0
1,-1,638892,218272,1305035,65463,7779,652470,0
1,-1,641412,218746,1333062,65618,8001,666538,0
1,-1,640764,218804,1264069,65635,7510,632083,0
1,-1,639106,218384,1294114,65478,8055,646947,0
1,-1,641216,218128,1219541,65435,7708,609817,0
1,-1,641074,218426,1259962,65468,8038,630013,0
1,-1,647823,220963,1210075,66695,8390,605070,0
1,-1,636178,218051,1236183,65342,7913,618032,0
1,-1,638760,218580,1212596,65566,7177,606233,0
1,-1,641016,218309,1137983,65485,7293,568943,0
1,-1,638692,217884,1169846,65310,7199,584822,0
1,-1,640484,217720,1255184,65239,7826,627616,0
1,-1,663173,222489,1284402,68621,9110,642339,0
1,-1,645577,220073,1254374,66267,7573,627182,0
1,-1,641926,218421,1197995,65440,7275,598983,0
1,-1,645581,220287,1194191,66299,7420,597055,0
1,-1,641092,217403,1329879,65176,7742,664923,0
1,-1,642993,217524,1310528,65124,6815,655218,0
1,-1,631185,218025,1247018,64852,7327,623511,0
1,-1,652759,222867,1260653,68250,8015,630365,0
1,-1,631735,218135,1251490,64950,7542,625656,0
1,-1,638238,220774,1170744,65971,7911,585373,0
1,-1,637063,219350,1200142,65521,7147,600078,0
1,-1,639650,219977,1198405,65732,7195,599164,0
1,-1,631916,218161,1171902,64913,7553,586001,0
1,-1,633836,218292,1224819,64979,7434,612450,0
1,-1,633378,218366,1238846,65015,7969,619281,0
1,-1,632604,217806,1327773,64834,7498,663359,0
1,-1,637124,220049,1190069,65958,7868,595185,0
1,-1,634859,217954,1258070,64999,7478,628938,0
1,-1,637018,218859,1189291,65473,7283,594659,0
1,-1,641838,220453,1188293,66124,7346,594205,0
1,-1,632647,218033,1259059,64948,8095,629529,0
1,-1,636364,218167,1120417,65023,7591,560051,0
1,-1,639258,220023,1172738,65841,7701,586282,0
1,-1,638290,219805,1176640,65840,7363,588239,0
1,-1,638975,219890,1244629,65823,7495,622388,0
1,-1,636336,217822,1216494,64920,7299,608244,0
1,-1,639652,219694,1175424,66667,8664,587693,0
1,-1,636583,217610,1213080,65720,7918,606433,0
1,-1,660410,222907,1257139,69256,8757,628595,0
1,-1,659686,222916,1278275,69280,8893,639004,0
1,-1,636430,217462,1258319,65698,8242,629145,0
1,-1,640446,218091,1243704,65846,8755,621918,0
1,-1,633396,218488,1253537,66031,8416,626863,0
1,-1,638697,219768,1190005,66623,9013,594810,0
1,-1,634323,217616,1247399,65723,8148,623337,0
1,-1,633961,217784,1283268,65792,8575,641659,0
1,-1,642136,220666,1325494,67085,8559,662941,0
1,-1,658556,222958,1304606,69292,8744,652257,0
1,-1,639953,218178,1118177,65895,6861,559087,0
1,-1,637029,218186,1238010,65967,7601,619001,0
1,-1,636786,218141,1270112,65901,8268,635040,0
1,-1,639682,218544,1251148,66013,8096,625443,0
1,-1,642091,219150,1243442,66460,8121,621730,0
1,-1,641803,218911,1210467,66400,7720,604844,0
1,-1,636682,218471,1146544,66109,7059,573213,0
1,-1,642929,220379,1150750,66934,7093,575336,0
1,-1,640450,218348,1307115,65972,9325,653356,0
1,-1,645029,221010,1242957,67232,8015,621407,0
1,-1,643890,220217,1269811,66802,8621,634499,0
1,-1,638823,218184,1142425,65959,6573,571278,0
1,-1,637796,218428,1216088,66024,7206,608096,0
1,-1,638514,217004,1325862,65584,7987,662969,0
1,-1,637734,217009,1238044,65466,7442,619111,0
1,-1,637924,218166,1218976,65941,7112,609538,0
1,-1,638317,217951,1149858,65795,7505,574954,0
1,-1,660554,222182,1232131,69047,8493,616062,0
1,-1,637574,216685,1205735,65494,7849,602849,0
1,-1,646773,219877,1156834,66767,7382,578510,0
1,-1,636050,218833,1249008,66153,8015,624445,0
1,-1,633206,217454,1260769,65651,8264,630490,0
1,-1,637176,218169,1234419,65899,6973,617250,0
1,-1,636305,217844,1130173,65805,6743,565152,0
1,-1,638032,219319,1159565,66501,7940,579856,0
1,-1,636528,218174,1143339,65912,7498,571694,0
1,-1,640941,220158,1160921,66921,7619,580511,0
1,-1,635733,217364,1224881,65624,7209,612484,0
1,-1,661192,222934,1191260,69244,8318,595540,0
1,-1,635572,218256,1227016,65916,7180,613546,0
1,-1,638477,218443,1139781,65945,7370,569941,0
1,-1,640497,219217,1168309,66426,7149,584181,0
1,-1,638953,219077,1345154,66187,7882,672485,0
1,-1,636922,218201,1106975,65866,6987,553525,0
1,-1,641557,219425,1125820,66402,7481,562407,0
1,-1,640672,218448,1229560,65863,7736,614797,0
1,-1,639983,218500,1346644,66072,8057,673453,0
1,-1,641807,218775,1163095,66019,6448,581621,0
1,-1,639447,218371,1165407,65965,6965,582764,0
1,-1,640139,218258,1232287,65966,7343,616250,0
1,-1,639445,217959,1218841,65677,7400,609480,0
1,-1,635784,217865,1203159,65697,8076,601679,0
1,-1,637499,218131,1267169,65742,7523,633664,0
1,-1,641908,219552,1166001,66415,6831,583083,0
1,-1,635640,218219,1143636,65739,8010,571865,0
1,-1,661489,223461,1309714,69334,8387,654869,0
1,-1,639186,218863,1256559,65994,7313,627912,0
1,-1,637987,218343,1204842,65846,7355,602391,0
1,-1,640057,218196,1192840,65738,7403,596436,0
1,-1,639578,217936,1218466,65689,7828,609275,0
1,-1,661413,222798,1299938,69088,8891,649924,0
1,-1,645327,219730,1201719,66598,7334,600918,0
1,-1,644102,218766,1221661,66151,7452,610872,0
1,-1,640077,219782,1446363,66683,9989,722651,0
1,-1,641774,219348,1167276,66349,7624,583700,0
1,-1,639136,217845,1139841,65662,7030,569958,0
1,-1,642394,218557,1216976,65875,8428,608477,0
1,-1,637783,218036,1237112,65768,8250,618652,0
1,-1,643256,219471,1183228,66509,7438,591700,0
1,-1,647370,219572,1212930,66531,7848,606274,0
1,-1,640951,218376,1188494,65955,8212,594323,0
1,-1,644576,218425,1254464,66018,9346,627164,0
1,-1,643129,218042,1256816,65879,9203,628252,0
1,-1,631580,217479,1120453,65779,7047,560210,0
1,-1,635714,218553,1226167,66015,7936,613078,0
1,-1,639993,219299,1333420,66349,8853,666641,0
1,-1,658604,223576,1276416,69518,8916,638154,0
1,-1,640898,219646,1260631,66387,7477,630339,0
1,-1,637987,218846,1151895,66118,7594,576034,0
1,-1,638702,218858,1288213,66138,7661,644152,0
1,-1,639548,218870,1314544,66257,8386,657247,0
1,-1,643387,219293,1267453,66442,8410,633724,0
1,-1,641903,219325,1157105,66356,7194,578474,0
1,-1,641435,218529,1271614,66114,7952,635758,0
1,-1,647930,220693,1190811,67101,7213,595484,0
1,-1,637849,218601,1182179,66109,8562,591144,0
1,-1,641395,219338,1256990,66250,7983,628294,0
1,-1,642855,219476,1289302,66328,8181,644659,0
1,-1,640587,219249,1233184,66297,8740,616608,0
1,-1,646944,221166,1258207,67186,7979,629108,0
1,-1,641344,219295,1223716,66250,7715,611750,0
1,-1,642392,218825,1172740,66119,8303,586402,0
1,-1,640706,219757,1259348,66450,8923,629678,0
1,-1,641124,218713,1240158,66066,8504,619995,0
1,-1,646341,221557,1175103,67308,7553,587605,0
1,-1,642392,219592,1173826,66325,7829,587028,0
1,-1,647979,221044,1262105,67100,8194,630817,0
1,-1,641729,218739,1165456,66062,7583,582655,0
1,-1,644564,219108,1271349,66260,8494,635586,0
1,-1,642320,220399,1205154,66857,7344,602628,0
1,-1,638426,218544,1241480,66015,8241,620754,0
1,-1,642115,218932,1225088,66045,7025,612528,0
1,-1,660393,223814,1288263,69494,8273,644244,0
1,-1,643826,220022,1272672,66422,8192,636421,0
1,-1,661245,224173,1317746,69477,9490,658860,0
1,-1,641073,218820,1213463,65906,7702,606479,0
1,-1,643111,218939,1253730,65909,7852,626903,0
1,-1,640447,218890,1252806,65946,7791,626319,0
1,-1,641127,218173,1252317,65718,8445,626051,0
1,-1,646840,219476,1253039,66242,8067,626491,0
1,-1,639297,219051,1228556,66119,7952,614308,0
1,-1,645772,220745,1188578,66986,7779,594398,0
1,-1,641654,218866,1132546,66089,7268,566317,0
1,-1,665668,224630,1242308,69747,8475,621188,0
1,-1,638930,218289,1131827,65852,7515,565963,0
1,-1,640708,218807,1267772,66062,7568,634059,0
1,-1,643601,219894,1259790,66412,7687,629903,0
1,-1,644617,219520,1161070,66296,7605,580547,0
1,-1,641561,218711,1174913,66025,7357,587462,0
1,-1,643263,219064,1287783,66166,8639,643878,0
1,-1,644742,218965,1192889,66077,8337,596486,0
1,-1,636482,218865,1170734,66021,7619,585401,0
1,-1,637931,218856,1172353,66092,8173,586113,0
1,-1,638543,218591,1217867,65993,7624,608922,0
1,-1,658037,222940,1290639,69210,8748,645284,0
1,-1,637409,218159,1209881,65753,7166,604973,0
1,-1,644448,219958,1181049,66593,7820,590598,0
1,-1,644638,219389,1258264,66285,8628,629136,0
1,-1,643735,220372,1206872,66472,7658,603489,0
1,-1,647567,220553,1281622,66599,8393,640957,0
1,-1,639878,218622,1244269,66000,7369,622309,0
1,-1,646484,219968,1229821,66394,7869,614899,0
1,-1,645772,219079,1366958,66277,8805,683512,0
1,-1,640385,219019,1161966,66222,6629,581070,0
1,-1,643795,219819,1220773,66464,7430,610374,0
1,-1,643421,219084,1232183,66248,7670,616177,0
1,-1,644123,220614,1202262,67019,7959,601064,0
1,-1,663101,223184,1334052,69309,8578,667140,0
1,-1,642157,219000,1301427,66217,8275,650838,0
1,-1,641081,219113,1166695,66220,8365,583311,0
1,-1,642859,218890,1215278,66047,7544,607682,0
1,-1,668705,224348,1371357,69627,9266,685740,0
1,-1,645365,219059,1149182,66072,7509,574637,0
1,-1,668654,223840,1402521,69453,9316,701314,0
1,-1,637761,218760,1235150,65945,7668,617555,0
1,-1,637896,217985,1269011,65636,7946,634300,0
1,-1,639132,217946,1217212,65688,7178,608642,0
1,-1,641456,219167,1367409,66145,8043,683796,0
1,-1,661119,223022,1272282,69183,7895,636214,0
1,-1,640676,218293,1174322,65793,6825,587142,0
1,-1,646620,221171,1233204,67103,7603,616704,0
1,-1,640917,218411,1241955,65824,7687,620990,0
1,-1,644569,218779,1149742,65942,7285,574963,0
1,-1,641698,218810,1110485,65997,7057,555316,0
1,-1,640518,218003,1164769,65750,7190,582443,0
1,-1,642313,217405,1415782,65601,9494,707917,0
1,-1,640873,218502,1304925,66011,8426,652512,0
1,-1,642061,218136,1254874,66019,6718,627492,0
1,-1,638999,217753,1096611,65920,6955,548387,0
1,-1,640428,217982,1262237,65974,7728,631217,0
1,-1,641334,217624,1218687,65849,7754,609399,0
1,-1,638310,217787,1358474,65916,9374,679072,0
1,-1,638636,217480,1307161,65745,7381,653626,0
1,-1,645399,218590,1223544,66229,7877,611842,0
1,-1,639655,217011,1138453,65680,7418,569273,0
1,-1,640668,217222,1164961,65719,6830,582571,0
1,-1,654252,221159,1257212,67392,7429,628754,0
1,-1,633185,217827,1105385,65965,6768,552741,0
1,-1,633139,217622,1130108,65823,6718,565110,0
1,-1,635329,218027,1138204,65976,6613,569135,0
1,-1,632090,217803,1206971,65922,7092,603528,0
1,-1,632145,217122,1147936,65686,7087,574017,0
1,-1,636551,217529,1132912,65879,6892,566484,0
1,-1,655934,222986,1185068,69439,7876,592477,0
1,-1,634727,217971,1138997,66011,6773,569556,0
1,-1,638998,218371,1245485,66141,7439,622782,0
1,-1,636320,217567,1139340,65824,6627,569739,0
1,-1,634197,217317,1135740,65756,6998,567918,0
1,-1,658474,222031,1296295,69144,7689,648178,0
1,-1,632549,217400,1137866,65789,6820,568841,0
1,-1,635114,217554,1174296,65710,6771,587212,0
1,-1,655951,222142,1183586,69075,8104,591858,0
1,-1,638989,219668,1247470,66702,7204,623852,0
1,-1,635983,217558,1457658,65722,8763,728857,0
1,-1,641499,219605,1232171,66556,6657,616168,0
2,-1,691327,236153,1336675,70395,8491,668324,0
2,-1,690743,237234,1220766,70768,7431,610369,0
2,-1,691075,236701,1289694,70559,8078,644858,0
2,-1,695758,238857,1307803,71563,7805,653871,0
2,-1,686473,236067,1331619,70322,7899,665834,0
2,-1,688076,235869,1184252,70258,7410,592137,0
2,-1,691076,236311,1308686,70415,8548,654301,0
2,-1,689685,236288,1229703,70457,7865,614876,2
2,-1,635630,218051,1353547,65604,7260,676848,0
2,-1,635447,218149,1140876,65624,6874,570428,0
2,-1,655192,221984,1274251,68582,8218,637117,0
2,-1,639019,218939,1250945,65922,7242,625441,0
2,-1,636039,218161,1184544,65581,7612,592331,0
2,-1,658373,222522,1235527,68691,8337,617504,0
2,-1,639321,218381,1202505,65535,8164,601210,0
2,-1,638387,218545,1389125,65609,8701,694604,0
2,-1,642024,220133,1268538,66326,7860,634307,0
2,-1,644135,220055,1303914,66226,9074,651918,0
2,-1,638455,218650,1295408,65600,8085,647686,0
2,-1,647074,221138,1290704,66785,8635,645362,0
2,-1,640044,218079,1272286,65486,8364,636225,0
2,-1,640695,218226,1217907,65584,8156,609033,0
2,-1,632094,218333,1188820,65668,7192,593684,0
2,-1,631287,217820,1087746,65436,6299,543890,0
2,-1,635567,218111,1227648,65527,7347,613908,0
2,-1,632218,217946,1251313,65513,6532,625805,0
2,-1,637635,219082,1249566,66085,6802,624995,0
2,-1,640884,218854,1285171,65949,8062,642372,0
2,-1,635604,218371,1210504,65708,7254,605311,0
2,-1,636477,217786,1233748,65490,7704,616874,0
2,-1,658891,222687,1256109,68873,8072,628029,0
2,-1,655578,222070,1253572,68680,8715,626728,0
2,-1,641384,219934,1344530,66336,8347,672318,0
2,-1,644179,220322,1210799,66575,8609,605256,0
2,-1,634527,218006,1255514,65566,7853,627636,0
2,-1,635535,218079,1290558,65631,7774,645257,0
2,-1,657165,222301,1267041,68781,8388,633546,0
2,-1,634698,217416,1202910,65347,8600,601485,0
2,-1,636726,217608,1220916,65407,8373,610399,0
2,-1,644437,219993,1328494,66457,8679,664263,0
2,-1,640834,220121,1293521,66492,7801,646807,0
2,-1,645582,220516,1266047,66626,7901,633055,0
2,-1,639595,218419,1291977,65505,7745,646118,0
2,-1,640564,218599,1213393,65619,7189,606681,0
2,-1,639971,218116,1177983,65449,7803,588939,0
2,-1,645082,219147,1228868,65756,8775,614486,0
2,-1,636347,218368,1347341,65462,7536,673656,0
2,-1,640521,219707,1308138,66090,7840,654080,0
2,-1,639091,218063,1200725,65488,8193,600307,0
2,-1,643871,220906,1344214,66739,8646,672015,0
2,-1,641115,219420,1151766,65940,8044,575838,0
2,-1,639784,219071,1379212,65697,9112,689541,0
2,-1,642599,219794,1415688,66236,9239,707885,0
2,-1,637196,218697,1261019,65704,7969,630545,0
2,-1,639552,218621,1285178,65759,9232,642746,0
2,-1,642844,220266,1274481,66609,7872,637215,0
2,-1,661560,223569,1390591,69233,8499,695030,0
2,-1,641582,218823,1163853,65908,6861,581831,0
2,-1,637816,218709,1245565,65818,7783,622577,0
2,-1,637953,218212,1515191,65710,8661,757430,0
2,-1,666035,227699,1412461,68483,8874,706436,0
2,-1,642003,219554,1313415,66341,8179,657001,0
2,-1,640447,219012,1274873,65956,7572,637048,0
2,-1,663501,223172,1420753,69113,8565,710420,0
2,-1,637994,218582,1228611,65822,8692,614220,0
2,-1,639705,218336,1277972,65688,8610,638933,0
2,-1,644241,220036,1315008,66558,9358,657723,0
2,-1,644478,219526,1225490,66148,8131,612798,0
2,-1,641481,218617,1266613,65805,8721,633206,0
2,-1,646754,220294,1252113,66661,7662,626200,0
2,-1,642930,219189,1226327,66222,7766,613234,0
2,-1,635119,220128,1215418,66511,6517,607845,0
2,-1,632969,217990,1228714,65594,6560,614430,0
2,-1,658342,226793,1240445,68187,6860,620359,0
2,-1,633788,218377,1146731,65757,7118,573412,0
2,-1,632408,217805,1253513,65512,7393,626889,0
2,-1,638521,219096,1246755,66007,8057,623340,0
2,-1,653638,222547,1423673,68923,8499,711686,0
2,-1,637147,218712,1165060,65869,7869,582609,0
2,-1,635684,219066,1252710,65942,8414,625755,0
2,-1,640922,220128,1315665,66593,8427,657926,0
2,-1,637098,218631,1196751,65786,7702,598336,0
2,-1,636164,217565,1287946,65464,8376,643797,0
2,-1,636821,219286,1388001,66060,7719,694475,0
2,-1,667418,229103,1323861,69144,8672,661917,0
2,-1,635991,218896,1143348,65821,6531,571738,0
2,-1,637330,218841,1307000,65841,7110,653483,0
2,-1,636545,218688,1272418,65730,6956,636276,0
2,-1,639654,219245,1178557,66233,8496,589296,0
2,-1,636479,217725,1235495,65353,6885,617813,0
2,-1,659559,222981,1280499,68964,7960,640244,0
2,-1,643417,220043,1273097,66406,7555,636493,0
2,-1,637391,218362,1221987,65610,7154,611042,0
2,-1,637029,220537,1254420,66620,7670,627325,0
2,-1,634591,218659,1237579,65697,7401,618896,0
2,-1,637294,218860,1244428,65749,7436,622295,0
2,-1,635408,218227,1277505,65570,6448,638911,0
2,-1,635215,218434,1344720,65642,7022,672453,0
2,-1,637370,219416,1334303,65989,7849,667216,0
2,-1,640969,219974,1265963,66380,7798,633007,0
2,-1,635013,218572,1135211,65736,6492,567859,0
2,-1,639084,218880,1348826,65784,7359,674501,0
2,-1,642023,219834,1259390,66101,7639,629740,0
2,-1,637344,218776,1221639,65800,7084,610898,0
2,-1,640293,218931,1366425,65795,7256,683211,0
2,-1,635310,217481,1132280,65307,6980,566225,0
2,-1,642122,220615,1253486,66658,7697,626773,0
2,-1,637426,218862,1145225,65822,7040,572686,0
2,-1,642281,219891,1233262,66346,7514,616722,0
2,-1,635986,218324,1242207,65605,6849,621171,0
2,-1,639350,218885,1233951,65864,7347,617026,0
2,-1,638201,218415,1172397,65665,6890,586252,0
2,-1,636132,218026,1267262,65529,7510,633514,0
2,-1,637402,218097,1186804,65549,6924,593478,0
2,-1,635782,217519,1135716,65436,6957,567895,0
2,-1,638212,218464,1215969,65703,7363,608027,0
2,-1,637828,218166,1128645,65577,6680,564368,0
2,-1,639102,218415,1247106,65711,7285,623633,0
2,-1,639945,218631,1216477,65751,7320,608295,0
2,-1,635376,218702,1105142,65789,6700,552642,0
2,-1,639229,219762,1237620,66231,7112,618870,0
2,-1,637469,220194,1288044,66528,7699,643892,0
2,-1,636695,218842,1208879,65765,6772,604479,0
2,-1,635562,218662,1132483,65752,6259,566266,0
2,-1,633885,218230,1161740,65580,7204,580917,0
2,-1,643994,221452,1267565,67030,6961,633891,0
2,-1,638054,218816,1154519,65822,6589,577308,0
2,-1,634511,218436,1246079,65637,7700,622779,0
2,-1,641098,219292,1241261,65997,7216,620579,0
2,-1,639867,218404,1176814,65627,7685,588441,0
2,-1,636285,218674,1240314,65775,7666,620127,0
2,-1,640643,219940,1228946,66171,7409,614447,0
2,-1,660229,223543,1230261,69136,8800,615036,0
2,-1,639577,219760,1267085,66311,8265,633586,0
2,-1,660380,223233,1330149,69057,9213,665042,0
2,-1,656506,222973,1221445,68986,7933,610687,0
2,-1,640023,219037,1361124,65870,8983,680385,0
2,-1,643245,220174,1347068,66442,7665,673020,0
2,-1,640706,219650,1208318,66270,7628,604175,0
2,-1,643724,220628,1219949,66685,7539,609941,0
2,-1,662280,223648,1257427,69131,7724,628714,0
2,-1,643751,219272,1217609,65938,7574,608805,0
2,-1,635677,218455,1239954,65621,7276,619993,0
2,-1,658400,223154,1215040,68996,7956,607541,0
2,-1,637752,219021,1092927,65743,6665,546498,0
2,-1,640937,219444,1131013,65861,6822,565547,0
2,-1,642862,220586,1247228,66508,7352,623742,0
2,-1,643856,220352,1280029,66376,8020,640100,0
2,-1,643042,220553,1236256,66487,7817,618171,0
2,-1,634038,217918,1215712,65271,7171,607888,0
2,-1,637678,218780,1204645,65673,6944,602361,0
2,-1,643286,220265,1237558,66313,7799,618800,0
2,-1,635205,216965,1156473,65040,6812,578306,0
2,-1,641656,219729,1232209,65980,7144,616195,0
2,-1,639129,218702,1262314,65524,7113,631242,0
2,-1,667374,225181,1201007,70054,8377,600393,0
2,-1,647713,220340,1259849,66521,8152,629999,0
2,-1,640964,219879,1340547,66125,7949,670310,0
2,-1,643854,220252,1124643,66239,6969,562359,0
2,-1,645303,220517,1187867,66318,7334,594002,0
2,-1,663824,224460,1195857,69334,7420,597929,0
2,-1,642393,218976,1262711,65909,7278,631449,0
2,-1,649842,221423,1270259,66886,7982,635197,0
2,-1,643208,220286,1273818,66227,7650,637039,0
2,-1,642670,219530,1133169,65789,6504,566635,0
2,-1,645346,219821,1144553,65931,6662,572314,0
2,-1,645218,219871,1168624,66036,7474,584314,0
2,-1,642883,219480,1248991,65787,7758,624548,0
2,-1,645454,219701,1191484,65846,7161,595902,0
2,-1,636915,220114,1228609,66034,7030,614333,0
2,-1,660801,224250,1189378,69149,8249,594741,0
2,-1,638883,219799,1258176,65916,7989,629073,0
2,-1,640576,219711,1255724,65859,7559,627935,0
2,-1,642196,221521,1305367,66755,7473,652748,0
2,-1,640888,219292,1245595,65885,8008,622776,0
2,-1,639086,220333,1206131,66372,8784,603062,0
2,-1,641854,219905,1190950,66137,7572,595542,0
2,-1,638280,218691,1261948,65658,7395,631028,0
2,-1,639699,219049,1265564,65678,7756,632858,0
2,-1,643510,220245,1360622,66101,7506,680364,0
2,-1,642941,219089,1172536,65764,7642,586339,0
2,-1,637242,218457,1305598,65585,7358,652843,0
2,-1,639437,218850,1246597,65698,7581,623324,0
2,-1,641768,219461,1170075,65936,7888,585071,0
2,-1,639948,219084,1319449,65829,7402,659771,0
2,-1,640926,219454,1164502,65910,6870,582198,0
2,-1,662211,223622,1250350,69040,7890,624760,0
2,-1,638354,218593,1209500,65666,8464,604543,0
2,-1,641475,219400,1196039,65982,7072,598072,0
2,-1,642450,218740,1208873,65827,7670,604343,0
2,-1,640417,218513,1188595,65704,8436,593960,0
2,-1,661820,223367,1233165,69064,8958,616633,0
2,-1,642638,218587,1301014,65628,8705,650559,0
2,-1,635225,218308,1266130,65478,8994,633060,0
2,-1,637518,219223,1147578,65814,6766,573806,0
2,-1,658265,222830,1180775,68725,7376,590402,0
2,-1,636611,218395,1134020,65463,6560,567101,0
2,-1,664902,227491,1255181,68196,7469,627631,0
2,-1,639315,218266,1134914,65570,7084,567494,0
2,-1,639555,218117,1236803,65515,7714,618551,0
2,-1,633100,217206,1185031,65196,7538,592551,0
2,-1,638012,217806,1141656,65400,7513,570863,0
2,-1,642936,218953,1167129,65823,7769,583593,0
2,-1,637038,217891,1198062,65437,6884,599109,0
2,-1,641225,218153,1153685,65472,7366,576869,0
2,-1,638101,219154,1119383,65825,7076,559742,0
2,-1,638251,218074,1214186,65377,7328,607198,0
2,-1,663013,223325,1323603,68927,8273,661841,0
2,-1,639332,218264,1295125,65430,7434,647692,0
2,-1,643096,219330,1252490,66007,8137,626405,0
2,-1,642142,218557,1247406,65445,7384,623776,0
2,-1,644670,220776,1343418,66339,8545,671642,0
2,-1,640681,218476,1197917,65401,8825,599057,0
2,-1,643765,219225,1267681,65623,9258,633580,0
2,-1,664316,224386,1371600,69047,9061,685529,0
2,-1,672270,225366,1308012,69836,9931,653874,0
2,-1,647577,220406,1316146,66254,8598,658167,0
2,-1,646640,219316,1365075,65675,8501,682728,0
2,-1,641060,220684,1277302,66460,8542,638503,0
2,-1,659162,223704,1164566,68949,8214,582263,0
2,-1,636804,218319,1259692,65435,8327,629914,0
2,-1,638899,218884,1361562,65647,7833,680738,0
2,-1,641665,220037,1231648,66227,7169,615807,0
2,-1,640364,218082,1258716,65361,8018,629194,0
2,-1,658062,222977,1164031,68768,8326,582061,0
2,-1,639112,218172,1265701,65440,8580,632733,0
2,-1,637698,218136,1272693,65381,7699,636373,0
2,-1,641994,219776,1306918,66140,7369,653272,0
2,-1,636408,217977,1305687,65351,8374,652888,0
2,-1,640361,218997,1250445,65700,7629,625227,0
2,-1,645211,220389,1256232,66323,7784,628302,0
2,-1,641278,218134,1229239,65383,8540,614578,0
2,-1,640922,219725,1248885,66123,7581,624356,0
2,-1,641076,220127,1240702,66291,7419,620327,0
2,-1,639074,218567,1240749,65524,7703,620482,0
2,-1,640781,219319,1296862,66009,8324,648231,0
2,-1,636597,217509,1242304,65179,7832,621155,0
2,-1,638332,218011,1230785,65343,7135,615210,0
2,-1,639702,218100,1345875,65359,8249,672840,0
2,-1,638796,218085,1172058,65420,7813,585975,0
2,-1,643234,220529,1309463,66476,7980,654736,0
2,-1,646953,220479,1162477,66347,8711,581214,0
2,-1,642151,219478,1217787,65983,8111,609007,0
2,-1,642049,219205,1205187,66051,8301,602524,0
2,-1,645291,220523,1334568,66386,8463,667205,0
2,-1,641269,218342,1184807,65484,8165,592324,0
2,-1,644307,218131,1269665,65363,7313,634674,0
2,-1,637257,218655,1168055,65583,8037,584009,0
2,-1,642129,219886,1199933,66164,7288,599945,0
2,-1,638223,218034,1267568,65343,7723,633876,0
2,-1,643084,219380,1213340,66008,7670,606737,0
2,-1,638700,217774,1214479,65241,7665,607317,0
2,-1,639032,218447,1219430,65461,7290,609664,0
2,-1,640926,218103,1280095,65379,7892,640061,0
2,-1,639862,217578,1286443,65147,8263,643357,0
2,-1,639382,218106,1193269,65377,8065,596590,0
2,-1,661038,222750,1278948,68711,9067,639448,0
2,-1,642964,218301,1248770,65485,8235,624292,0
2,-1,637521,217737,1255250,65248,7833,627644,0
2,-1,645075,220639,1178465,66496,7783,589206,0
2,-1,639117,217762,1252439,65249,7886,626084,0
2,-1,640647,217815,1165649,65277,7676,582760,0
2,-1,642849,218417,1256355,65519,8415,628257,0
2,-1,642032,219552,1177771,66060,7072,588914,0
2,-1,664219,223319,1305078,68806,8559,652458,0
2,-1,660781,222531,1272309,68561,7679,636074,0
2,-1,641373,217959,1162535,65240,6860,581216,0
2,-1,665898,223081,1279658,68752,7737,639833,0
2,-1,634867,219904,1189939,65669,6831,594791,0
2,-1,629867,217613,1148208,64665,7011,574075,0
2,-1,634129,218245,1243001,64980,7397,621579,0
2,-1,633107,218190,1174047,64915,7384,587096,0
2,-1,632180,217857,1241924,64733,7439,621004,0
2,-1,655884,222863,1401932,68256,8176,700786,0
2,-1,635825,219991,1233564,65727,7920,616659,0
2,-1,633542,217999,1229785,64791,7441,614749,0
2,-1,631763,218156,1180571,64892,7699,590279,0
2,-1,636691,218640,1248678,65118,7682,624324,0
2,-1,656592,222961,1302296,68414,8735,651050,0
2,-1,638880,219424,1280990,65540,7845,640376,0
2,-1,634681,218210,1236503,65128,7410,618129,0
2,-1,655791,222650,1263171,68354,8189,631686,0
2,-1,631694,217702,1260724,64858,7873,630334,0
2,-1,634036,217993,1196064,65051,8317,598127,0
2,-1,633711,218001,1225586,65048,7605,612737,0
2,-1,632808,218285,1232792,65146,7499,616099,0
2,-1,635878,218153,1143957,65085,6964,571999,0
2,-1,636973,218299,1230037,65042,7247,615010,0
2,-1,654752,222799,1263001,68375,8513,631482,0
2,-1,637144,218132,1139616,65932,8304,569675,0
2,-1,638902,218068,1251184,65905,7740,625599,0
2,-1,637628,218052,1228124,65888,8434,614088,0
2,-1,640109,219432,1192133,66541,7964,596084,0
2,-1,639199,217971,1167647,65875,8408,583858,0
2,-1,637248,217691,1190718,65726,8371,595100,0
2,-1,635609,217809,1231391,65722,8322,615780,0
2,-1,634444,218013,1186297,65880,8611,593127,0
2,-1,638057,217795,1253598,65781,8902,626627,0
2,-1,655553,222031,1281315,68932,9178,640802,0
2,-1,636977,218400,1208878,65975,7847,604419,0
2,-1,642180,219489,1156891,66583,7045,578426,0
2,-1,638167,218619,1162085,66063,7898,580840,0
2,-1,636926,218635,1193188,66031,8025,596841,0
2,-1,660501,223238,1274093,69378,9291,637031,0
2,-1,657871,222250,1472726,69105,9126,736360,0
2,-1,639938,218671,1335120,66387,8259,667664,0
2,-1,639997,217691,1184867,65816,7963,592292,0
2,-1,657570,222491,1237840,69156,8037,618948,0
2,-1,640312,219327,1154497,66507,8008,577061,0
2,-1,659514,223197,1338457,69323,9318,669006,0
2,-1,638766,218105,1312499,65943,8367,656060,0
2,-1,638639,217996,1241364,65832,7575,620753,0
2,-1,635748,217699,1291596,65673,6669,645925,0
2,-1,641988,218923,1390062,66189,9140,694595,0
2,-1,643694,219834,1175592,66756,7586,587873,0
2,-1,641023,217977,1277316,65871,7976,638710,0
2,-1,642782,218835,1152873,66092,6657,576480,0
2,-1,642989,218729,1181517,66108,7523,590797,0
2,-1,640252,218114,1229200,65869,7706,614632,0
2,-1,663023,222834,1334328,69196,8035,667281,0
2,-1,636357,219115,1139350,66372,7485,569746,0
2,-1,637383,218079,1227222,65907,8278,613706,0
2,-1,637104,218505,1226089,66059,7516,613075,0
2,-1,637584,218021,1212284,65835,7681,606222,0
2,-1,638261,217703,1388568,65680,8711,694270,0
2,-1,639945,218781,1148727,66330,7048,574353,0
2,-1,640482,218944,1135958,66173,7825,568027,0
2,-1,638484,218283,1149432,65902,6718,574609,0
2,-1,635717,216742,1142180,65489,7018,571139,0
2,-1,641397,218374,1221140,66005,6866,610547,0
2,-1,641569,219590,1138018,66493,7187,569078,0
2,-1,637699,218093,1129118,65885,7017,564611,0
2,-1,642419,220177,1259686,66897,7712,629905,0
2,-1,639224,218392,1184178,65924,7366,592120,0
2,-1,637425,218154,1202011,65782,7665,601013,0
2,-1,644684,220483,1183631,66807,7187,591837,0
2,-1,637571,218054,1246315,65908,7332,623218,0
2,-1,639812,218402,1245615,65863,7186,622892,0
2,-1,636525,217906,1115009,65801,7127,557603,0
2,-1,639976,217984,1336702,65779,8531,667869,0
2,-1,662235,222639,1236268,69083,7932,618186,0
2,-1,641003,220267,1174580,66771,8056,587359,0
2,-1,639542,219439,1241434,66386,7381,620765,0
2,-1,637883,218398,1221055,65840,7002,610577,0
2,-1,647132,221402,1122347,67132,7196,561237,0
2,-1,639912,218673,1192218,65928,7188,596255,0
2,-1,640759,219925,1191740,66595,7604,595966,0
2,-1,637008,217995,1245759,65688,7815,622924,0
2,-1,642255,219215,1271831,66310,6722,635973,0
2,-1,645110,220142,1131206,66688,7153,565683,0
2,-1,641741,219086,1171750,66066,7307,585915,0
2,-1,637080,216959,1141544,65414,6868,570781,0
2,-1,660468,222065,1572743,69007,10183,786463,0
2,-1,640435,217168,1201231,65470,7827,600653,0
2,-1,637729,218028,1245456,65782,7696,622791,0
2,-1,644167,220112,1171278,66730,7931,585716,0
2,-1,642172,217842,1496736,65672,9074,748246,0
2,-1,664971,222980,1461609,69139,9977,731166,0
2,-1,639569,218324,1258076,65958,8473,629048,0
2,-1,640980,217951,1318493,65796,8450,659235,0
2,-1,640566,217760,1247525,65683,8546,623952,0
2,-1,642312,217878,1411339,65752,9947,705727,0
2,-1,644506,219054,1336610,66097,9385,668034,0
2,-1,642736,216768,1228170,65567,7516,614019,0
2,-1,635617,218198,1250435,65800,7446,625182,0
2,-1,641633,219862,1209540,66450,8706,604605,0
2,-1,637431,219371,1160503,66374,7003,580206,0
2,-1,640401,219083,1257523,66163,8072,628821,0
2,-1,642830,219023,1289736,66173,8049,644892,0
2,-1,640843,219873,1336825,66504,7698,668432,0
2,-1,643249,219896,1207305,66567,8739,603644,0
2,-1,639327,218155,1251132,66113,8155,625498,0
2,-1,659055,223135,1268153,69445,9795,634018,0
2,-1,664987,223981,1332999,69723,8759,666388,0
2,-1,642875,218941,1255706,66300,7825,627742,0
2,-1,638965,219341,1170412,66409,8451,585122,0
2,-1,660154,223479,1440195,69462,9255,720128,0
2,-1,643913,220257,1263380,66814,9006,631617,0
2,-1,639745,219252,1242694,66174,8068,621433,0
2,-1,663579,223915,1382339,69601,9699,691148,0
2,-1,639948,218873,1143495,66196,7725,571818,0
2,-1,665482,224450,1229848,69760,9209,614947,0
2,-1,645159,219378,1230360,66322,8378,615201,0
2,-1,645573,221064,1224968,67147,8518,612373,0
2,-1,663274,224321,1313535,69752,9662,656872,0
2,-1,641081,219419,1268866,66344,8624,634479,0
2,-1,643287,219782,1263115,66506,7889,631511,0
2,-1,643807,219950,1147370,66709,7663,573726,0
2,-1,665876,223855,1210707,69568,9385,605251,0
2,-1,656941,222576,1293632,69110,8542,646688,0
2,-1,639319,219173,1320279,66223,7984,660159,0
2,-1,646537,221058,1193050,67024,7359,596528,0
2,-1,642323,219570,1136680,66265,7984,568404,0
2,-1,641024,219030,1182817,65993,7866,591366,0
2,-1,645630,219274,1248125,66071,8128,624099,0
2,-1,691683,233474,1355742,72238,9430,677846,0
2,-1,665597,224440,1330959,69558,8984,665518,0
2,-1,641626,219204,1295036,66069,7886,647513,0
2,-1,646229,220535,1188005,66862,8479,593843,0
2,-1,643445,218490,1253648,65831,8471,626883,0
2,-1,639391,218818,1237091,65971,7644,618526,0
2,-1,661452,223309,1302573,69303,8581,651457,0
2,-1,639970,218654,1286108,65973,8022,643023,0
2,-1,641722,219410,1177074,66262,7569,588412,0
2,-1,646153,220712,1221296,66948,8059,610694,0
2,-1,640475,218430,1253859,65898,7812,627034,0
2,-1,665195,227192,1209139,68500,7679,604594,0
2,-1,641726,218492,1253001,65920,8360,626462,0
2,-1,649851,220418,1158500,66772,8154,579221,0
2,-1,642913,218778,1124214,66073,7481,562097,0
2,-1,644698,219070,1276065,66108,7730,637974,0
2,-1,644928,218901,1190674,66090,7433,595243,0
2,-1,639512,218934,1208190,66114,8673,604108,0
2,-1,636753,218306,1220850,65800,7348,610565,0
2,-1,637803,219011,1169763,66087,8039,584799,0
2,-1,638487,218245,1325623,65835,8123,662815,0
2,-1,641585,219174,1296574,66144,8046,648315,0
2,-1,646912,220663,1296957,66913,8931,648284,0
2,-1,644957,220029,1203958,66443,8316,601946,0
2,-1,647416,220190,1254439,66491,7924,627216,0
2,-1,641064,218991,1221690,66103,7236,610902,0
2,-1,640868,218484,1142031,65801,7287,571016,0
2,-1,648423,220408,1200827,66879,8246,600333,0
2,-1,641200,219560,1221922,66326,7273,610938,0
2,-1,640623,219037,1171516,66222,7445,585764,0
2,-1,641271,218620,1224718,66042,8047,612405,0
2,-1,645901,219755,1176651,66456,7501,588282,0
2,-1,645913,219980,1204225,66529,6678,601910,0
2,-1,642548,218985,1265561,66148,8459,633075,0
2,-1,664116,223611,1362156,69461,9110,680852,0
2,-1,642266,218992,1153472,66028,7068,576779,0
2,-1,644769,219059,1156617,66028,7718,578244,0
2,-1,643102,218192,1210558,65738,7432,605404,0
2,-1,646460,219285,1357122,66186,9665,678424,0
2,-1,640403,218632,1190151,65946,6867,595145,0
2,-1,643810,220696,1440143,67007,9893,719362,0
2,-1,642857,218911,1140297,65981,7019,570194,0
2,-1,638877,218503,1128742,65907,6690,564393,0
2,-1,639847,218151,1233456,65702,7036,616817,0
2,-1,646742,220212,1206730,66671,7016,603359,0
2,-1,659526,222870,1510211,69139,9168,755023,0
2,-1,642417,218798,1187766,65984,7580,593939,0
2,-1,641498,218149,1144602,65733,7670,572356,0
2,-1,646133,220419,1199982,66706,8124,600024,0
2,-1,641735,218165,1121385,65755,7254,560728,0
2,-1,643068,218021,1361600,65869,9910,680616,0
2,-1,637262,217650,1142164,65750,7000,571122,0
2,-1,663496,223517,1267726,69553,7486,633900,0
2,-1,637965,217381,1150018,65730,7215,575096,0
2,-1,641659,217959,1162866,65963,7100,581491,0
2,-1,642999,218337,1256375,66127,7603,628282,0
2,-1,645330,218720,1147035,66246,7320,573536,0
2,-1,641373,218432,1223822,66125,7740,611948,0
2,-1,643937,217995,1169190,66006,7916,584726,0
2,-1,647177,220159,1506288,67008,9453,753105,0
2,-1,662099,222217,1307183,69205,8267,653662,0
2,-1,666526,222714,1267997,69340,8078,633983,0
2,-1,629686,217000,1134442,65589,6406,567272,0
2,-1,656618,223207,1178461,69504,8150,589229,0
2,-1,633218,217560,1281030,65849,8486,640562,0
2,-1,636318,217725,1144179,65929,7164,572125,0
2,-1,637230,218315,1217387,66108,7251,608775,0
2,-1,636093,217626,1284877,65858,7222,642490,0
2,-1,636265,218844,1173771,66409,6805,586927,0
2,-1,638932,219601,1208900,66721,6692,604505,0
2,-1,635379,217752,1241615,65940,6505,620859,0
2,-1,640658,219853,1233194,66878,7538,616615,0
2,-1,644742,220438,1277221,67062,7356,638697,0
2,-1,638699,218184,1149828,66098,6515,574967,0
2,-1,635216,218102,1104896,66044,7532,552556,0
2,-1,635253,217871,1129240,65821,6412,564664,0
2,-1,633220,217282,1102328,65705,6912,551204,0
2,-1,639741,218019,1136110,65935,6865,568080,0
2,-1,639677,219052,1244139,66441,7157,622129,0
2,-1,639283,218608,1218043,66070,6544,609032,0
3,-1,693930,238232,1284564,71268,8598,642203,0
3,-1,685457,235779,1206275,70215,7053,603184,0
3,-1,690441,236682,1183534,70591,7258,591799,0
3,-1,712799,241420,1338137,73902,8345,669020,0
3,-1,691207,236504,1322960,70557,7732,661567,0
3,-1,692124,236735,1234712,70601,8110,617327,0
3,-1,688769,235769,1244451,70235,8233,622228,0
3,-1,639196,217719,1182787,65469,7662,591322,0
3,-1,632539,217310,1271599,65297,7418,635772,0
3,-1,634345,217728,1231451,65383,7583,615800,0
3,-1,635102,217288,1210395,65290,7647,605266,0
3,-1,636223,218497,1131803,65607,7349,565910,0
3,-1,636393,217914,1227846,65357,7519,613833,0
3,-1,636411,218242,1285155,65473,7728,642412,2
3,-1,641477,219596,1284977,66148,8306,642883,0
3,-1,660005,223070,1252408,68880,8245,626146,0
3,-1,641862,219510,1248898,66109,7665,624510,0
3,-1,636920,217793,1328737,65330,8573,664383,0
3,-1,643467,220983,1278861,66625,8353,639145,0
3,-1,659822,222842,1311341,68772,8887,655678,0
3,-1,636425,217227,1209418,65213,8181,604664,0
3,-1,645149,220370,1280739,66575,8403,640169,0
3,-1,634715,219901,1262558,66348,7275,630996,0
3,-1,634722,218094,1143014,65480,7279,571567,0
3,-1,637296,219255,1189807,66138,7326,594937,0
3,-1,633172,218265,1153078,65575,6840,576623,0
3,-1,632569,217752,1235147,65405,6298,617633,0
3,-1,637422,218067,1292348,65538,7811,646187,0
3,-1,633871,219101,1267566,65913,7569,633751,2
3,-1,633518,217858,1191435,65414,7517,595646,0
3,-1,636014,217921,1181725,65462,7310,590782,0
3,-1,635026,218215,1242965,65634,7558,621565,2
3,-1,636198,217762,1175957,65503,7562,587959,0
3,-1,637346,217908,1291129,65466,7734,645724,0
3,-1,635025,218184,1182373,65562,7500,591023,2
3,-1,634907,217452,1300203,65322,7815,650118,0
3,-1,636431,217845,1125195,65501,7223,562392,0
3,-1,638893,218362,1211909,65642,7712,605926,2
3,-1,634014,217699,1177463,65458,7565,588735,0
3,-1,635363,217793,1263038,65486,7569,631599,0
3,-1,635690,217922,1180819,65573,6930,590325,0
3,-1,637198,217808,1308113,65561,7885,654024,0
3,-1,638850,218649,1269805,65794,7128,634850,0
3,-1,639637,218118,1183879,65510,7477,591938,0
3,-1,641320,219455,1185650,66076,7400,592707,0
3,-1,639138,218882,1221384,65827,7207,610607,2
3,-1,659669,222820,1235340,68886,8446,617639,0
3,-1,638594,218604,1154946,65633,7540,577437,0
3,-1,635507,218274,1235623,65552,7632,617786,2
3,-1,638923,218363,1353378,65531,7666,676558,0
3,-1,637456,218063,1287675,65418,7642,643839,0
3,-1,643608,218652,1261763,65551,9150,630920,0
3,-1,644007,220646,1350649,66425,8485,675381,0
3,-1,636902,219089,1270416,65756,7676,634865,2
3,-1,663530,227790,1283081,68249,7654,641424,0
3,-1,658499,223084,1241768,68824,8106,620784,0
3,-1,635356,218029,1334503,65425,7597,667340,0
3,-1,636462,217896,1177682,65393,7721,588901,0
3,-1,636473,218552,1259916,65687,7839,629863,2
3,-1,641859,219822,1378208,66336,8443,687913,0
3,-1,640225,218875,1244269,65743,8909,621878,0
3,-1,636257,218540,1422490,65678,8406,711343,0
3,-1,636127,218520,1213271,65660,7542,606443,2
3,-1,638989,218418,1234910,65725,9708,617418,0
3,-1,658261,222606,1229429,68884,8458,614676,0
3,-1,642342,218783,1334942,65890,7646,667467,0
3,-1,639944,218562,1300417,65844,8244,650126,0
3,-1,634136,218237,1265127,65754,7496,632711,2
3,-1,635604,218120,1360981,65628,8695,680532,0
3,-1,637628,218149,1301741,65635,8059,651077,0
3,-1,637723,218481,1282648,65792,7872,641298,0
3,-1,638416,217623,1304169,65425,8487,652130,0
3,-1,643743,220190,1218211,66633,8449,608872,0
3,-1,640421,218694,1234497,65815,7657,617462,0
3,-1,647275,221026,1392257,66896,7715,696331,2
3,-1,637376,218257,1233066,65687,8377,616586,0
3,-1,637568,217332,1340200,65482,8643,670063,0
3,-1,639127,219098,1204089,66018,8024,601921,2
3,-1,659760,222702,1254675,68991,9478,627031,0
3,-1,639128,217953,1166529,65609,8358,583301,0
3,-1,642783,219129,1353504,65937,8592,676803,0
3,-1,639484,217818,1241465,65537,7668,620766,0
3,-1,643170,218884,1158733,65920,7489,579411,0
3,-1,640942,218514,1256626,65742,6962,628367,2
3,-1,636004,218314,1130923,65713,6215,565510,0
3,-1,638341,220444,1255784,66688,7241,628041,0
3,-1,639513,220831,1333304,66822,7718,666732,0
3,-1,657752,222790,1212918,68992,8197,606470,0
3,-1,635515,220287,1244725,66731,7558,622425,2
3,-1,635580,218137,1155445,65629,7104,577774,0
3,-1,637800,219371,1328085,66314,8958,663772,0
3,-1,633436,218445,1384436,65775,8284,692253,0
3,-1,636430,218555,1309375,65770,8053,654573,0
3,-1,637554,219042,1155491,65980,7786,577791,2
3,-1,657652,222764,1188783,68976,8230,594417,0
3,-1,653959,221989,1256047,68669,8141,628109,0
3,-1,640205,220154,1286917,66534,8144,643275,0
3,-1,639070,218974,1205666,65944,7153,602881,0
3,-1,635633,218587,1305057,65801,8496,652395,0
3,-1,638500,220511,1279950,66693,8265,639598,0
3,-1,637550,219520,1261452,66225,7626,630787,0
3,-1,658301,223203,1171631,69069,7278,585813,0
3,-1,633442,218829,1289697,65852,8303,644724,2
3,-1,655704,223373,1234894,69088,9005,617243,0
3,-1,636409,218484,1190587,65648,7993,595344,0
3,-1,637172,218837,1301541,65769,7207,650808,0
3,-1,635926,218467,1268659,65603,7229,634338,0
3,-1,638636,218596,1151125,65677,7024,575637,0
3,-1,640163,218650,1230403,65776,7574,615267,0
3,-1,639511,218170,1261634,65502,7767,630857,0
3,-1,637397,219800,1276843,66327,7232,638507,0
3,-1,633872,219056,1161680,65910,7487,580891,2
3,-1,638142,219928,1260801,66343,7874,630413,0
3,-1,669396,230648,1289362,69760,7230,644762,0
3,-1,635900,219265,1217316,65957,6761,608711,0
3,-1,635543,219224,1296116,65960,6480,648084,2
3,-1,635441,218304,1137664,65636,7040,568883,0
3,-1,637776,218189,1242903,65506,7023,621491,0
3,-1,634766,218460,1235853,65661,6764,617943,0
3,-1,658128,223200,1182270,69039,7365,591113,0
3,-1,637358,218580,1215402,65739,6996,607770,0
3,-1,635796,219088,1214228,65925,7072,607225,2
3,-1,636421,218787,1248236,65748,7224,624139,0
3,-1,641208,219736,1272800,66305,7405,636484,0
3,-1,639770,219399,1238949,66032,7140,619537,2
3,-1,640246,218789,1235782,65762,7046,617931,0
3,-1,657610,223496,1162095,69119,8079,581007,0
3,-1,636303,218453,1161825,65649,7197,580958,0
3,-1,638385,218349,1238270,65610,6621,619190,0
3,-1,663839,227840,1239274,68502,6958,619703,2
3,-1,638005,218723,1297444,65746,7025,648776,0
3,-1,637028,218288,1141876,65588,6859,570992,0
3,-1,643720,220218,1238622,66415,6825,619434,0
3,-1,641249,220051,1281023,66409,8262,640405,0
3,-1,639856,219852,1343908,66365,8185,672420,0
3,-1,639827,219339,1153823,65878,7410,576953,0
3,-1,643029,219871,1264233,66344,7317,632175,0
3,-1,639890,219321,1293774,65965,6433,646947,0
3,-1,638372,218191,1222227,65513,7102,611216,0
3,-1,640714,218537,1227373,65693,7582,613736,0
3,-1,632479,219074,1135160,65875,6151,567621,2
3,-1,634835,218849,1157693,65770,7452,578905,0
3,-1,639239,220734,1256837,66774,6818,628457,2
3,-1,635312,218549,1131983,65689,5954,566051,0
3,-1,657262,223224,1176058,69043,7688,587892,0
3,-1,641226,220150,1243481,66444,7135,621818,0
3,-1,637412,218955,1273184,65902,7177,636707,0
3,-1,638093,218313,1155668,65606,6461,577869,0
3,-1,637209,218524,1148705,65720,7285,574390,0
3,-1,635688,218094,1129990,65604,6506,565043,0
3,-1,644522,220609,1375897,66658,8760,688012,0
3,-1,635799,218566,1132827,65712,6805,566257,2
3,-1,642268,220269,1332346,66559,8221,665940,0
3,-1,640023,218951,1257375,65871,7571,628834,0
3,-1,641569,220186,1281676,66555,8030,640760,2
3,-1,635376,218264,1123683,65589,7388,561978,0
3,-1,636083,218676,1223930,65757,7113,612150,2
3,-1,636368,218517,1226647,65673,7797,613403,0
3,-1,639335,218769,1309773,65812,8423,654969,0
3,-1,661942,228135,1278926,68616,7602,639389,2
3,-1,635049,218296,1292591,65618,7878,646161,0
3,-1,638409,218937,1269181,65837,7849,634134,0
3,-1,638407,218996,1304761,65899,8259,652303,2
3,-1,637013,219233,1316104,65956,8003,657876,0
3,-1,638041,218463,1227744,65741,7486,613783,0
3,-1,636627,218236,1356175,65554,7734,678230,0
3,-1,640435,218221,1138293,65560,7628,569208,0
3,-1,661388,223471,1143564,69079,7961,571774,0
3,-1,645075,219693,1238885,66279,7379,619448,0
3,-1,639194,219141,1197643,65972,6602,598844,2
3,-1,641148,218775,1149865,65780,6925,574980,0
3,-1,637786,220008,1369314,66483,8041,684681,0
3,-1,636207,219335,1186022,65974,7224,593035,2
3,-1,637208,218851,1223330,65844,6691,611717,0
3,-1,637222,219440,1363336,65873,7408,681018,0
3,-1,639860,219024,1117383,65681,6889,558742,0
3,-1,659824,223656,1195450,69020,7901,597886,0
3,-1,638301,218376,1257444,65466,7365,628719,0
3,-1,639863,219587,1143550,65907,6265,571829,2
3,-1,659828,223531,1173400,68987,7393,586669,0
3,-1,642717,219362,1424092,65841,8555,712068,0
3,-1,638553,220380,1279233,66462,7497,639726,2
3,-1,643225,220598,1248547,66414,7447,624339,0
3,-1,638244,218840,1141433,65612,7075,570767,0
3,-1,644517,220867,1195433,66556,7922,597832,0
3,-1,636929,218313,1148611,65451,6472,574346,0
3,-1,641236,218719,1481597,65653,9258,740845,0
3,-1,642287,219004,1138774,65669,6315,569411,0
3,-1,642432,218588,1218249,65684,6757,609154,0
3,-1,643544,219561,1271263,66080,7915,635670,2
3,-1,642359,220283,1247133,66435,7669,623635,0
3,-1,644669,220462,1106540,66312,7061,553304,0
3,-1,643131,219590,1305858,66033,7162,652962,0
3,-1,639648,219241,1307537,65909,7290,653801,0
3,-1,641212,218935,1256857,65829,7708,628416,0
3,-1,645446,219641,1247996,66051,7005,624049,0
3,-1,639235,218966,1228952,65740,7538,614408,0
3,-1,644400,220118,1257527,66037,7535,628829,0
3,-1,643039,219805,1122062,65890,6836,560916,2
3,-1,646682,220627,1257661,66130,7536,628860,0
3,-1,647974,221414,1352689,66725,8067,676643,0
3,-1,650317,221420,1281398,66754,7830,640622,0
3,-1,646238,219614,1248554,65899,7680,624345,0
3,-1,645040,220422,1226476,66092,6865,613294,0
3,-1,639940,220365,1272250,66116,7684,636101,0
3,-1,641590,221622,1193052,66886,8355,596584,2
3,-1,642498,220465,1186298,66347,8164,593204,0
3,-1,644103,221584,1237767,66720,7799,618950,0
3,-1,641195,220065,1252718,66030,8230,626427,2
3,-1,643435,219955,1364506,65979,8338,682299,0
3,-1,639285,219279,1267623,65794,7800,633858,0
3,-1,642384,219577,1180478,65952,7608,590293,0
3,-1,639818,219197,1284421,65823,7888,642273,0
3,-1,638974,218575,1285546,65648,8565,642809,0
3,-1,639981,219413,1142208,65894,6867,571198,0
3,-1,641551,219165,1237595,65706,8361,618860,0
3,-1,642338,219037,1250817,65722,7877,625413,0
3,-1,636354,219514,1257942,65979,7529,628989,2
3,-1,635396,218595,1195720,65637,7397,597886,0
3,-1,638330,218785,1214583,65735,6926,607341,0
3,-1,639629,219009,1246675,65764,7452,623399,0
3,-1,638293,218774,1159754,65723,6951,579923,0
3,-1,662297,227469,1306821,68211,7846,653467,2
3,-1,637737,218119,1227730,65389,7549,613907,0
3,-1,638833,218429,1149107,65530,6826,574609,0
3,-1,641720,219297,1145526,65874,6814,572754,2
3,-1,642289,218448,1258610,65589,8285,629298,0
3,-1,637938,218487,1205498,65526,8147,602796,0
3,-1,643803,219800,1296534,66386,8835,648231,0
3,-1,637131,218244,1313614,65630,7969,656757,2
3,-1,640479,218498,1342118,65630,8657,670812,0
3,-1,640896,218656,1345035,65717,8423,672466,0
3,-1,639900,218620,1191671,65740,7949,595786,2
3,-1,639680,217994,1267283,65402,7858,633651,0
3,-1,638903,220236,1291425,66421,8322,645780,0
3,-1,638827,220005,1200082,66249,7952,599835,0
3,-1,639470,219007,1133671,65706,6905,566920,0
3,-1,640269,220074,1291077,66298,7579,645657,0
3,-1,637170,218274,1140968,65469,7164,570543,0
3,-1,643309,220869,1272151,66709,7443,636148,2
3,-1,637680,218005,1247461,65441,7306,623762,0
3,-1,637602,217430,1258321,65264,6751,629195,0
3,-1,634491,217770,1172514,65378,7140,586325,0
3,-1,641772,219708,1197459,66320,7497,598810,0
3,-1,638689,217799,1300071,65409,7884,650069,0
3,-1,638318,217999,1163686,65540,7436,581879,2
3,-1,638819,218189,1249137,65533,7152,624653,0
3,-1,644505,219169,1143343,65792,7774,571756,0
3,-1,638172,218473,1210385,65645,7469,605277,2
3,-1,647552,220663,1238601,66645,7432,619405,0
3,-1,660483,223542,1150118,69026,7669,575037,0
3,-1,639901,218806,1234678,65651,7308,617350,0
3,-1,643165,220470,1252866,66466,7251,626484,2
3,-1,636682,218076,1150532,65360,6939,575323,0
3,-1,640507,218817,1149384,65634,7218,574771,0
3,-1,640714,218314,1332438,65341,7244,666380,0
3,-1,643171,218078,1234812,65240,8276,617463,0
3,-1,646740,221254,1275311,66570,8771,637695,0
3,-1,640697,218870,1370206,65525,9650,685146,2
3,-1,642938,218856,1350402,65441,9420,675272,0
3,-1,640854,219134,1511877,65598,9217,755394,0
3,-1,642055,219434,1212546,65685,8913,606072,2
3,-1,642888,218953,1277614,65469,9139,638995,0
3,-1,644151,219361,1228946,65723,9104,614384,0
3,-1,667252,223885,1194646,69001,8835,596810,0
3,-1,652172,222094,1284402,66978,8677,641922,2
3,-1,639633,220212,1279684,66190,8527,639661,0
3,-1,636276,219153,1204552,65692,8216,602262,2
3,-1,637182,218603,1167774,65503,7731,583885,0
3,-1,638619,218391,1230745,65441,8016,615519,0
3,-1,634942,218324,1186936,65487,7877,593609,2
3,-1,636074,217910,1174335,65317,7258,587050,0
3,-1,637504,218196,1177036,65423,7966,588527,0
3,-1,637097,218510,1279964,65534,8231,639980,2
3,-1,639155,218122,1163089,65435,7770,581524,0
3,-1,636698,218495,1180020,65550,8027,589927,0
3,-1,638247,218877,1179437,65674,7898,589621,2
3,-1,642035,219836,1213014,66193,7947,606506,0
3,-1,658313,222925,1236700,68783,8253,618180,0
3,-1,635661,217652,1258265,65227,7300,629137,0
3,-1,662073,222734,1241814,68702,8983,620733,0
3,-1,636257,217579,1136663,65152,7275,568329,0
3,-1,636557,217946,1272591,65319,8384,636356,0
3,-1,639062,218408,1264118,65539,8492,632020,2
3,-1,640402,218157,1147496,65441,8326,573671,0
3,-1,637832,218438,1146405,65534,7420,573158,0
3,-1,660430,223883,1247107,69079,8499,623641,0
3,-1,640676,219704,1250157,66140,7199,625143,0
3,-1,635485,217623,1247185,65164,7929,623675,0
3,-1,659525,222980,1203564,68761,8301,601706,0
3,-1,641141,218995,1394192,65664,8114,697085,0
3,-1,646550,220976,1202822,66672,8630,601357,0
3,-1,638276,218244,1283592,65413,7718,641831,0
3,-1,660019,222617,1250782,68703,8575,625370,0
3,-1,641144,218702,1169348,65621,8522,584701,0
3,-1,636972,217709,1318347,65260,8477,659163,0
3,-1,659495,222681,1279744,68693,9084,639910,0
3,-1,643764,218780,1305523,65638,8037,652870,0
3,-1,640327,217657,1345998,65211,8343,673021,0
3,-1,642865,218176,1327171,65433,8446,663613,0
3,-1,636317,218226,1162790,65452,7639,581301,0
3,-1,638322,218214,1224901,65436,7648,612314,0
3,-1,638162,218916,1190663,65635,7426,595378,2
3,-1,640785,218595,1187930,65572,8024,593991,0
3,-1,641420,220183,1213796,66379,7737,606883,2
3,-1,637823,217857,1362282,65297,7402,681093,0
3,-1,646119,220958,1180007,66678,7537,589866,0
3,-1,637949,218160,1302870,65379,7878,651467,0
3,-1,645772,220608,1192652,66437,8156,596341,0
3,-1,641703,218478,1170278,65538,7663,585133,0
3,-1,638849,218503,1169042,65565,7203,584536,2
3,-1,645001,219939,1212421,66232,8337,606215,0
3,-1,639919,218418,1276672,65517,8327,638220,0
3,-1,641353,217983,1147141,65348,7585,573543,0
3,-1,642227,219730,1216244,66143,7319,608104,0
3,-1,643996,220559,1204138,66495,7840,601907,2
3,-1,638766,217885,1252003,65298,7356,625915,0
3,-1,637093,218367,1280851,65522,7658,640403,2
3,-1,661608,223447,1428346,68895,8623,714125,0
3,-1,640315,218106,1269043,65424,7698,634593,0
3,-1,640465,217877,1369021,65297,7825,684568,0
3,-1,639726,218466,1225435,65533,7278,612685,0
3,-1,638194,218268,1187851,65367,7312,593892,2
3,-1,640272,218211,1377398,65389,7988,688708,0
3,-1,647354,219364,1335289,65732,7979,667758,0
3,-1,645909,219864,1195827,66106,7197,597857,0
3,-1,647401,221166,1196533,66679,7350,598314,2
3,-1,641180,217888,1231758,65221,6879,615827,0
3,-1,628777,218016,1239405,64846,7081,619808,0
3,-1,629858,218019,1267734,64931,8105,633888,0
3,-1,632654,218746,1177715,65156,7663,588868,2
3,-1,637992,220017,1288599,65730,7577,644185,0
3,-1,632962,218500,1262748,65011,7752,631376,0
3,-1,631213,217810,1121207,64848,7312,560570,0
3,-1,634569,218484,1328161,65043,7441,664019,0
3,-1,637152,218104,1257101,64869,7633,628508,0
3,-1,630138,218454,1244081,65065,7727,621972,2
3,-1,632769,218078,1170027,64963,8052,585003,0
3,-1,636357,218876,1245066,65197,7628,622573,0
3,-1,637663,220138,1182655,65869,8044,591280,2
3,-1,636773,219031,1257876,65209,7580,628988,0
3,-1,635919,218152,1134907,64997,7061,567452,0
3,-1,633545,218119,1151409,64994,7226,575688,0
3,-1,632679,217588,1233206,64894,7493,616622,0
3,-1,636479,218044,1262312,65071,7564,631130,0
3,-1,634548,217617,1170426,64906,7871,585208,2
3,-1,630478,217704,1316927,64855,8036,658161,0
3,-1,637690,219840,1191302,65781,7704,595488,0
3,-1,639956,220663,1177783,66177,7605,588858,0
3,-1,641916,220475,1212185,66117,8029,606079,0
3,-1,631398,217645,1280208,64901,8224,640196,2
3,-1,633739,217308,1319934,64695,8377,660046,0
3,-1,641014,220758,1160432,66188,7267,580045,2
3,-1,638457,218693,1205606,65243,7178,602864,0
3,-1,633303,218433,1280836,65191,7632,640468,0
3,-1,640111,219373,1168577,66361,8407,584243,2
3,-1,638960,218031,1209106,65915,8739,604507,0
3,-1,640310,219142,1251064,66243,8581,625536,0
3,-1,638157,217848,1191343,65731,8120,595705,0
3,-1,639028,218036,1300092,65901,8632,649961,0
3,-1,639668,218624,1233372,66107,8199,616692,2
3,-1,640124,218586,1252299,66007,8431,625885,0
3,-1,644430,219188,1289620,66186,8816,644887,0
3,-1,638185,219704,1198963,66717,8706,599603,0
3,-1,632629,217417,1282140,65651,7783,640886,0
3,-1,638725,218985,1351979,66180,8758,675852,0
3,-1,636046,218092,1250450,65960,7542,625267,0
3,-1,638143,218127,1261289,65924,8155,630610,0
3,-1,635756,218555,1275874,66067,7798,637912,2
3,-1,636712,217666,1244380,65729,8110,622205,0
3,-1,635597,218000,1151814,65873,6693,575925,0
3,-1,637107,218965,1113235,66259,7435,556608,2
3,-1,636876,217799,1308062,65781,8268,653929,0
3,-1,639284,218746,1432853,66123,8094,716529,0
3,-1,634706,217636,1305970,65699,8249,652953,2
3,-1,637366,218116,1320777,65946,8445,660374,0
3,-1,659417,222592,1340699,69205,9344,670299,0
3,-1,639996,218069,1140910,65876,8012,570540,0
3,-1,635962,217925,1217022,65882,7492,608525,0
3,-1,638711,218420,1265199,65931,8367,632428,0
3,-1,637343,218106,1271976,65870,8255,635719,0
3,-1,635136,217142,1258733,65523,7696,629036,0
3,-1,659142,222730,1345379,69243,9791,672664,0
3,-1,662739,222938,1283411,69309,8296,641702,0
3,-1,641248,219184,1204053,66435,7148,602102,0
3,-1,636491,218156,1275570,65952,7564,637866,2
3,-1,637607,217604,1223396,65707,7210,611783,0
3,-1,643493,218964,1239679,66384,7480,619925,0
3,-1,645226,220925,1193111,67163,7098,596697,2
3,-1,638226,217558,1357853,65667,8139,678972,0
3,-1,641302,218164,1149696,65888,7370,574886,0
3,-1,640050,217895,1167899,65799,7591,583983,0
3,-1,642173,219067,1254768,66241,7595,627372,2
3,-1,640395,217815,1144248,65764,7379,572175,0
3,-1,631310,217436,1184340,65681,7461,592274,0
3,-1,655487,222985,1272066,69305,8509,636058,0
3,-1,633512,217632,1199534,65747,7879,599872,2
3,-1,636162,218280,1201287,65963,7810,600465,0
3,-1,636287,218598,1254043,66021,7219,627078,0
3,-1,636191,218120,1221344,65881,7381,610720,2
3,-1,643255,219988,1216545,66805,7479,608353,0
3,-1,639466,220142,1147359,66822,7269,573693,2
3,-1,636699,218147,1164526,65867,7336,582308,0
3,-1,658044,222560,1262002,69154,8679,630947,0
3,-1,636773,218009,1245111,65849,6989,622608,0
3,-1,638266,218856,1126497,66138,7423,563293,2
3,-1,640950,218420,1122433,65872,6884,561265,0
3,-1,640161,217595,1205867,65693,7223,602962,0
3,-1,636220,218565,1212718,66075,7687,606403,2
3,-1,634995,217496,1201316,65663,6454,600718,0
3,-1,643990,220724,1198938,66987,7830,599548,0
3,-1,659789,222193,1280756,68960,7806,640354,0
3,-1,643041,220071,1168567,66700,7067,584330,0
3,-1,636609,217767,1265279,65617,7747,632666,0
3,-1,639446,218209,1304861,65749,8209,652394,0
3,-1,636163,218011,1128860,65850,7382,564446,0
3,-1,636813,217142,1214310,65440,6416,607248,0
3,-1,639280,218767,1152680,65995,7287,576404,2
3,-1,639627,217842,1337412,65757,8187,668647,0
3,-1,641040,218142,1112570,65860,6854,556258,0
3,-1,639585,217768,1180075,65807,7040,590083,0
3,-1,641694,218389,1294273,65901,7308,647170,2
3,-1,644280,218351,1226301,65884,7173,613189,0
3,-1,635665,218237,1442241,65773,8906,721172,0
3,-1,635261,217730,1161947,65562,6815,581024,0
3,-1,636720,217865,1261988,65578,6482,631023,0
3,-1,639057,219218,1168915,66172,7825,584560,2
3,-1,638347,218322,1124978,65784,7277,562558,0
3,-1,642974,219300,1198483,66359,8087,599309,0
3,-1,660639,222839,1275129,69078,8143,637494,0
3,-1,640932,219002,1438805,66081,8457,719445,0
3,-1,659934,222515,1187825,68986,7678,593897,0
3,-1,636952,218341,1191016,65887,8492,595277,2
3,-1,639836,218672,1201115,65931,7554,600620,0
3,-1,641272,218841,1205832,66140,7245,602912,0
3,-1,640076,218291,1370746,66000,8982,684796,0
3,-1,642374,218341,1237862,65842,7253,618991,0
3,-1,636011,217487,1155147,65575,7120,577662,0
3,-1,639919,217973,1147268,65725,7615,573689,0
3,-1,643076,218817,1439373,66038,8478,719742,0
3,-1,638928,218423,1278824,65950,8697,639502,2
3,-1,644026,218741,1314119,65908,8770,657064,0
3,-1,641516,218186,1256668,65904,8240,628216,0
3,-1,664388,222873,1338826,69218,9610,669508,0
3,-1,660749,222368,1295656,69060,9332,647691,0
3,-1,646267,219548,1320627,66588,8183,660446,0
3,-1,642653,218572,1376184,66101,8921,688047,2
3,-1,640573,217633,1316149,65606,8943,658114,0
3,-1,644097,218129,1185545,65969,7788,592775,0
3,-1,634076,218943,1208434,66292,7273,604253,2
3,-1,637417,219494,1159062,66598,7794,579654,0
3,-1,637594,218605,1312559,66052,8380,656309,0
3,-1,640327,218965,1290342,66282,8563,645298,0
3,-1,640420,218640,1230323,66006,7977,615169,0
3,-1,664498,223800,1313965,69572,9055,657011,0
3,-1,643175,220886,1190323,67013,7889,595316,0
3,-1,671489,230657,1232415,70005,7814,616156,0
3,-1,641477,219040,1153366,66310,7592,576724,0
3,-1,645371,219919,1178024,66668,8260,588981,0
3,-1,640713,219447,1305747,66498,7708,652884,2
3,-1,642745,220051,1191950,66793,7340,596052,0
3,-1,641956,219093,1232915,66335,7103,616393,0
3,-1,641603,219540,1390147,66447,8538,694771,0
3,-1,644578,220556,1258595,66909,8524,629245,0
3,-1,641466,219125,1219746,66193,8273,609908,0
3,-1,666497,224139,1495014,69659,9682,747550,0
3,-1,641080,219173,1274438,66171,8838,637330,0
3,-1,643652,219401,1335204,66346,8484,667568,0
3,-1,645442,219807,1147395,66488,7768,573727,0
3,-1,643172,218707,1185668,66076,7780,592831,0
3,-1,640096,219152,1176530,66260,8334,588236,0
3,-1,642742,219122,1253178,66204,8211,626581,0
3,-1,643968,220228,1189016,66794,8067,594408,0
3,-1,643456,219535,1158938,66440,7868,579345,2
3,-1,642779,219143,1289958,66229,8464,644943,0
3,-1,646127,219266,1161534,66306,8090,580799,0
3,-1,645621,219926,1126154,66486,7820,563101,0
3,-1,636139,219060,1258491,66187,7870,629194,0
3,-1,642604,221121,1177936,67179,8340,588880,2
3,-1,661657,223894,1288332,69574,8967,644184,0
3,-1,660525,223296,1331401,69237,8515,665769,0
3,-1,639349,219083,1313193,66150,7568,656481,0
3,-1,641853,219726,1190170,66277,7993,595212,2
3,-1,643526,219569,1114446,66261,7056,557448,0
3,-1,645316,219645,1262128,66224,8278,630993,0
3,-1,640423,219152,1240470,66074,7436,620073,0
3,-1,642073,219302,1253040,66052,8066,626545,0
3,-1,644251,220453,1220661,66673,8064,610103,0
3,-1,662582,223225,1341447,69248,9486,670810,0
3,-1,648374,220462,1197082,66751,8217,598594,0
3,-1,642495,218782,1263569,66035,8092,631833,2
3,-1,639570,219160,1239537,66136,7758,619717,0
3,-1,641886,219324,1159670,66192,7842,579730,0
3,-1,637941,218443,1243633,65956,7162,621815,0
3,-1,642698,218886,1245814,66054,8358,622955,0
3,-1,643841,219103,1273903,66112,8111,636985,0
3,-1,644649,220185,1188292,66725,7220,594185,0
3,-1,644107,219078,1263777,66119,8071,631848,0
3,-1,641531,218768,1257041,66031,8401,628574,0
3,-1,645524,219246,1218449,66214,8612,609160,0
3,-1,641159,218125,1255492,65794,7111,627744,0
3,-1,647596,220851,1219667,67021,8190,609532,0
3,-1,643423,219114,1256587,66178,8277,628211,2
3,-1,643776,218834,1293813,66074,7638,647166,0
3,-1,657739,222956,1284714,69204,9466,642251,0
3,-1,644574,220661,1231956,66927,7604,615940,0
3,-1,643887,220002,1189926,66658,8259,595075,0
3,-1,643278,220267,1196588,66715,7998,598100,0
3,-1,643224,220916,1187530,67032,8048,593701,2
3,-1,640056,218819,1240863,66023,7565,620450,0
3,-1,642729,219374,1163362,66217,8043,581685,0
3,-1,639332,219283,1235262,66117,7920,617707,2
3,-1,661728,223956,1218293,69447,9125,609090,0
3,-1,667245,225384,1285859,69983,8775,642804,0
3,-1,645854,219455,1268273,66222,8151,634109,0
3,-1,642618,219350,1293747,66202,7716,646842,0
3,-1,642715,218881,1160512,66096,6991,580152,0
3,-1,639707,219866,1302230,66513,7437,651061,2
3,-1,640372,219082,1215466,66195,7315,607690,0
3,-1,636404,217348,1166778,65665,7485,583423,0
3,-1,638248,218428,1255177,65976,8439,627418,0
3,-1,644363,220526,1188463,66982,7756,594195,2
3,-1,644900,219886,1171720,66687,7097,585929,0
3,-1,641859,219040,1251664,66121,7816,625634,0
3,-1,646976,219815,1235579,66414,7406,617806,0
3,-1,643474,219141,1238127,66232,7277,619763,0
3,-1,644164,219084,1292836,66165,8147,646353,2
3,-1,642452,218928,1180494,66006,8132,590255,0
3,-1,663959,223897,1312201,69446,8181,656193,0
3,-1,643621,219156,1317199,66060,8066,658626,0
3,-1,644411,218942,1208706,66075,7006,604388,0
3,-1,647520,220591,1204701,66857,7584,602452,2
3,-1,645607,218792,1256741,65954,8270,628416,0
3,-1,661397,223842,1290598,69431,8648,645273,0
3,-1,637123,217921,1164512,65727,7383,582263,2
3,-1,639306,218152,1225545,65685,7108,612850,0
3,-1,642780,218189,1176632,65773,7856,588283,0
3,-1,638292,218875,1339664,66045,8479,669878,2
3,-1,641293,219042,1216423,66055,7185,608255,0
3,-1,641874,218837,1158259,66033,6828,579174,0
3,-1,643458,218829,1218290,66012,7083,609176,0
3,-1,641722,218540,1161815,65836,6822,580948,0
3,-1,639636,218797,1243795,66029,8128,621931,2
3,-1,641213,218501,1124703,65859,7144,562397,0
3,-1,648704,221123,1251624,67048,7278,625873,2
3,-1,640670,218602,1285413,65992,7673,642731,0
3,-1,641894,218360,1118458,65829,7922,559155,0
3,-1,638691,218037,1141863,65784,6799,571016,2
3,-1,644107,218823,1212750,66074,7907,606447,0
3,-1,643733,220523,1214898,66962,7381,607468,0
3,-1,638426,218521,1247311,66074,7222,623687,2
3,-1,642149,218128,1253507,65968,6992,626850,0
3,-1,636267,217184,1151785,65680,6691,575925,2
3,-1,639597,218333,1110316,66074,7014,555089,0
3,-1,635845,216738,1117437,65524,7279,558777,0
3,-1,641093,217690,1160571,65874,7289,580334,0
3,-1,640770,217405,1252107,65797,6989,626110,0
3,-1,642470,220105,1228897,67082,8117,614511,2
3,-1,639849,218184,1147871,66028,7334,573970,0
3,-1,640430,218041,1108021,66047,7638,554059,2
3,-1,647585,220382,1296304,67046,8091,648224,0
3,-1,666430,223645,1292510,70186,8617,646245,0
3,-1,647880,220088,1244572,66870,8186,622368,0
3,-1,641259,216731,1241475,65514,7678,620796,0
3,-1,643547,218063,1136378,66043,6738,568221,2
3,-1,631783,218043,1210505,66028,6567,605325,0
3,-1,632216,217643,1102512,65880,6997,551279,0
3,-1,633665,217650,1239825,65894,9386,619516,0
3,-1,639109,218772,1243483,66448,7203,621795,0
3,-1,639332,220148,1230365,66998,7771,615314,2
3,-1,635438,217992,1181962,65959,7275,591043,0
3,-1,659353,223187,1245989,69493,7961,623055,0
3,-1,633199,217841,1225356,65925,6909,612758,0
3,-1,638750,218334,1241630,66121,7866,620856,0
3,-1,636621,218313,1172598,66053,6768,586333,0
3,-1,633771,218046,1187052,66067,6710,593618,2
3,-1,655192,222232,1240588,69208,7683,620387,0
3,-1,636602,217971,1129363,65999,6928,564722,0
3,-1,635599,217629,1227445,65932,6505,613787,2
3,-1,637360,217782,1237177,65942,7194,618669,0
3,-1,639243,220037,1166326,66872,7902,583261,0
3,-1,636468,218139,1260326,65982,8483,630185,0
3,-1,636005,218183,1125744,65957,7284,562880,0
3,-1,638730,218697,1346873,66147,7285,673426,0
3,-1,638633,218681,1221139,66063,6919,610744,0
3,-1,635670,218086,1239811,65917,7296,619995,2
3,-1,636343,217811,1122256,65759,6336,561161,0
