0,0,315,642946.000000,219858.511111,1244695.561905,66302.536508,7681.644444,621914.146032,11525.311229,3501.731774,72121.172257,1361.794050,636.470751,36042.229361
0,1,1,765941.000000,268275.000000,1482508.000000,79617.000000,9391.000000,740453.000000,0.000000,0.000000,0.000000,0.000000,0.000000,0.000000
1,0,314,642568.582803,219711.108280,1246720.184713,66253.576433,7704.738854,622926.165605,10966.846631,3293.588219,59547.590175,1360.405485,580.120366,29753.849248
1,1,1,763760.000000,267098.000000,1500391.000000,79068.000000,9444.000000,749693.000000,0.000000,0.000000,0.000000,0.000000,0.000000,0.000000
2,0,314,642810.863057,219819.939490,1245917.219745,66307.748408,7672.098726,622520.904459,10413.725546,3110.857171,66008.066028,1293.719889,591.468910,32954.238599
2,1,1,759212.000000,265211.000000,1337309.000000,78305.000000,8294.000000,668329.000000,0.000000,0.000000,0.000000,0.000000,0.000000,0.000000
3,0,400,641953.817500,219742.512500,1241631.292500,66230.477500,7689.767500,620376.882500,9965.954827,2994.810907,59255.843539,1198.063717,610.790241,29608.490387
3,1,635,712319.858268,248832.829921,1413993.133858,74310.833071,9340.296063,706550.437795,8376.345400,2195.541749,87286.136290,1122.666404,768.438523,43610.108895
